%YAML 1.1
%TAG !u! tag:unity3d.com,2011:
--- !u!74 &7400000
AnimationClip:
  m_ObjectHideFlags: 0
  m_PrefabParentObject: {fileID: 0}
  m_PrefabInternal: {fileID: 0}
  m_Name: HAND_HEX
  serializedVersion: 6
  m_Legacy: 1
  m_Compressed: 0
  m_UseHighQualityCurve: 1
  m_RotationCurves: []
  m_CompressedRotationCurves: []
  m_PositionCurves:
  - curve:
      serializedVersion: 2
      m_Curve:
      - time: 0
        value: {x: -830, y: 327, z: 0}
        inSlope: {x: 0, y: 0, z: 0}
        outSlope: {x: 0, y: 0, z: 0}
        tangentMode: 0
      - time: .166666672
        value: {x: -830, y: 327, z: 0}
        inSlope: {x: 0, y: 0, z: 0}
        outSlope: {x: 0, y: 0, z: 0}
        tangentMode: 50331648
      - time: .283333331
        value: {x: -826, y: -37, z: 0}
        inSlope: {x: 0, y: 0, z: 0}
        outSlope: {x: 0, y: 0, z: 0}
        tangentMode: 0
      - time: .333333343
        value: {x: -826, y: -37, z: 0}
        inSlope: {x: 0, y: 0, z: 0}
        outSlope: {x: 0, y: 0, z: 0}
        tangentMode: 768
      - time: .449999988
        value: {x: -519, y: -225, z: 0}
        inSlope: {x: 0, y: 0, z: 0}
        outSlope: {x: 0, y: 0, z: 0}
        tangentMode: 0
      - time: .5
        value: {x: -519, y: -225, z: 0}
        inSlope: {x: 0, y: 0, z: 0}
        outSlope: {x: 0, y: 0, z: 0}
        tangentMode: 0
      - time: .616666675
        value: {x: -215, y: -50, z: 0}
        inSlope: {x: 0, y: 0, z: 0}
        outSlope: {x: 0, y: 0, z: 0}
        tangentMode: 58
      - time: .666666687
        value: {x: -215, y: -50, z: 0}
        inSlope: {x: 0, y: 0, z: 0}
        outSlope: {x: 0, y: 0, z: 0}
        tangentMode: 40
      - time: .783333361
        value: {x: -215, y: 299, z: 0}
        inSlope: {x: 0, y: 0, z: 0}
        outSlope: {x: 0, y: 0, z: 0}
        tangentMode: 0
      - time: .833333313
        value: {x: -215, y: 299, z: 0}
        inSlope: {x: 0, y: 0, z: 0}
        outSlope: {x: 0, y: 0, z: 0}
        tangentMode: 0
      - time: .949999988
        value: {x: -527, y: 477, z: 0}
        inSlope: {x: 0, y: 0, z: 0}
        outSlope: {x: 0, y: 0, z: 0}
        tangentMode: 0
      - time: 1
        value: {x: -527, y: 477, z: 0}
        inSlope: {x: 0, y: 0, z: 0}
        outSlope: {x: 0, y: 0, z: 0}
        tangentMode: 127
      - time: 1.11666667
        value: {x: -715, y: 371, z: 0}
        inSlope: {x: 0, y: 0, z: 0}
        outSlope: {x: 0, y: 0, z: 0}
        tangentMode: 2621696
      - time: 1.2833333
        value: {x: -715, y: 371, z: 0}
        inSlope: {x: 0, y: 0, z: 0}
        outSlope: {x: 0, y: 0, z: 0}
        tangentMode: 9
      m_PreInfinity: 2
      m_PostInfinity: 2
    path: 
  m_ScaleCurves: []
  m_FloatCurves: []
  m_PPtrCurves: []
  m_SampleRate: 60
  m_WrapMode: 0
  m_Bounds:
    m_Center: {x: 0, y: 0, z: 0}
    m_Extent: {x: 0, y: 0, z: 0}
  m_ClipBindingConstant:
    genericBindings: []
    pptrCurveMapping: []
  m_AnimationClipSettings:
    serializedVersion: 2
    m_StartTime: 0
    m_StopTime: 1.2833333
    m_OrientationOffsetY: 0
    m_Level: 0
    m_CycleOffset: 0
    m_LoopTime: 0
    m_LoopBlend: 0
    m_LoopBlendOrientation: 0
    m_LoopBlendPositionY: 0
    m_LoopBlendPositionXZ: 0
    m_KeepOriginalOrientation: 0
    m_KeepOriginalPositionY: 1
    m_KeepOriginalPositionXZ: 0
    m_HeightFromFeet: 0
    m_Mirror: 0
  m_EditorCurves:
  - curve:
      serializedVersion: 2
      m_Curve:
      - time: 0
        value: -830
        inSlope: 0
        outSlope: 0
        tangentMode: 0
      - time: .166666672
        value: -830
        inSlope: 0
        outSlope: 0
        tangentMode: 0
      - time: .283333331
        value: -826
        inSlope: 0
        outSlope: 0
        tangentMode: 0
      - time: .333333343
        value: -826
        inSlope: 0
        outSlope: 0
        tangentMode: 0
      - time: .449999988
        value: -519
        inSlope: 0
        outSlope: 0
        tangentMode: 0
      - time: .5
        value: -519
        inSlope: 0
        outSlope: 0
        tangentMode: 0
      - time: .616666675
        value: -215
        inSlope: 0
        outSlope: 0
        tangentMode: 0
      - time: .666666687
        value: -215
        inSlope: 0
        outSlope: 0
        tangentMode: 0
      - time: .783333361
        value: -215
        inSlope: 0
        outSlope: 0
        tangentMode: 0
      - time: .833333313
        value: -215
        inSlope: 0
        outSlope: 0
        tangentMode: 0
      - time: .949999988
        value: -527
        inSlope: 0
        outSlope: 0
        tangentMode: 0
      - time: 1
        value: -527
        inSlope: 0
        outSlope: 0
        tangentMode: 0
      - time: 1.11666667
        value: -715
        inSlope: 0
        outSlope: 0
        tangentMode: 0
      - time: 1.2833333
        value: -715
        inSlope: 0
        outSlope: 0
        tangentMode: 0
      m_PreInfinity: 2
      m_PostInfinity: 2
    attribute: m_LocalPosition.x
    path: 
    classID: 4
    script: {fileID: 0}
  - curve:
      serializedVersion: 2
      m_Curve:
      - time: 0
        value: 327
        inSlope: 0
        outSlope: 0
        tangentMode: 0
      - time: .166666672
        value: 327
        inSlope: 0
        outSlope: 0
        tangentMode: 0
      - time: .283333331
        value: -37
        inSlope: 0
        outSlope: 0
        tangentMode: 0
      - time: .333333343
        value: -37
        inSlope: 0
        outSlope: 0
        tangentMode: 0
      - time: .449999988
        value: -225
        inSlope: 0
        outSlope: 0
        tangentMode: 0
      - time: .5
        value: -225
        inSlope: 0
        outSlope: 0
        tangentMode: 0
      - time: .616666675
        value: -50
        inSlope: 0
        outSlope: 0
        tangentMode: 0
      - time: .666666687
        value: -50
        inSlope: 0
        outSlope: 0
        tangentMode: 0
      - time: .783333361
        value: 299
        inSlope: 0
        outSlope: 0
        tangentMode: 0
      - time: .833333313
        value: 299
        inSlope: 0
        outSlope: 0
        tangentMode: 0
      - time: .949999988
        value: 477
        inSlope: 0
        outSlope: 0
        tangentMode: 0
      - time: 1
        value: 477
        inSlope: 0
        outSlope: 0
        tangentMode: 0
      - time: 1.11666667
        value: 371
        inSlope: 0
        outSlope: 0
        tangentMode: 0
      - time: 1.2833333
        value: 371
        inSlope: 0
        outSlope: 0
        tangentMode: 0
      m_PreInfinity: 2
      m_PostInfinity: 2
    attribute: m_LocalPosition.y
    path: 
    classID: 4
    script: {fileID: 0}
  - curve:
      serializedVersion: 2
      m_Curve:
      - time: 0
        value: 0
        inSlope: 0
        outSlope: 0
        tangentMode: 0
      - time: .166666672
        value: 0
        inSlope: 0
        outSlope: 0
        tangentMode: 0
      - time: .283333331
        value: 0
        inSlope: 0
        outSlope: 0
        tangentMode: 0
      - time: .333333343
        value: 0
        inSlope: 0
        outSlope: 0
        tangentMode: 0
      - time: .449999988
        value: 0
        inSlope: 0
        outSlope: 0
        tangentMode: 0
      - time: .5
        value: 0
        inSlope: 0
        outSlope: 0
        tangentMode: 0
      - time: .616666675
        value: 0
        inSlope: 0
        outSlope: 0
        tangentMode: 0
      - time: .666666687
        value: 0
        inSlope: 0
        outSlope: 0
        tangentMode: 0
      - time: .783333361
        value: 0
        inSlope: 0
        outSlope: 0
        tangentMode: 0
      - time: .833333313
        value: 0
        inSlope: 0
        outSlope: 0
        tangentMode: 0
      - time: .949999988
        value: 0
        inSlope: 0
        outSlope: 0
        tangentMode: 0
      - time: 1
        value: 0
        inSlope: 0
        outSlope: 0
        tangentMode: 0
      - time: 1.11666667
        value: 0
        inSlope: 0
        outSlope: 0
        tangentMode: 0
      - time: 1.2833333
        value: 0
        inSlope: 0
        outSlope: 0
        tangentMode: 0
      m_PreInfinity: 2
      m_PostInfinity: 2
    attribute: m_LocalPosition.z
    path: 
    classID: 4
    script: {fileID: 0}
  m_EulerEditorCurves: []
  m_HasGenericRootTransform: 0
  m_HasMotionFloatCurves: 0
  m_GenerateMotionCurves: 0
  m_Events: []
