%YAML 1.1
%TAG !u! tag:unity3d.com,2011:
--- !u!74 &7400000
AnimationClip:
  m_ObjectHideFlags: 0
  m_PrefabParentObject: {fileID: 0}
  m_PrefabInternal: {fileID: 0}
  m_Name: POGRUZCHIK_STOP
  serializedVersion: 4
  m_AnimationType: 1
  m_Compressed: 0
  m_UseHighQualityCurve: 1
  m_RotationCurves:
  - curve:
      serializedVersion: 2
      m_Curve:
      - time: 0
        value: {x: 0, y: 0, z: 0, w: 1}
        inSlope: {x: 0, y: 0, z: 6.58267069, w: -.36219117}
        outSlope: {x: 0, y: 0, z: 6.58267069, w: -.36219117}
        tangentMode: 1970080304
      - time: .0166666675
        value: {x: 0, y: 0, z: .109711185, w: .99396348}
        inSlope: {x: 0, y: 0, z: 6.80429888, w: -.781829894}
        outSlope: {x: 0, y: 0, z: 6.80429888, w: -.781829894}
        tangentMode: 175841314
      - time: .0333333351
        value: {x: 0, y: 0, z: .226809978, w: .973939002}
        inSlope: {x: 0, y: 0, z: 7.1186986, w: -1.68296266}
        outSlope: {x: 0, y: 0, z: 7.1186986, w: -1.68296266}
        tangentMode: 1970567269
      - time: .0500000045
        value: {x: 0, y: 0, z: .347001165, w: .937864721}
        inSlope: {x: 0, y: 0, z: 7.16629887, w: -2.66967964}
        outSlope: {x: 0, y: 0, z: 7.16629887, w: -2.66967964}
        tangentMode: 1801873509
      - time: .0666666701
        value: {x: 0, y: 0, z: .465686619, w: .884949684}
        inSlope: {x: 0, y: 0, z: 6.93993664, w: -3.66190577}
        outSlope: {x: 0, y: 0, z: 6.93993664, w: -3.66190577}
        tangentMode: 1751475302
      - time: .0833333358
        value: {x: 0, y: 0, z: .578332365, w: .815801203}
        inSlope: {x: 0, y: 0, z: 6.4556303, w: -4.57648182}
        outSlope: {x: 0, y: 0, z: 6.4556303, w: -4.57648182}
        tangentMode: 1633771876
      - time: .100000001
        value: {x: 0, y: 0, z: .680874288, w: .732400298}
        inSlope: {x: 0, y: 0, z: 5.75296116, w: -5.33625889}
        outSlope: {x: 0, y: 0, z: 5.75296116, w: -5.33625889}
        tangentMode: 1633772129
      - time: .116666667
        value: {x: 0, y: 0, z: .770097733, w: .637925923}
        inSlope: {x: 0, y: 0, z: 4.89163113, w: -5.87834644}
        outSlope: {x: 0, y: 0, z: 4.89163113, w: -5.87834644}
        tangentMode: 1633968394
      - time: .13333334
        value: {x: 0, y: 0, z: .843928695, w: .536455393}
        inSlope: {x: 0, y: 0, z: 3.94479895, w: -6.16009712}
        outSlope: {x: 0, y: 0, z: 3.94479895, w: -6.16009712}
        tangentMode: 1717855841
      - time: .150000006
        value: {x: 0, y: 0, z: .901591063, w: .432589322}
        inSlope: {x: 0, y: 0, z: 2.99039507, w: -6.16176319}
        outSlope: {x: 0, y: 0, z: 2.99039507, w: -6.16176319}
        tangentMode: 1885695083
      - time: .166666672
        value: {x: 0, y: 0, z: .943608522, w: .3310633}
        inSlope: {x: 0, y: 0, z: 2.10188103, w: -5.88542461}
        outSlope: {x: 0, y: 0, z: 2.10188103, w: -5.88542461}
        tangentMode: 1633771873
      - time: .183333337
        value: {x: 0, y: 0, z: .971653759, w: .236408517}
        inSlope: {x: 0, y: 0, z: 1.33987617, w: -5.35060549}
        outSlope: {x: 0, y: 0, z: 1.33987617, w: -5.35060549}
        tangentMode: 1667655013
      - time: .200000003
        value: {x: 0, y: 0, z: .988271058, w: .152709797}
        inSlope: {x: 0, y: 0, z: .745639861, w: -4.58748627}
        outSlope: {x: 0, y: 0, z: .745639861, w: -4.58748627}
        tangentMode: 1633771873
      - time: .216666669
        value: {x: 0, y: 0, z: .99650842, w: .0834923238}
        inSlope: {x: 0, y: 0, z: .336756736, w: -3.62920308}
        outSlope: {x: 0, y: 0, z: .336756736, w: -3.62920308}
        tangentMode: 1633773922
      - time: .233333334
        value: {x: 0, y: 0, z: .999496281, w: .0317363665}
        inSlope: {x: 0, y: 0, z: .104747422, w: -2.50477123}
        outSlope: {x: 0, y: 0, z: .104747422, w: -2.50477123}
        tangentMode: 1633772131
      - time: .25
        value: {x: 0, y: 0, z: 1, w: -4.37113883e-08}
        inSlope: {x: 0, y: 0, z: .0120109357, w: -1.38335133}
        outSlope: {x: 0, y: 0, z: .0120109357, w: -1.38335133}
        tangentMode: 1650549603
      - time: .266666681
        value: {x: 0, y: 0, z: .999896646, w: -.0143753542}
        inSlope: {x: 0, y: 0, z: -.00391244562, w: -.484535635}
        outSlope: {x: 0, y: 0, z: -.00391244562, w: -.484535635}
        tangentMode: 1633838949
      - time: .283333361
        value: {x: 0, y: 0, z: .999869585, w: -.0161512457}
        inSlope: {x: 0, y: 0, z: .00253736763, w: .247292891}
        outSlope: {x: 0, y: 0, z: .00253736763, w: .247292891}
        tangentMode: 1667459176
      - time: .300000042
        value: {x: 0, y: 0, z: .999981225, w: -.00613225019}
        inSlope: {x: 0, y: 0, z: .000591873657, w: .930881321}
        outSlope: {x: 0, y: 0, z: .000591873657, w: .930881321}
        tangentMode: 1668311649
      - time: .316666722
        value: {x: 0, y: 0, z: .999889314, w: .0148781575}
        inSlope: {x: 0, y: 0, z: -.0312781073, w: 1.56578267}
        outSlope: {x: 0, y: 0, z: -.0312781073, w: 1.56578267}
        tangentMode: 1633771873
      - time: .333333403
        value: {x: 0, y: 0, z: .99893862, w: .0460605472}
        inSlope: {x: 0, y: 0, z: -.109253436, w: 2.15013957}
        outSlope: {x: 0, y: 0, z: -.109253436, w: 2.15013957}
        tangentMode: 1633771874
      - time: .350000083
        value: {x: 0, y: 0, z: .99624753, w: .0865495354}
        inSlope: {x: 0, y: 0, z: -.244429499, w: 2.68019438}
        outSlope: {x: 0, y: 0, z: -.244429499, w: 2.68019438}
        tangentMode: 543519349
      - time: .366666764
        value: {x: 0, y: 0, z: .990790963, w: .135400429}
        inSlope: {x: 0, y: 0, z: -.443000436, w: 3.15032244}
        outSlope: {x: 0, y: 0, z: -.443000436, w: 3.15032244}
        tangentMode: 1881279025
      - time: .383333445
        value: {x: 0, y: 0, z: .981480837, w: .191560373}
        inSlope: {x: 0, y: 0, z: -.706400275, w: 3.55340958}
        outSlope: {x: 0, y: 0, z: -.706400275, w: 3.55340958}
        tangentMode: 1852858981
      - time: .400000125
        value: {x: 0, y: 0, z: .967244267, w: .25384751}
        inSlope: {x: 0, y: 0, z: -1.03148019, w: 3.88150859}
        outSlope: {x: 0, y: 0, z: -1.03148019, w: 3.88150859}
        tangentMode: 1633771875
      - time: .416666806
        value: {x: 0, y: 0, z: .947098136, w: .320944101}
        inSlope: {x: 0, y: 0, z: -1.4107728, w: 4.12672329}
        outSlope: {x: 0, y: 0, z: -1.4107728, w: 4.12672329}
        tangentMode: 1835229537
      - time: .433333486
        value: {x: 0, y: 0, z: .920218468, w: .391405076}
        inSlope: {x: 0, y: 0, z: -1.83290386, w: 4.28215551}
        outSlope: {x: 0, y: 0, z: -1.83290386, w: 4.28215551}
        tangentMode: 1885561185
      - time: .450000167
        value: {x: 0, y: 0, z: .886001289, w: .463682741}
        inSlope: {x: 0, y: 0, z: -2.28319454, w: 4.3428545}
        outSlope: {x: 0, y: 0, z: -2.28319454, w: 4.3428545}
        tangentMode: 1633775714
      - time: .466666847
        value: {x: 0, y: 0, z: .844111919, w: .536167026}
        inSlope: {x: 0, y: 0, z: -2.74446082, w: 4.30668449}
        outSlope: {x: 0, y: 0, z: -2.74446082, w: 4.30668449}
        tangentMode: 1633771873
      - time: .483333528
        value: {x: 0, y: 0, z: .794519186, w: .607239008}
        inSlope: {x: 0, y: 0, z: -3.19798231, w: 4.17499256}
        outSlope: {x: 0, y: 0, z: -3.19798231, w: 4.17499256}
        tangentMode: 1633837412
      - time: .500000179
        value: {x: 0, y: 0, z: .737512529, w: .67533344}
        inSlope: {x: 0, y: 0, z: -3.62459588, w: 3.95299697}
        outSlope: {x: 0, y: 0, z: -3.62459588, w: 3.95299697}
        tangentMode: 1717657964
      - time: .51666683
        value: {x: 0, y: 0, z: .673699439, w: .739005446}
        inSlope: {x: 0, y: 0, z: -4.00584555, w: 3.64988375}
        outSlope: {x: 0, y: 0, z: -4.00584555, w: 3.64988375}
        tangentMode: 1885432165
      - time: .53333348
        value: {x: 0, y: 0, z: .603984475, w: .796996117}
        inSlope: {x: 0, y: 0, z: -4.32507896, w: 3.27857089}
        outSlope: {x: 0, y: 0, z: -4.32507896, w: 3.27857089}
        tangentMode: 1633771874
      - time: .550000131
        value: {x: 0, y: 0, z: .529530287, w: .848291039}
        inSlope: {x: 0, y: 0, z: -4.56840611, w: 2.85514808}
        outSlope: {x: 0, y: 0, z: -4.56840611, w: 2.85514808}
        tangentMode: 1633771873
      - time: .566666782
        value: {x: 0, y: 0, z: .451704413, w: .892167628}
        inSlope: {x: 0, y: 0, z: -4.72544622, w: 2.39806533}
        outSlope: {x: 0, y: 0, z: -4.72544622, w: 2.39806533}
        tangentMode: 1633837410
      - time: .583333433
        value: {x: 0, y: 0, z: .372015566, w: .928226471}
        inSlope: {x: 0, y: 0, z: -4.78976917, w: 1.92710471}
        outSlope: {x: 0, y: 0, z: -4.78976917, w: 1.92710471}
        tangentMode: 0
      - time: .600000083
        value: {x: 0, y: 0, z: .292045593, w: .956404388}
        inSlope: {x: 0, y: 0, z: -4.75900841, w: 1.46227205}
        outSlope: {x: 0, y: 0, z: -4.75900841, w: 1.46227205}
        tangentMode: 1065353216
      - time: .616666734
        value: {x: 0, y: 0, z: .213382095, w: .976968825}
        inSlope: {x: 0, y: 0, z: -4.63463879, w: 1.02268076}
        outSlope: {x: 0, y: 0, z: -4.63463879, w: 1.02268076}
        tangentMode: 1065251039
      - time: .633333385
        value: {x: 0, y: 0, z: .137557775, w: .990493715}
        inSlope: {x: 0, y: 0, z: -4.42144489, w: .625523925}
        outSlope: {x: 0, y: 0, z: -4.42144489, w: .625523925}
        tangentMode: 1064909052
      - time: .650000036
        value: {x: 0, y: 0, z: .0660007447, w: .997819602}
        inSlope: {x: 0, y: 0, z: -4.12673712, w: .285188824}
        outSlope: {x: 0, y: 0, z: -4.12673712, w: .285188824}
        tangentMode: 1064288700
      - time: .666666687
        value: {x: 0, y: 0, z: 0, w: 1}
        inSlope: {x: 0, y: 0, z: -3.96004844, w: .13082397}
        outSlope: {x: 0, y: 0, z: -3.96004844, w: .13082397}
        tangentMode: 1063374713
      m_PreInfinity: 2
      m_PostInfinity: 2
    path: KOLESA/WHEEL_1
  - curve:
      serializedVersion: 2
      m_Curve:
      - time: 0
        value: {x: 0, y: 0, z: 0, w: 1}
        inSlope: {x: 0, y: 0, z: 6.58267069, w: -.36219117}
        outSlope: {x: 0, y: 0, z: 6.58267069, w: -.36219117}
        tangentMode: 0
      - time: .0166666675
        value: {x: 0, y: 0, z: .109711185, w: .99396348}
        inSlope: {x: 0, y: 0, z: 6.80429888, w: -.781829894}
        outSlope: {x: 0, y: 0, z: 6.80429888, w: -.781829894}
        tangentMode: 0
      - time: .0333333351
        value: {x: 0, y: 0, z: .226809978, w: .973939002}
        inSlope: {x: 0, y: 0, z: 7.1186986, w: -1.68296266}
        outSlope: {x: 0, y: 0, z: 7.1186986, w: -1.68296266}
        tangentMode: 0
      - time: .0500000045
        value: {x: 0, y: 0, z: .347001165, w: .937864721}
        inSlope: {x: 0, y: 0, z: 7.16629887, w: -2.66967964}
        outSlope: {x: 0, y: 0, z: 7.16629887, w: -2.66967964}
        tangentMode: 0
      - time: .0666666701
        value: {x: 0, y: 0, z: .465686619, w: .884949684}
        inSlope: {x: 0, y: 0, z: 6.93993664, w: -3.66190577}
        outSlope: {x: 0, y: 0, z: 6.93993664, w: -3.66190577}
        tangentMode: 0
      - time: .0833333358
        value: {x: 0, y: 0, z: .578332365, w: .815801203}
        inSlope: {x: 0, y: 0, z: 6.4556303, w: -4.57648182}
        outSlope: {x: 0, y: 0, z: 6.4556303, w: -4.57648182}
        tangentMode: 0
      - time: .100000001
        value: {x: 0, y: 0, z: .680874288, w: .732400298}
        inSlope: {x: 0, y: 0, z: 5.75296116, w: -5.33625889}
        outSlope: {x: 0, y: 0, z: 5.75296116, w: -5.33625889}
        tangentMode: 0
      - time: .116666667
        value: {x: 0, y: 0, z: .770097733, w: .637925923}
        inSlope: {x: 0, y: 0, z: 4.89163113, w: -5.87834644}
        outSlope: {x: 0, y: 0, z: 4.89163113, w: -5.87834644}
        tangentMode: 0
      - time: .13333334
        value: {x: 0, y: 0, z: .843928695, w: .536455393}
        inSlope: {x: 0, y: 0, z: 3.94479895, w: -6.16009712}
        outSlope: {x: 0, y: 0, z: 3.94479895, w: -6.16009712}
        tangentMode: 0
      - time: .150000006
        value: {x: 0, y: 0, z: .901591063, w: .432589322}
        inSlope: {x: 0, y: 0, z: 2.99039507, w: -6.16176319}
        outSlope: {x: 0, y: 0, z: 2.99039507, w: -6.16176319}
        tangentMode: 0
      - time: .166666672
        value: {x: 0, y: 0, z: .943608522, w: .3310633}
        inSlope: {x: 0, y: 0, z: 2.10188103, w: -5.88542461}
        outSlope: {x: 0, y: 0, z: 2.10188103, w: -5.88542461}
        tangentMode: 0
      - time: .183333337
        value: {x: 0, y: 0, z: .971653759, w: .236408517}
        inSlope: {x: 0, y: 0, z: 1.33987617, w: -5.35060549}
        outSlope: {x: 0, y: 0, z: 1.33987617, w: -5.35060549}
        tangentMode: 0
      - time: .200000003
        value: {x: 0, y: 0, z: .988271058, w: .152709797}
        inSlope: {x: 0, y: 0, z: .745639861, w: -4.58748627}
        outSlope: {x: 0, y: 0, z: .745639861, w: -4.58748627}
        tangentMode: 0
      - time: .216666669
        value: {x: 0, y: 0, z: .99650842, w: .0834923238}
        inSlope: {x: 0, y: 0, z: .336756736, w: -3.62920308}
        outSlope: {x: 0, y: 0, z: .336756736, w: -3.62920308}
        tangentMode: 0
      - time: .233333334
        value: {x: 0, y: 0, z: .999496281, w: .0317363665}
        inSlope: {x: 0, y: 0, z: .104747422, w: -2.50477123}
        outSlope: {x: 0, y: 0, z: .104747422, w: -2.50477123}
        tangentMode: 0
      - time: .25
        value: {x: 0, y: 0, z: 1, w: -4.37113883e-08}
        inSlope: {x: 0, y: 0, z: .0120109357, w: -1.38335133}
        outSlope: {x: 0, y: 0, z: .0120109357, w: -1.38335133}
        tangentMode: 0
      - time: .266666681
        value: {x: 0, y: 0, z: .999896646, w: -.0143753542}
        inSlope: {x: 0, y: 0, z: -.00391244562, w: -.484535635}
        outSlope: {x: 0, y: 0, z: -.00391244562, w: -.484535635}
        tangentMode: 0
      - time: .283333361
        value: {x: 0, y: 0, z: .999869585, w: -.0161512457}
        inSlope: {x: 0, y: 0, z: .00253736763, w: .247292891}
        outSlope: {x: 0, y: 0, z: .00253736763, w: .247292891}
        tangentMode: 0
      - time: .300000042
        value: {x: 0, y: 0, z: .999981225, w: -.00613225019}
        inSlope: {x: 0, y: 0, z: .000591873657, w: .930881321}
        outSlope: {x: 0, y: 0, z: .000591873657, w: .930881321}
        tangentMode: 0
      - time: .316666722
        value: {x: 0, y: 0, z: .999889314, w: .0148781575}
        inSlope: {x: 0, y: 0, z: -.0312781073, w: 1.56578267}
        outSlope: {x: 0, y: 0, z: -.0312781073, w: 1.56578267}
        tangentMode: 0
      - time: .333333403
        value: {x: 0, y: 0, z: .99893862, w: .0460605472}
        inSlope: {x: 0, y: 0, z: -.109253436, w: 2.15013957}
        outSlope: {x: 0, y: 0, z: -.109253436, w: 2.15013957}
        tangentMode: 0
      - time: .350000083
        value: {x: 0, y: 0, z: .99624753, w: .0865495354}
        inSlope: {x: 0, y: 0, z: -.244429499, w: 2.68019438}
        outSlope: {x: 0, y: 0, z: -.244429499, w: 2.68019438}
        tangentMode: 0
      - time: .366666764
        value: {x: 0, y: 0, z: .990790963, w: .135400429}
        inSlope: {x: 0, y: 0, z: -.443000436, w: 3.15032244}
        outSlope: {x: 0, y: 0, z: -.443000436, w: 3.15032244}
        tangentMode: 0
      - time: .383333445
        value: {x: 0, y: 0, z: .981480837, w: .191560373}
        inSlope: {x: 0, y: 0, z: -.706400275, w: 3.55340958}
        outSlope: {x: 0, y: 0, z: -.706400275, w: 3.55340958}
        tangentMode: 0
      - time: .400000125
        value: {x: 0, y: 0, z: .967244267, w: .25384751}
        inSlope: {x: 0, y: 0, z: -1.03148019, w: 3.88150859}
        outSlope: {x: 0, y: 0, z: -1.03148019, w: 3.88150859}
        tangentMode: 0
      - time: .416666806
        value: {x: 0, y: 0, z: .947098136, w: .320944101}
        inSlope: {x: 0, y: 0, z: -1.4107728, w: 4.12672329}
        outSlope: {x: 0, y: 0, z: -1.4107728, w: 4.12672329}
        tangentMode: 0
      - time: .433333486
        value: {x: 0, y: 0, z: .920218468, w: .391405076}
        inSlope: {x: 0, y: 0, z: -1.83290386, w: 4.28215551}
        outSlope: {x: 0, y: 0, z: -1.83290386, w: 4.28215551}
        tangentMode: 0
      - time: .450000167
        value: {x: 0, y: 0, z: .886001289, w: .463682741}
        inSlope: {x: 0, y: 0, z: -2.28319454, w: 4.3428545}
        outSlope: {x: 0, y: 0, z: -2.28319454, w: 4.3428545}
        tangentMode: 0
      - time: .466666847
        value: {x: 0, y: 0, z: .844111919, w: .536167026}
        inSlope: {x: 0, y: 0, z: -2.74446082, w: 4.30668449}
        outSlope: {x: 0, y: 0, z: -2.74446082, w: 4.30668449}
        tangentMode: 0
      - time: .483333528
        value: {x: 0, y: 0, z: .794519186, w: .607239008}
        inSlope: {x: 0, y: 0, z: -3.19798231, w: 4.17499256}
        outSlope: {x: 0, y: 0, z: -3.19798231, w: 4.17499256}
        tangentMode: 0
      - time: .500000179
        value: {x: 0, y: 0, z: .737512529, w: .67533344}
        inSlope: {x: 0, y: 0, z: -3.62459588, w: 3.95299697}
        outSlope: {x: 0, y: 0, z: -3.62459588, w: 3.95299697}
        tangentMode: 0
      - time: .51666683
        value: {x: 0, y: 0, z: .673699439, w: .739005446}
        inSlope: {x: 0, y: 0, z: -4.00584555, w: 3.64988375}
        outSlope: {x: 0, y: 0, z: -4.00584555, w: 3.64988375}
        tangentMode: 0
      - time: .53333348
        value: {x: 0, y: 0, z: .603984475, w: .796996117}
        inSlope: {x: 0, y: 0, z: -4.32507896, w: 3.27857089}
        outSlope: {x: 0, y: 0, z: -4.32507896, w: 3.27857089}
        tangentMode: 0
      - time: .550000131
        value: {x: 0, y: 0, z: .529530287, w: .848291039}
        inSlope: {x: 0, y: 0, z: -4.56840611, w: 2.85514808}
        outSlope: {x: 0, y: 0, z: -4.56840611, w: 2.85514808}
        tangentMode: 0
      - time: .566666782
        value: {x: 0, y: 0, z: .451704413, w: .892167628}
        inSlope: {x: 0, y: 0, z: -4.72544622, w: 2.39806533}
        outSlope: {x: 0, y: 0, z: -4.72544622, w: 2.39806533}
        tangentMode: 0
      - time: .583333433
        value: {x: 0, y: 0, z: .372015566, w: .928226471}
        inSlope: {x: 0, y: 0, z: -4.78976917, w: 1.92710471}
        outSlope: {x: 0, y: 0, z: -4.78976917, w: 1.92710471}
        tangentMode: 124708688
      - time: .600000083
        value: {x: 0, y: 0, z: .292045593, w: .956404388}
        inSlope: {x: 0, y: 0, z: -4.75900841, w: 1.46227205}
        outSlope: {x: 0, y: 0, z: -4.75900841, w: 1.46227205}
        tangentMode: 122061284
      - time: .616666734
        value: {x: 0, y: 0, z: .213382095, w: .976968825}
        inSlope: {x: 0, y: 0, z: -4.63463879, w: 1.02268076}
        outSlope: {x: 0, y: 0, z: -4.63463879, w: 1.02268076}
        tangentMode: 122061284
      - time: .633333385
        value: {x: 0, y: 0, z: .137557775, w: .990493715}
        inSlope: {x: 0, y: 0, z: -4.42144489, w: .625523925}
        outSlope: {x: 0, y: 0, z: -4.42144489, w: .625523925}
        tangentMode: 122061284
      - time: .650000036
        value: {x: 0, y: 0, z: .0660007447, w: .997819602}
        inSlope: {x: 0, y: 0, z: -4.12673712, w: .285188824}
        outSlope: {x: 0, y: 0, z: -4.12673712, w: .285188824}
        tangentMode: 122061284
      - time: .666666687
        value: {x: 0, y: 0, z: 0, w: 1}
        inSlope: {x: 0, y: 0, z: -3.96004844, w: .13082397}
        outSlope: {x: 0, y: 0, z: -3.96004844, w: .13082397}
        tangentMode: 124738176
      m_PreInfinity: 2
      m_PostInfinity: 2
    path: KOLESA/WHEEL_2
  m_CompressedRotationCurves: []
  m_PositionCurves:
  - curve:
      serializedVersion: 2
      m_Curve:
      - time: 0
        value: {x: 255.195984, y: -264.190369, z: -80}
        inSlope: {x: 0, y: 19.9998779, z: 0}
        outSlope: {x: 0, y: 19.9998779, z: 0}
        tangentMode: 0
      - time: .25
        value: {x: 255.195984, y: -259.190399, z: -80}
        inSlope: {x: 0, y: -20.0000629, z: 0}
        outSlope: {x: 0, y: -20.0000629, z: 0}
        tangentMode: 0
      - time: .416666657
        value: {x: 255.195984, y: -269.190399, z: -80}
        inSlope: {x: 0, y: -20.0000038, z: 0}
        outSlope: {x: 0, y: -20.0000038, z: 0}
        tangentMode: 0
      - time: .666666687
        value: {x: 255.195984, y: -264.190399, z: -80}
        inSlope: {x: 0, y: 19.9999981, z: 0}
        outSlope: {x: 0, y: 19.9999981, z: 0}
        tangentMode: 0
      m_PreInfinity: 2
      m_PostInfinity: 2
    path: KABINA_CONTROL
  - curve:
      serializedVersion: 2
      m_Curve:
      - time: 0
        value: {x: 0, y: 0, z: 0}
        inSlope: {x: -316, y: 0, z: 0}
        outSlope: {x: -316, y: 0, z: 0}
        tangentMode: 0
      - time: .25
        value: {x: -79, y: 0, z: 0}
        inSlope: {x: -63.2000046, y: 0, z: 0}
        outSlope: {x: -63.2000046, y: 0, z: 0}
        tangentMode: 1088862546
      - time: .666666687
        value: {x: 0, y: 0, z: 0}
        inSlope: {x: 189.599991, y: 0, z: 0}
        outSlope: {x: 189.599991, y: 0, z: 0}
        tangentMode: 1064288700
      m_PreInfinity: 2
      m_PostInfinity: 2
    path: 
  - curve:
      serializedVersion: 2
      m_Curve:
      - time: 0
        value: {x: -356, y: 269, z: 40}
        inSlope: {x: 0, y: 0, z: 0}
        outSlope: {x: 0, y: 0, z: 0}
        tangentMode: 0
      - time: .25
        value: {x: -356, y: 269, z: 40}
        inSlope: {x: 0, y: -129.599991, z: 0}
        outSlope: {x: 0, y: -129.599991, z: 0}
        tangentMode: 0
      - time: .666666687
        value: {x: -356, y: 161, z: 40}
        inSlope: {x: 0, y: -259.199982, z: 0}
        outSlope: {x: 0, y: -259.199982, z: 0}
        tangentMode: 2
      m_PreInfinity: 2
      m_PostInfinity: 2
    path: KABINA_CONTROL/PODDON_ROG
  m_ScaleCurves:
  - curve:
      serializedVersion: 2
      m_Curve:
      - time: 0
        value: {x: 1, y: 1, z: 1}
        inSlope: {x: .299999684, y: 0, z: 0}
        outSlope: {x: .299999684, y: 0, z: 0}
        tangentMode: 0
      - time: .0333333351
        value: {x: 1.00999999, y: 1, z: 1}
        inSlope: {x: 0, y: 0, z: 0}
        outSlope: {x: 0, y: 0, z: 0}
        tangentMode: 50331648
      - time: .0666666701
        value: {x: 1, y: 1, z: 1}
        inSlope: {x: -.149999842, y: .149999872, z: 0}
        outSlope: {x: -.149999842, y: .149999872, z: 0}
        tangentMode: 0
      - time: .100000001
        value: {x: 1, y: 1.00999999, z: 1}
        inSlope: {x: 0, y: 4.47034836e-08, z: 0}
        outSlope: {x: 0, y: 4.47034836e-08, z: 0}
        tangentMode: 480
      - time: .13333334
        value: {x: 1, y: 1, z: 1}
        inSlope: {x: .149999872, y: -.149999827, z: 0}
        outSlope: {x: .149999872, y: -.149999827, z: 0}
        tangentMode: 0
      - time: .166666672
        value: {x: 1.00999999, y: 1, z: 1}
        inSlope: {x: 0, y: 0, z: 0}
        outSlope: {x: 0, y: 0, z: 0}
        tangentMode: 0
      - time: .200000003
        value: {x: 1, y: 1, z: 1}
        inSlope: {x: -.149999872, y: .149999872, z: 0}
        outSlope: {x: -.149999872, y: .149999872, z: 0}
        tangentMode: 57
      - time: .233333334
        value: {x: 1, y: 1.00999999, z: 1}
        inSlope: {x: 0, y: 7.4505806e-08, z: 0}
        outSlope: {x: 0, y: 7.4505806e-08, z: 0}
        tangentMode: 39
      - time: .266666681
        value: {x: 1, y: 1, z: 1}
        inSlope: {x: .149999872, y: -.149999797, z: 0}
        outSlope: {x: .149999872, y: -.149999797, z: 0}
        tangentMode: 0
      - time: .300000012
        value: {x: 1.00999999, y: 1, z: 1}
        inSlope: {x: 0, y: 0, z: 0}
        outSlope: {x: 0, y: 0, z: 0}
        tangentMode: 0
      - time: .333333343
        value: {x: 1, y: 1, z: 1}
        inSlope: {x: -.149999872, y: .149999872, z: 0}
        outSlope: {x: -.149999872, y: .149999872, z: 0}
        tangentMode: 0
      - time: .366666675
        value: {x: 1, y: 1.00999999, z: 1}
        inSlope: {x: 0, y: 0, z: 0}
        outSlope: {x: 0, y: 0, z: 0}
        tangentMode: 463
      - time: .400000006
        value: {x: 1, y: 1, z: 1}
        inSlope: {x: .149999872, y: -.149999872, z: 0}
        outSlope: {x: .149999872, y: -.149999872, z: 0}
        tangentMode: 256
      - time: .433333337
        value: {x: 1.00999999, y: 1, z: 1}
        inSlope: {x: 0, y: 0, z: 0}
        outSlope: {x: 0, y: 0, z: 0}
        tangentMode: 4
      - time: .466666669
        value: {x: 1, y: 1, z: 1}
        inSlope: {x: -.149999872, y: .149999872, z: 0}
        outSlope: {x: -.149999872, y: .149999872, z: 0}
        tangentMode: 443875364
      - time: .5
        value: {x: 1, y: 1.00999999, z: 1}
        inSlope: {x: 0, y: 1.34110451e-07, z: 0}
        outSlope: {x: 0, y: 1.34110451e-07, z: 0}
        tangentMode: 28164
      - time: .533333361
        value: {x: 1, y: 1, z: 1}
        inSlope: {x: .150000006, y: -.149999738, z: 0}
        outSlope: {x: .150000006, y: -.149999738, z: 0}
        tangentMode: 1088421889
      - time: .566666663
        value: {x: 1.00999999, y: 1, z: 1}
        inSlope: {x: 2.68220901e-07, y: 0, z: 0}
        outSlope: {x: 2.68220901e-07, y: 0, z: 0}
        tangentMode: 443875364
      - time: .600000024
        value: {x: 1, y: 1, z: 1}
        inSlope: {x: -.149999738, y: .150000006, z: 0}
        outSlope: {x: -.149999738, y: .150000006, z: 0}
        tangentMode: 0
      - time: .633333325
        value: {x: 1, y: 1.00999999, z: 1}
        inSlope: {x: 0, y: 2.68220901e-07, z: 0}
        outSlope: {x: 0, y: 2.68220901e-07, z: 0}
        tangentMode: 0
      - time: .666666687
        value: {x: 1, y: 1, z: 1}
        inSlope: {x: 0, y: -.299999475, z: 0}
        outSlope: {x: 0, y: -.299999475, z: 0}
        tangentMode: 0
      m_PreInfinity: 2
      m_PostInfinity: 2
    path: KABINA_CONTROL/KABINA
  m_FloatCurves:
  - curve:
      serializedVersion: 2
      m_Curve:
      - time: 0
        value: 1
        inSlope: Infinity
        outSlope: Infinity
        tangentMode: 31
      - time: .666666687
        value: 1
        inSlope: Infinity
        outSlope: Infinity
        tangentMode: 31
      m_PreInfinity: 2
      m_PostInfinity: 2
    attribute: m_IsActive
    path: KABINA_CONTROL/PODDON_ROG/PODDON_CONTROL
    classID: 1
    script: {fileID: 0}
  m_PPtrCurves: []
  m_SampleRate: 60
  m_WrapMode: 0
  m_Bounds:
    m_Center: {x: 0, y: 0, z: 0}
    m_Extent: {x: 0, y: 0, z: 0}
  m_ClipBindingConstant:
    genericBindings: []
    pptrCurveMapping: []
  m_AnimationClipSettings:
    serializedVersion: 2
    m_StartTime: 0
    m_StopTime: .666666687
    m_OrientationOffsetY: 0
    m_Level: 0
    m_CycleOffset: 0
    m_LoopTime: 0
    m_LoopBlend: 0
    m_LoopBlendOrientation: 0
    m_LoopBlendPositionY: 0
    m_LoopBlendPositionXZ: 0
    m_KeepOriginalOrientation: 0
    m_KeepOriginalPositionY: 1
    m_KeepOriginalPositionXZ: 0
    m_HeightFromFeet: 0
    m_Mirror: 0
  m_EditorCurves:
  - curve:
      serializedVersion: 2
      m_Curve:
      - time: 0
        value: 255.195984
        inSlope: 0
        outSlope: 0
        tangentMode: 10
      - time: .25
        value: 255.195984
        inSlope: 0
        outSlope: 0
        tangentMode: 10
      - time: .416666657
        value: 255.195984
        inSlope: 0
        outSlope: 0
        tangentMode: 10
      - time: .666666687
        value: 255.195984
        inSlope: 0
        outSlope: 0
        tangentMode: 10
      m_PreInfinity: 2
      m_PostInfinity: 2
    attribute: m_LocalPosition.x
    path: KABINA_CONTROL
    classID: 4
    script: {fileID: 0}
  - curve:
      serializedVersion: 2
      m_Curve:
      - time: 0
        value: -264.190369
        inSlope: 19.9998779
        outSlope: 19.9998779
        tangentMode: 10
      - time: .25
        value: -259.190399
        inSlope: -20.0000629
        outSlope: -20.0000629
        tangentMode: 10
      - time: .416666657
        value: -269.190399
        inSlope: -20.0000038
        outSlope: -20.0000038
        tangentMode: 10
      - time: .666666687
        value: -264.190399
        inSlope: 19.9999981
        outSlope: 19.9999981
        tangentMode: 10
      m_PreInfinity: 2
      m_PostInfinity: 2
    attribute: m_LocalPosition.y
    path: KABINA_CONTROL
    classID: 4
    script: {fileID: 0}
  - curve:
      serializedVersion: 2
      m_Curve:
      - time: 0
        value: -80
        inSlope: 0
        outSlope: 0
        tangentMode: 10
      - time: .25
        value: -80
        inSlope: 0
        outSlope: 0
        tangentMode: 10
      - time: .416666657
        value: -80
        inSlope: 0
        outSlope: 0
        tangentMode: 10
      - time: .666666687
        value: -80
        inSlope: 0
        outSlope: 0
        tangentMode: 10
      m_PreInfinity: 2
      m_PostInfinity: 2
    attribute: m_LocalPosition.z
    path: KABINA_CONTROL
    classID: 4
    script: {fileID: 0}
  - curve:
      serializedVersion: 2
      m_Curve:
      - time: 0
        value: 1
        inSlope: .299999684
        outSlope: .299999684
        tangentMode: 10
      - time: .0333333351
        value: 1.00999999
        inSlope: 0
        outSlope: 0
        tangentMode: 10
      - time: .0666666701
        value: 1
        inSlope: -.149999842
        outSlope: -.149999842
        tangentMode: 10
      - time: .100000001
        value: 1
        inSlope: 0
        outSlope: 0
        tangentMode: 10
      - time: .13333334
        value: 1
        inSlope: .149999872
        outSlope: .149999872
        tangentMode: 10
      - time: .166666672
        value: 1.00999999
        inSlope: 0
        outSlope: 0
        tangentMode: 10
      - time: .200000003
        value: 1
        inSlope: -.149999872
        outSlope: -.149999872
        tangentMode: 10
      - time: .233333334
        value: 1
        inSlope: 0
        outSlope: 0
        tangentMode: 10
      - time: .266666681
        value: 1
        inSlope: .149999872
        outSlope: .149999872
        tangentMode: 10
      - time: .300000012
        value: 1.00999999
        inSlope: 0
        outSlope: 0
        tangentMode: 10
      - time: .333333343
        value: 1
        inSlope: -.149999872
        outSlope: -.149999872
        tangentMode: 10
      - time: .366666675
        value: 1
        inSlope: 0
        outSlope: 0
        tangentMode: 10
      - time: .400000006
        value: 1
        inSlope: .149999872
        outSlope: .149999872
        tangentMode: 10
      - time: .433333337
        value: 1.00999999
        inSlope: 0
        outSlope: 0
        tangentMode: 10
      - time: .466666669
        value: 1
        inSlope: -.149999872
        outSlope: -.149999872
        tangentMode: 10
      - time: .5
        value: 1
        inSlope: 0
        outSlope: 0
        tangentMode: 10
      - time: .533333361
        value: 1
        inSlope: .150000006
        outSlope: .150000006
        tangentMode: 10
      - time: .566666663
        value: 1.00999999
        inSlope: 2.68220901e-07
        outSlope: 2.68220901e-07
        tangentMode: 10
      - time: .600000024
        value: 1
        inSlope: -.149999738
        outSlope: -.149999738
        tangentMode: 10
      - time: .633333325
        value: 1
        inSlope: 0
        outSlope: 0
        tangentMode: 10
      - time: .666666687
        value: 1
        inSlope: 0
        outSlope: 0
        tangentMode: 10
      m_PreInfinity: 2
      m_PostInfinity: 2
    attribute: m_LocalScale.x
    path: KABINA_CONTROL/KABINA
    classID: 4
    script: {fileID: 0}
  - curve:
      serializedVersion: 2
      m_Curve:
      - time: 0
        value: 1
        inSlope: 0
        outSlope: 0
        tangentMode: 10
      - time: .0333333351
        value: 1
        inSlope: 0
        outSlope: 0
        tangentMode: 10
      - time: .0666666701
        value: 1
        inSlope: .149999872
        outSlope: .149999872
        tangentMode: 10
      - time: .100000001
        value: 1.00999999
        inSlope: 4.47034836e-08
        outSlope: 4.47034836e-08
        tangentMode: 10
      - time: .13333334
        value: 1
        inSlope: -.149999827
        outSlope: -.149999827
        tangentMode: 10
      - time: .166666672
        value: 1
        inSlope: 0
        outSlope: 0
        tangentMode: 10
      - time: .200000003
        value: 1
        inSlope: .149999872
        outSlope: .149999872
        tangentMode: 10
      - time: .233333334
        value: 1.00999999
        inSlope: 7.4505806e-08
        outSlope: 7.4505806e-08
        tangentMode: 10
      - time: .266666681
        value: 1
        inSlope: -.149999797
        outSlope: -.149999797
        tangentMode: 10
      - time: .300000012
        value: 1
        inSlope: 0
        outSlope: 0
        tangentMode: 10
      - time: .333333343
        value: 1
        inSlope: .149999872
        outSlope: .149999872
        tangentMode: 10
      - time: .366666675
        value: 1.00999999
        inSlope: 0
        outSlope: 0
        tangentMode: 10
      - time: .400000006
        value: 1
        inSlope: -.149999872
        outSlope: -.149999872
        tangentMode: 10
      - time: .433333337
        value: 1
        inSlope: 0
        outSlope: 0
        tangentMode: 10
      - time: .466666669
        value: 1
        inSlope: .149999872
        outSlope: .149999872
        tangentMode: 10
      - time: .5
        value: 1.00999999
        inSlope: 1.34110451e-07
        outSlope: 1.34110451e-07
        tangentMode: 10
      - time: .533333361
        value: 1
        inSlope: -.149999738
        outSlope: -.149999738
        tangentMode: 10
      - time: .566666663
        value: 1
        inSlope: 0
        outSlope: 0
        tangentMode: 10
      - time: .600000024
        value: 1
        inSlope: .150000006
        outSlope: .150000006
        tangentMode: 10
      - time: .633333325
        value: 1.00999999
        inSlope: 2.68220901e-07
        outSlope: 2.68220901e-07
        tangentMode: 10
      - time: .666666687
        value: 1
        inSlope: -.299999475
        outSlope: -.299999475
        tangentMode: 10
      m_PreInfinity: 2
      m_PostInfinity: 2
    attribute: m_LocalScale.y
    path: KABINA_CONTROL/KABINA
    classID: 4
    script: {fileID: 0}
  - curve:
      serializedVersion: 2
      m_Curve:
      - time: 0
        value: 1
        inSlope: 0
        outSlope: 0
        tangentMode: 10
      - time: .0333333351
        value: 1
        inSlope: 0
        outSlope: 0
        tangentMode: 10
      - time: .0666666701
        value: 1
        inSlope: 0
        outSlope: 0
        tangentMode: 10
      - time: .100000001
        value: 1
        inSlope: 0
        outSlope: 0
        tangentMode: 10
      - time: .13333334
        value: 1
        inSlope: 0
        outSlope: 0
        tangentMode: 10
      - time: .166666672
        value: 1
        inSlope: 0
        outSlope: 0
        tangentMode: 10
      - time: .200000003
        value: 1
        inSlope: 0
        outSlope: 0
        tangentMode: 10
      - time: .233333334
        value: 1
        inSlope: 0
        outSlope: 0
        tangentMode: 10
      - time: .266666681
        value: 1
        inSlope: 0
        outSlope: 0
        tangentMode: 10
      - time: .300000012
        value: 1
        inSlope: 0
        outSlope: 0
        tangentMode: 10
      - time: .333333343
        value: 1
        inSlope: 0
        outSlope: 0
        tangentMode: 10
      - time: .366666675
        value: 1
        inSlope: 0
        outSlope: 0
        tangentMode: 10
      - time: .400000006
        value: 1
        inSlope: 0
        outSlope: 0
        tangentMode: 10
      - time: .433333337
        value: 1
        inSlope: 0
        outSlope: 0
        tangentMode: 10
      - time: .466666669
        value: 1
        inSlope: 0
        outSlope: 0
        tangentMode: 10
      - time: .5
        value: 1
        inSlope: 0
        outSlope: 0
        tangentMode: 10
      - time: .533333361
        value: 1
        inSlope: 0
        outSlope: 0
        tangentMode: 10
      - time: .566666663
        value: 1
        inSlope: 0
        outSlope: 0
        tangentMode: 10
      - time: .600000024
        value: 1
        inSlope: 0
        outSlope: 0
        tangentMode: 10
      - time: .633333325
        value: 1
        inSlope: 0
        outSlope: 0
        tangentMode: 10
      - time: .666666687
        value: 1
        inSlope: 0
        outSlope: 0
        tangentMode: 10
      m_PreInfinity: 2
      m_PostInfinity: 2
    attribute: m_LocalScale.z
    path: KABINA_CONTROL/KABINA
    classID: 4
    script: {fileID: 0}
  - curve:
      serializedVersion: 2
      m_Curve:
      - time: 0
        value: 0
        inSlope: 0
        outSlope: 0
        tangentMode: 10
      - time: .25
        value: 0
        inSlope: 0
        outSlope: 0
        tangentMode: 10
      - time: .666666687
        value: 0
        inSlope: 0
        outSlope: 0
        tangentMode: 10
      m_PreInfinity: 2
      m_PostInfinity: 2
    attribute: m_LocalPosition.z
    path: 
    classID: 4
    script: {fileID: 0}
  - curve:
      serializedVersion: 2
      m_Curve:
      - time: 0
        value: 0
        inSlope: 0
        outSlope: 0
        tangentMode: 10
      - time: .25
        value: 0
        inSlope: 0
        outSlope: 0
        tangentMode: 10
      - time: .666666687
        value: 0
        inSlope: 0
        outSlope: 0
        tangentMode: 10
      m_PreInfinity: 2
      m_PostInfinity: 2
    attribute: m_LocalPosition.y
    path: 
    classID: 4
    script: {fileID: 0}
  - curve:
      serializedVersion: 2
      m_Curve:
      - time: 0
        value: 0
        inSlope: -316
        outSlope: -316
        tangentMode: 10
      - time: .25
        value: -79
        inSlope: -63.2000046
        outSlope: -63.2000046
        tangentMode: 10
      - time: .666666687
        value: 0
        inSlope: 189.599991
        outSlope: 189.599991
        tangentMode: 10
      m_PreInfinity: 2
      m_PostInfinity: 2
    attribute: m_LocalPosition.x
    path: 
    classID: 4
    script: {fileID: 0}
  - curve:
      serializedVersion: 2
      m_Curve:
      - time: 0
        value: 40
        inSlope: 0
        outSlope: 0
        tangentMode: 10
      - time: .25
        value: 40
        inSlope: 0
        outSlope: 0
        tangentMode: 10
      - time: .666666687
        value: 40
        inSlope: 0
        outSlope: 0
        tangentMode: 10
      m_PreInfinity: 2
      m_PostInfinity: 2
    attribute: m_LocalPosition.z
    path: KABINA_CONTROL/PODDON_ROG
    classID: 4
    script: {fileID: 0}
  - curve:
      serializedVersion: 2
      m_Curve:
      - time: 0
        value: 1
        inSlope: -.36219117
        outSlope: -.36219117
        tangentMode: 0
      - time: .0166666675
        value: .99396348
        inSlope: -.781829894
        outSlope: -.781829894
        tangentMode: 0
      - time: .0333333351
        value: .973939002
        inSlope: -1.68296266
        outSlope: -1.68296266
        tangentMode: 0
      - time: .0500000045
        value: .937864721
        inSlope: -2.66967964
        outSlope: -2.66967964
        tangentMode: 0
      - time: .0666666701
        value: .884949684
        inSlope: -3.66190577
        outSlope: -3.66190577
        tangentMode: 0
      - time: .0833333358
        value: .815801203
        inSlope: -4.57648182
        outSlope: -4.57648182
        tangentMode: 0
      - time: .100000001
        value: .732400298
        inSlope: -5.33625889
        outSlope: -5.33625889
        tangentMode: 0
      - time: .116666667
        value: .637925923
        inSlope: -5.87834644
        outSlope: -5.87834644
        tangentMode: 0
      - time: .13333334
        value: .536455393
        inSlope: -6.16009712
        outSlope: -6.16009712
        tangentMode: 0
      - time: .150000006
        value: .432589322
        inSlope: -6.16176319
        outSlope: -6.16176319
        tangentMode: 0
      - time: .166666672
        value: .3310633
        inSlope: -5.88542461
        outSlope: -5.88542461
        tangentMode: 0
      - time: .183333337
        value: .236408517
        inSlope: -5.35060549
        outSlope: -5.35060549
        tangentMode: 0
      - time: .200000003
        value: .152709797
        inSlope: -4.58748627
        outSlope: -4.58748627
        tangentMode: 0
      - time: .216666669
        value: .0834923238
        inSlope: -3.62920308
        outSlope: -3.62920308
        tangentMode: 0
      - time: .233333334
        value: .0317363665
        inSlope: -2.50477123
        outSlope: -2.50477123
        tangentMode: 0
      - time: .25
        value: -4.37113883e-08
        inSlope: -1.38335133
        outSlope: -1.38335133
        tangentMode: 0
      - time: .266666681
        value: -.0143753542
        inSlope: -.484535635
        outSlope: -.484535635
        tangentMode: 0
      - time: .283333361
        value: -.0161512457
        inSlope: .247292891
        outSlope: .247292891
        tangentMode: 0
      - time: .300000042
        value: -.00613225019
        inSlope: .930881321
        outSlope: .930881321
        tangentMode: 0
      - time: .316666722
        value: .0148781575
        inSlope: 1.56578267
        outSlope: 1.56578267
        tangentMode: 0
      - time: .333333403
        value: .0460605472
        inSlope: 2.15013957
        outSlope: 2.15013957
        tangentMode: 0
      - time: .350000083
        value: .0865495354
        inSlope: 2.68019438
        outSlope: 2.68019438
        tangentMode: 0
      - time: .366666764
        value: .135400429
        inSlope: 3.15032244
        outSlope: 3.15032244
        tangentMode: 0
      - time: .383333445
        value: .191560373
        inSlope: 3.55340958
        outSlope: 3.55340958
        tangentMode: 0
      - time: .400000125
        value: .25384751
        inSlope: 3.88150859
        outSlope: 3.88150859
        tangentMode: 0
      - time: .416666806
        value: .320944101
        inSlope: 4.12672329
        outSlope: 4.12672329
        tangentMode: 0
      - time: .433333486
        value: .391405076
        inSlope: 4.28215551
        outSlope: 4.28215551
        tangentMode: 0
      - time: .450000167
        value: .463682741
        inSlope: 4.3428545
        outSlope: 4.3428545
        tangentMode: 0
      - time: .466666847
        value: .536167026
        inSlope: 4.30668449
        outSlope: 4.30668449
        tangentMode: 0
      - time: .483333528
        value: .607239008
        inSlope: 4.17499256
        outSlope: 4.17499256
        tangentMode: 0
      - time: .500000179
        value: .67533344
        inSlope: 3.95299697
        outSlope: 3.95299697
        tangentMode: 0
      - time: .51666683
        value: .739005446
        inSlope: 3.64988375
        outSlope: 3.64988375
        tangentMode: 0
      - time: .53333348
        value: .796996117
        inSlope: 3.27857089
        outSlope: 3.27857089
        tangentMode: 0
      - time: .550000131
        value: .848291039
        inSlope: 2.85514808
        outSlope: 2.85514808
        tangentMode: 0
      - time: .566666782
        value: .892167628
        inSlope: 2.39806533
        outSlope: 2.39806533
        tangentMode: 0
      - time: .583333433
        value: .928226471
        inSlope: 1.92710471
        outSlope: 1.92710471
        tangentMode: 0
      - time: .600000083
        value: .956404388
        inSlope: 1.46227205
        outSlope: 1.46227205
        tangentMode: 0
      - time: .616666734
        value: .976968825
        inSlope: 1.02268076
        outSlope: 1.02268076
        tangentMode: 0
      - time: .633333385
        value: .990493715
        inSlope: .625523925
        outSlope: .625523925
        tangentMode: 0
      - time: .650000036
        value: .997819602
        inSlope: .285188824
        outSlope: .285188824
        tangentMode: 0
      - time: .666666687
        value: 1
        inSlope: .13082397
        outSlope: .13082397
        tangentMode: 0
      m_PreInfinity: 2
      m_PostInfinity: 2
    attribute: m_LocalRotation.w
    path: KOLESA/WHEEL_1
    classID: 4
    script: {fileID: 0}
  - curve:
      serializedVersion: 2
      m_Curve:
      - time: 0
        value: 0
        inSlope: 6.58267069
        outSlope: 6.58267069
        tangentMode: 0
      - time: .0166666675
        value: .109711185
        inSlope: 6.80429888
        outSlope: 6.80429888
        tangentMode: 0
      - time: .0333333351
        value: .226809978
        inSlope: 7.1186986
        outSlope: 7.1186986
        tangentMode: 0
      - time: .0500000045
        value: .347001165
        inSlope: 7.16629887
        outSlope: 7.16629887
        tangentMode: 0
      - time: .0666666701
        value: .465686619
        inSlope: 6.93993664
        outSlope: 6.93993664
        tangentMode: 0
      - time: .0833333358
        value: .578332365
        inSlope: 6.4556303
        outSlope: 6.4556303
        tangentMode: 0
      - time: .100000001
        value: .680874288
        inSlope: 5.75296116
        outSlope: 5.75296116
        tangentMode: 0
      - time: .116666667
        value: .770097733
        inSlope: 4.89163113
        outSlope: 4.89163113
        tangentMode: 0
      - time: .13333334
        value: .843928695
        inSlope: 3.94479895
        outSlope: 3.94479895
        tangentMode: 0
      - time: .150000006
        value: .901591063
        inSlope: 2.99039507
        outSlope: 2.99039507
        tangentMode: 0
      - time: .166666672
        value: .943608522
        inSlope: 2.10188103
        outSlope: 2.10188103
        tangentMode: 0
      - time: .183333337
        value: .971653759
        inSlope: 1.33987617
        outSlope: 1.33987617
        tangentMode: 0
      - time: .200000003
        value: .988271058
        inSlope: .745639861
        outSlope: .745639861
        tangentMode: 0
      - time: .216666669
        value: .99650842
        inSlope: .336756736
        outSlope: .336756736
        tangentMode: 0
      - time: .233333334
        value: .999496281
        inSlope: .104747422
        outSlope: .104747422
        tangentMode: 0
      - time: .25
        value: 1
        inSlope: .0120109357
        outSlope: .0120109357
        tangentMode: 0
      - time: .266666681
        value: .999896646
        inSlope: -.00391244562
        outSlope: -.00391244562
        tangentMode: 0
      - time: .283333361
        value: .999869585
        inSlope: .00253736763
        outSlope: .00253736763
        tangentMode: 0
      - time: .300000042
        value: .999981225
        inSlope: .000591873657
        outSlope: .000591873657
        tangentMode: 0
      - time: .316666722
        value: .999889314
        inSlope: -.0312781073
        outSlope: -.0312781073
        tangentMode: 0
      - time: .333333403
        value: .99893862
        inSlope: -.109253436
        outSlope: -.109253436
        tangentMode: 0
      - time: .350000083
        value: .99624753
        inSlope: -.244429499
        outSlope: -.244429499
        tangentMode: 0
      - time: .366666764
        value: .990790963
        inSlope: -.443000436
        outSlope: -.443000436
        tangentMode: 0
      - time: .383333445
        value: .981480837
        inSlope: -.706400275
        outSlope: -.706400275
        tangentMode: 0
      - time: .400000125
        value: .967244267
        inSlope: -1.03148019
        outSlope: -1.03148019
        tangentMode: 0
      - time: .416666806
        value: .947098136
        inSlope: -1.4107728
        outSlope: -1.4107728
        tangentMode: 0
      - time: .433333486
        value: .920218468
        inSlope: -1.83290386
        outSlope: -1.83290386
        tangentMode: 0
      - time: .450000167
        value: .886001289
        inSlope: -2.28319454
        outSlope: -2.28319454
        tangentMode: 0
      - time: .466666847
        value: .844111919
        inSlope: -2.74446082
        outSlope: -2.74446082
        tangentMode: 0
      - time: .483333528
        value: .794519186
        inSlope: -3.19798231
        outSlope: -3.19798231
        tangentMode: 0
      - time: .500000179
        value: .737512529
        inSlope: -3.62459588
        outSlope: -3.62459588
        tangentMode: 0
      - time: .51666683
        value: .673699439
        inSlope: -4.00584555
        outSlope: -4.00584555
        tangentMode: 0
      - time: .53333348
        value: .603984475
        inSlope: -4.32507896
        outSlope: -4.32507896
        tangentMode: 0
      - time: .550000131
        value: .529530287
        inSlope: -4.56840611
        outSlope: -4.56840611
        tangentMode: 0
      - time: .566666782
        value: .451704413
        inSlope: -4.72544622
        outSlope: -4.72544622
        tangentMode: 0
      - time: .583333433
        value: .372015566
        inSlope: -4.78976917
        outSlope: -4.78976917
        tangentMode: 0
      - time: .600000083
        value: .292045593
        inSlope: -4.75900841
        outSlope: -4.75900841
        tangentMode: 0
      - time: .616666734
        value: .213382095
        inSlope: -4.63463879
        outSlope: -4.63463879
        tangentMode: 0
      - time: .633333385
        value: .137557775
        inSlope: -4.42144489
        outSlope: -4.42144489
        tangentMode: 0
      - time: .650000036
        value: .0660007447
        inSlope: -4.12673712
        outSlope: -4.12673712
        tangentMode: 0
      - time: .666666687
        value: 0
        inSlope: -3.96004844
        outSlope: -3.96004844
        tangentMode: 0
      m_PreInfinity: 2
      m_PostInfinity: 2
    attribute: m_LocalRotation.z
    path: KOLESA/WHEEL_1
    classID: 4
    script: {fileID: 0}
  - curve:
      serializedVersion: 2
      m_Curve:
      - time: 0
        value: 0
        inSlope: 0
        outSlope: 0
        tangentMode: 0
      - time: .0166666675
        value: 0
        inSlope: 0
        outSlope: 0
        tangentMode: 0
      - time: .0333333351
        value: 0
        inSlope: 0
        outSlope: 0
        tangentMode: 0
      - time: .0500000045
        value: 0
        inSlope: 0
        outSlope: 0
        tangentMode: 0
      - time: .0666666701
        value: 0
        inSlope: 0
        outSlope: 0
        tangentMode: 0
      - time: .0833333358
        value: 0
        inSlope: 0
        outSlope: 0
        tangentMode: 0
      - time: .100000001
        value: 0
        inSlope: 0
        outSlope: 0
        tangentMode: 0
      - time: .116666667
        value: 0
        inSlope: 0
        outSlope: 0
        tangentMode: 0
      - time: .13333334
        value: 0
        inSlope: 0
        outSlope: 0
        tangentMode: 0
      - time: .150000006
        value: 0
        inSlope: 0
        outSlope: 0
        tangentMode: 0
      - time: .166666672
        value: 0
        inSlope: 0
        outSlope: 0
        tangentMode: 0
      - time: .183333337
        value: 0
        inSlope: 0
        outSlope: 0
        tangentMode: 0
      - time: .200000003
        value: 0
        inSlope: 0
        outSlope: 0
        tangentMode: 0
      - time: .216666669
        value: 0
        inSlope: 0
        outSlope: 0
        tangentMode: 0
      - time: .233333334
        value: 0
        inSlope: 0
        outSlope: 0
        tangentMode: 0
      - time: .25
        value: 0
        inSlope: 0
        outSlope: 0
        tangentMode: 0
      - time: .266666681
        value: 0
        inSlope: 0
        outSlope: 0
        tangentMode: 0
      - time: .283333361
        value: 0
        inSlope: 0
        outSlope: 0
        tangentMode: 0
      - time: .300000042
        value: 0
        inSlope: 0
        outSlope: 0
        tangentMode: 0
      - time: .316666722
        value: 0
        inSlope: 0
        outSlope: 0
        tangentMode: 0
      - time: .333333403
        value: 0
        inSlope: 0
        outSlope: 0
        tangentMode: 0
      - time: .350000083
        value: 0
        inSlope: 0
        outSlope: 0
        tangentMode: 0
      - time: .366666764
        value: 0
        inSlope: 0
        outSlope: 0
        tangentMode: 0
      - time: .383333445
        value: 0
        inSlope: 0
        outSlope: 0
        tangentMode: 0
      - time: .400000125
        value: 0
        inSlope: 0
        outSlope: 0
        tangentMode: 0
      - time: .416666806
        value: 0
        inSlope: 0
        outSlope: 0
        tangentMode: 0
      - time: .433333486
        value: 0
        inSlope: 0
        outSlope: 0
        tangentMode: 0
      - time: .450000167
        value: 0
        inSlope: 0
        outSlope: 0
        tangentMode: 0
      - time: .466666847
        value: 0
        inSlope: 0
        outSlope: 0
        tangentMode: 0
      - time: .483333528
        value: 0
        inSlope: 0
        outSlope: 0
        tangentMode: 0
      - time: .500000179
        value: 0
        inSlope: 0
        outSlope: 0
        tangentMode: 0
      - time: .51666683
        value: 0
        inSlope: 0
        outSlope: 0
        tangentMode: 0
      - time: .53333348
        value: 0
        inSlope: 0
        outSlope: 0
        tangentMode: 0
      - time: .550000131
        value: 0
        inSlope: 0
        outSlope: 0
        tangentMode: 0
      - time: .566666782
        value: 0
        inSlope: 0
        outSlope: 0
        tangentMode: 0
      - time: .583333433
        value: 0
        inSlope: 0
        outSlope: 0
        tangentMode: 0
      - time: .600000083
        value: 0
        inSlope: 0
        outSlope: 0
        tangentMode: 0
      - time: .616666734
        value: 0
        inSlope: 0
        outSlope: 0
        tangentMode: 0
      - time: .633333385
        value: 0
        inSlope: 0
        outSlope: 0
        tangentMode: 0
      - time: .650000036
        value: 0
        inSlope: 0
        outSlope: 0
        tangentMode: 0
      - time: .666666687
        value: 0
        inSlope: 0
        outSlope: 0
        tangentMode: 0
      m_PreInfinity: 2
      m_PostInfinity: 2
    attribute: m_LocalRotation.y
    path: KOLESA/WHEEL_1
    classID: 4
    script: {fileID: 0}
  - curve:
      serializedVersion: 2
      m_Curve:
      - time: 0
        value: 0
        inSlope: 0
        outSlope: 0
        tangentMode: 0
      - time: .0166666675
        value: 0
        inSlope: 0
        outSlope: 0
        tangentMode: 0
      - time: .0333333351
        value: 0
        inSlope: 0
        outSlope: 0
        tangentMode: 0
      - time: .0500000045
        value: 0
        inSlope: 0
        outSlope: 0
        tangentMode: 0
      - time: .0666666701
        value: 0
        inSlope: 0
        outSlope: 0
        tangentMode: 0
      - time: .0833333358
        value: 0
        inSlope: 0
        outSlope: 0
        tangentMode: 0
      - time: .100000001
        value: 0
        inSlope: 0
        outSlope: 0
        tangentMode: 0
      - time: .116666667
        value: 0
        inSlope: 0
        outSlope: 0
        tangentMode: 0
      - time: .13333334
        value: 0
        inSlope: 0
        outSlope: 0
        tangentMode: 0
      - time: .150000006
        value: 0
        inSlope: 0
        outSlope: 0
        tangentMode: 0
      - time: .166666672
        value: 0
        inSlope: 0
        outSlope: 0
        tangentMode: 0
      - time: .183333337
        value: 0
        inSlope: 0
        outSlope: 0
        tangentMode: 0
      - time: .200000003
        value: 0
        inSlope: 0
        outSlope: 0
        tangentMode: 0
      - time: .216666669
        value: 0
        inSlope: 0
        outSlope: 0
        tangentMode: 0
      - time: .233333334
        value: 0
        inSlope: 0
        outSlope: 0
        tangentMode: 0
      - time: .25
        value: 0
        inSlope: 0
        outSlope: 0
        tangentMode: 0
      - time: .266666681
        value: 0
        inSlope: 0
        outSlope: 0
        tangentMode: 0
      - time: .283333361
        value: 0
        inSlope: 0
        outSlope: 0
        tangentMode: 0
      - time: .300000042
        value: 0
        inSlope: 0
        outSlope: 0
        tangentMode: 0
      - time: .316666722
        value: 0
        inSlope: 0
        outSlope: 0
        tangentMode: 0
      - time: .333333403
        value: 0
        inSlope: 0
        outSlope: 0
        tangentMode: 0
      - time: .350000083
        value: 0
        inSlope: 0
        outSlope: 0
        tangentMode: 0
      - time: .366666764
        value: 0
        inSlope: 0
        outSlope: 0
        tangentMode: 0
      - time: .383333445
        value: 0
        inSlope: 0
        outSlope: 0
        tangentMode: 0
      - time: .400000125
        value: 0
        inSlope: 0
        outSlope: 0
        tangentMode: 0
      - time: .416666806
        value: 0
        inSlope: 0
        outSlope: 0
        tangentMode: 0
      - time: .433333486
        value: 0
        inSlope: 0
        outSlope: 0
        tangentMode: 0
      - time: .450000167
        value: 0
        inSlope: 0
        outSlope: 0
        tangentMode: 0
      - time: .466666847
        value: 0
        inSlope: 0
        outSlope: 0
        tangentMode: 0
      - time: .483333528
        value: 0
        inSlope: 0
        outSlope: 0
        tangentMode: 0
      - time: .500000179
        value: 0
        inSlope: 0
        outSlope: 0
        tangentMode: 0
      - time: .51666683
        value: 0
        inSlope: 0
        outSlope: 0
        tangentMode: 0
      - time: .53333348
        value: 0
        inSlope: 0
        outSlope: 0
        tangentMode: 0
      - time: .550000131
        value: 0
        inSlope: 0
        outSlope: 0
        tangentMode: 0
      - time: .566666782
        value: 0
        inSlope: 0
        outSlope: 0
        tangentMode: 0
      - time: .583333433
        value: 0
        inSlope: 0
        outSlope: 0
        tangentMode: 0
      - time: .600000083
        value: 0
        inSlope: 0
        outSlope: 0
        tangentMode: 0
      - time: .616666734
        value: 0
        inSlope: 0
        outSlope: 0
        tangentMode: 0
      - time: .633333385
        value: 0
        inSlope: 0
        outSlope: 0
        tangentMode: 0
      - time: .650000036
        value: 0
        inSlope: 0
        outSlope: 0
        tangentMode: 0
      - time: .666666687
        value: 0
        inSlope: 0
        outSlope: 0
        tangentMode: 0
      m_PreInfinity: 2
      m_PostInfinity: 2
    attribute: m_LocalRotation.x
    path: KOLESA/WHEEL_1
    classID: 4
    script: {fileID: 0}
  - curve:
      serializedVersion: 2
      m_Curve:
      - time: 0
        value: -356
        inSlope: 0
        outSlope: 0
        tangentMode: 10
      - time: .25
        value: -356
        inSlope: 0
        outSlope: 0
        tangentMode: 10
      - time: .666666687
        value: -356
        inSlope: 0
        outSlope: 0
        tangentMode: 10
      m_PreInfinity: 2
      m_PostInfinity: 2
    attribute: m_LocalPosition.x
    path: KABINA_CONTROL/PODDON_ROG
    classID: 4
    script: {fileID: 0}
  - curve:
      serializedVersion: 2
      m_Curve:
      - time: 0
        value: 269
        inSlope: 0
        outSlope: 0
        tangentMode: 10
      - time: .25
        value: 269
        inSlope: -129.599991
        outSlope: -129.599991
        tangentMode: 10
      - time: .666666687
        value: 161
        inSlope: -259.199982
        outSlope: -259.199982
        tangentMode: 10
      m_PreInfinity: 2
      m_PostInfinity: 2
    attribute: m_LocalPosition.y
    path: KABINA_CONTROL/PODDON_ROG
    classID: 4
    script: {fileID: 0}
  - curve:
      serializedVersion: 2
      m_Curve:
      - time: 0
        value: 0
        inSlope: 0
        outSlope: 0
        tangentMode: 0
      - time: .0166666675
        value: 0
        inSlope: 0
        outSlope: 0
        tangentMode: 0
      - time: .0333333351
        value: 0
        inSlope: 0
        outSlope: 0
        tangentMode: 0
      - time: .0500000045
        value: 0
        inSlope: 0
        outSlope: 0
        tangentMode: 0
      - time: .0666666701
        value: 0
        inSlope: 0
        outSlope: 0
        tangentMode: 0
      - time: .0833333358
        value: 0
        inSlope: 0
        outSlope: 0
        tangentMode: 0
      - time: .100000001
        value: 0
        inSlope: 0
        outSlope: 0
        tangentMode: 0
      - time: .116666667
        value: 0
        inSlope: 0
        outSlope: 0
        tangentMode: 0
      - time: .13333334
        value: 0
        inSlope: 0
        outSlope: 0
        tangentMode: 0
      - time: .150000006
        value: 0
        inSlope: 0
        outSlope: 0
        tangentMode: 0
      - time: .166666672
        value: 0
        inSlope: 0
        outSlope: 0
        tangentMode: 0
      - time: .183333337
        value: 0
        inSlope: 0
        outSlope: 0
        tangentMode: 0
      - time: .200000003
        value: 0
        inSlope: 0
        outSlope: 0
        tangentMode: 0
      - time: .216666669
        value: 0
        inSlope: 0
        outSlope: 0
        tangentMode: 0
      - time: .233333334
        value: 0
        inSlope: 0
        outSlope: 0
        tangentMode: 0
      - time: .25
        value: 0
        inSlope: 0
        outSlope: 0
        tangentMode: 0
      - time: .266666681
        value: 0
        inSlope: 0
        outSlope: 0
        tangentMode: 0
      - time: .283333361
        value: 0
        inSlope: 0
        outSlope: 0
        tangentMode: 0
      - time: .300000042
        value: 0
        inSlope: 0
        outSlope: 0
        tangentMode: 0
      - time: .316666722
        value: 0
        inSlope: 0
        outSlope: 0
        tangentMode: 0
      - time: .333333403
        value: 0
        inSlope: 0
        outSlope: 0
        tangentMode: 0
      - time: .350000083
        value: 0
        inSlope: 0
        outSlope: 0
        tangentMode: 0
      - time: .366666764
        value: 0
        inSlope: 0
        outSlope: 0
        tangentMode: 0
      - time: .383333445
        value: 0
        inSlope: 0
        outSlope: 0
        tangentMode: 0
      - time: .400000125
        value: 0
        inSlope: 0
        outSlope: 0
        tangentMode: 0
      - time: .416666806
        value: 0
        inSlope: 0
        outSlope: 0
        tangentMode: 0
      - time: .433333486
        value: 0
        inSlope: 0
        outSlope: 0
        tangentMode: 0
      - time: .450000167
        value: 0
        inSlope: 0
        outSlope: 0
        tangentMode: 0
      - time: .466666847
        value: 0
        inSlope: 0
        outSlope: 0
        tangentMode: 0
      - time: .483333528
        value: 0
        inSlope: 0
        outSlope: 0
        tangentMode: 0
      - time: .500000179
        value: 0
        inSlope: 0
        outSlope: 0
        tangentMode: 0
      - time: .51666683
        value: 0
        inSlope: 0
        outSlope: 0
        tangentMode: 0
      - time: .53333348
        value: 0
        inSlope: 0
        outSlope: 0
        tangentMode: 0
      - time: .550000131
        value: 0
        inSlope: 0
        outSlope: 0
        tangentMode: 0
      - time: .566666782
        value: 0
        inSlope: 0
        outSlope: 0
        tangentMode: 0
      - time: .583333433
        value: 0
        inSlope: 0
        outSlope: 0
        tangentMode: 0
      - time: .600000083
        value: 0
        inSlope: 0
        outSlope: 0
        tangentMode: 0
      - time: .616666734
        value: 0
        inSlope: 0
        outSlope: 0
        tangentMode: 0
      - time: .633333385
        value: 0
        inSlope: 0
        outSlope: 0
        tangentMode: 0
      - time: .650000036
        value: 0
        inSlope: 0
        outSlope: 0
        tangentMode: 0
      - time: .666666687
        value: 0
        inSlope: 0
        outSlope: 0
        tangentMode: 0
      m_PreInfinity: 2
      m_PostInfinity: 2
    attribute: m_LocalRotation.x
    path: KOLESA/WHEEL_2
    classID: 4
    script: {fileID: 0}
  - curve:
      serializedVersion: 2
      m_Curve:
      - time: 0
        value: 0
        inSlope: 0
        outSlope: 0
        tangentMode: 0
      - time: .0166666675
        value: 0
        inSlope: 0
        outSlope: 0
        tangentMode: 0
      - time: .0333333351
        value: 0
        inSlope: 0
        outSlope: 0
        tangentMode: 0
      - time: .0500000045
        value: 0
        inSlope: 0
        outSlope: 0
        tangentMode: 0
      - time: .0666666701
        value: 0
        inSlope: 0
        outSlope: 0
        tangentMode: 0
      - time: .0833333358
        value: 0
        inSlope: 0
        outSlope: 0
        tangentMode: 0
      - time: .100000001
        value: 0
        inSlope: 0
        outSlope: 0
        tangentMode: 0
      - time: .116666667
        value: 0
        inSlope: 0
        outSlope: 0
        tangentMode: 0
      - time: .13333334
        value: 0
        inSlope: 0
        outSlope: 0
        tangentMode: 0
      - time: .150000006
        value: 0
        inSlope: 0
        outSlope: 0
        tangentMode: 0
      - time: .166666672
        value: 0
        inSlope: 0
        outSlope: 0
        tangentMode: 0
      - time: .183333337
        value: 0
        inSlope: 0
        outSlope: 0
        tangentMode: 0
      - time: .200000003
        value: 0
        inSlope: 0
        outSlope: 0
        tangentMode: 0
      - time: .216666669
        value: 0
        inSlope: 0
        outSlope: 0
        tangentMode: 0
      - time: .233333334
        value: 0
        inSlope: 0
        outSlope: 0
        tangentMode: 0
      - time: .25
        value: 0
        inSlope: 0
        outSlope: 0
        tangentMode: 0
      - time: .266666681
        value: 0
        inSlope: 0
        outSlope: 0
        tangentMode: 0
      - time: .283333361
        value: 0
        inSlope: 0
        outSlope: 0
        tangentMode: 0
      - time: .300000042
        value: 0
        inSlope: 0
        outSlope: 0
        tangentMode: 0
      - time: .316666722
        value: 0
        inSlope: 0
        outSlope: 0
        tangentMode: 0
      - time: .333333403
        value: 0
        inSlope: 0
        outSlope: 0
        tangentMode: 0
      - time: .350000083
        value: 0
        inSlope: 0
        outSlope: 0
        tangentMode: 0
      - time: .366666764
        value: 0
        inSlope: 0
        outSlope: 0
        tangentMode: 0
      - time: .383333445
        value: 0
        inSlope: 0
        outSlope: 0
        tangentMode: 0
      - time: .400000125
        value: 0
        inSlope: 0
        outSlope: 0
        tangentMode: 0
      - time: .416666806
        value: 0
        inSlope: 0
        outSlope: 0
        tangentMode: 0
      - time: .433333486
        value: 0
        inSlope: 0
        outSlope: 0
        tangentMode: 0
      - time: .450000167
        value: 0
        inSlope: 0
        outSlope: 0
        tangentMode: 0
      - time: .466666847
        value: 0
        inSlope: 0
        outSlope: 0
        tangentMode: 0
      - time: .483333528
        value: 0
        inSlope: 0
        outSlope: 0
        tangentMode: 0
      - time: .500000179
        value: 0
        inSlope: 0
        outSlope: 0
        tangentMode: 0
      - time: .51666683
        value: 0
        inSlope: 0
        outSlope: 0
        tangentMode: 0
      - time: .53333348
        value: 0
        inSlope: 0
        outSlope: 0
        tangentMode: 0
      - time: .550000131
        value: 0
        inSlope: 0
        outSlope: 0
        tangentMode: 0
      - time: .566666782
        value: 0
        inSlope: 0
        outSlope: 0
        tangentMode: 0
      - time: .583333433
        value: 0
        inSlope: 0
        outSlope: 0
        tangentMode: 0
      - time: .600000083
        value: 0
        inSlope: 0
        outSlope: 0
        tangentMode: 0
      - time: .616666734
        value: 0
        inSlope: 0
        outSlope: 0
        tangentMode: 0
      - time: .633333385
        value: 0
        inSlope: 0
        outSlope: 0
        tangentMode: 0
      - time: .650000036
        value: 0
        inSlope: 0
        outSlope: 0
        tangentMode: 0
      - time: .666666687
        value: 0
        inSlope: 0
        outSlope: 0
        tangentMode: 0
      m_PreInfinity: 2
      m_PostInfinity: 2
    attribute: m_LocalRotation.y
    path: KOLESA/WHEEL_2
    classID: 4
    script: {fileID: 0}
  - curve:
      serializedVersion: 2
      m_Curve:
      - time: 0
        value: 0
        inSlope: 6.58267069
        outSlope: 6.58267069
        tangentMode: 0
      - time: .0166666675
        value: .109711185
        inSlope: 6.80429888
        outSlope: 6.80429888
        tangentMode: 0
      - time: .0333333351
        value: .226809978
        inSlope: 7.1186986
        outSlope: 7.1186986
        tangentMode: 0
      - time: .0500000045
        value: .347001165
        inSlope: 7.16629887
        outSlope: 7.16629887
        tangentMode: 0
      - time: .0666666701
        value: .465686619
        inSlope: 6.93993664
        outSlope: 6.93993664
        tangentMode: 0
      - time: .0833333358
        value: .578332365
        inSlope: 6.4556303
        outSlope: 6.4556303
        tangentMode: 0
      - time: .100000001
        value: .680874288
        inSlope: 5.75296116
        outSlope: 5.75296116
        tangentMode: 0
      - time: .116666667
        value: .770097733
        inSlope: 4.89163113
        outSlope: 4.89163113
        tangentMode: 0
      - time: .13333334
        value: .843928695
        inSlope: 3.94479895
        outSlope: 3.94479895
        tangentMode: 0
      - time: .150000006
        value: .901591063
        inSlope: 2.99039507
        outSlope: 2.99039507
        tangentMode: 0
      - time: .166666672
        value: .943608522
        inSlope: 2.10188103
        outSlope: 2.10188103
        tangentMode: 0
      - time: .183333337
        value: .971653759
        inSlope: 1.33987617
        outSlope: 1.33987617
        tangentMode: 0
      - time: .200000003
        value: .988271058
        inSlope: .745639861
        outSlope: .745639861
        tangentMode: 0
      - time: .216666669
        value: .99650842
        inSlope: .336756736
        outSlope: .336756736
        tangentMode: 0
      - time: .233333334
        value: .999496281
        inSlope: .104747422
        outSlope: .104747422
        tangentMode: 0
      - time: .25
        value: 1
        inSlope: .0120109357
        outSlope: .0120109357
        tangentMode: 0
      - time: .266666681
        value: .999896646
        inSlope: -.00391244562
        outSlope: -.00391244562
        tangentMode: 0
      - time: .283333361
        value: .999869585
        inSlope: .00253736763
        outSlope: .00253736763
        tangentMode: 0
      - time: .300000042
        value: .999981225
        inSlope: .000591873657
        outSlope: .000591873657
        tangentMode: 0
      - time: .316666722
        value: .999889314
        inSlope: -.0312781073
        outSlope: -.0312781073
        tangentMode: 0
      - time: .333333403
        value: .99893862
        inSlope: -.109253436
        outSlope: -.109253436
        tangentMode: 0
      - time: .350000083
        value: .99624753
        inSlope: -.244429499
        outSlope: -.244429499
        tangentMode: 0
      - time: .366666764
        value: .990790963
        inSlope: -.443000436
        outSlope: -.443000436
        tangentMode: 0
      - time: .383333445
        value: .981480837
        inSlope: -.706400275
        outSlope: -.706400275
        tangentMode: 0
      - time: .400000125
        value: .967244267
        inSlope: -1.03148019
        outSlope: -1.03148019
        tangentMode: 0
      - time: .416666806
        value: .947098136
        inSlope: -1.4107728
        outSlope: -1.4107728
        tangentMode: 0
      - time: .433333486
        value: .920218468
        inSlope: -1.83290386
        outSlope: -1.83290386
        tangentMode: 0
      - time: .450000167
        value: .886001289
        inSlope: -2.28319454
        outSlope: -2.28319454
        tangentMode: 0
      - time: .466666847
        value: .844111919
        inSlope: -2.74446082
        outSlope: -2.74446082
        tangentMode: 0
      - time: .483333528
        value: .794519186
        inSlope: -3.19798231
        outSlope: -3.19798231
        tangentMode: 0
      - time: .500000179
        value: .737512529
        inSlope: -3.62459588
        outSlope: -3.62459588
        tangentMode: 0
      - time: .51666683
        value: .673699439
        inSlope: -4.00584555
        outSlope: -4.00584555
        tangentMode: 0
      - time: .53333348
        value: .603984475
        inSlope: -4.32507896
        outSlope: -4.32507896
        tangentMode: 0
      - time: .550000131
        value: .529530287
        inSlope: -4.56840611
        outSlope: -4.56840611
        tangentMode: 0
      - time: .566666782
        value: .451704413
        inSlope: -4.72544622
        outSlope: -4.72544622
        tangentMode: 0
      - time: .583333433
        value: .372015566
        inSlope: -4.78976917
        outSlope: -4.78976917
        tangentMode: 0
      - time: .600000083
        value: .292045593
        inSlope: -4.75900841
        outSlope: -4.75900841
        tangentMode: 0
      - time: .616666734
        value: .213382095
        inSlope: -4.63463879
        outSlope: -4.63463879
        tangentMode: 0
      - time: .633333385
        value: .137557775
        inSlope: -4.42144489
        outSlope: -4.42144489
        tangentMode: 0
      - time: .650000036
        value: .0660007447
        inSlope: -4.12673712
        outSlope: -4.12673712
        tangentMode: 0
      - time: .666666687
        value: 0
        inSlope: -3.96004844
        outSlope: -3.96004844
        tangentMode: 0
      m_PreInfinity: 2
      m_PostInfinity: 2
    attribute: m_LocalRotation.z
    path: KOLESA/WHEEL_2
    classID: 4
    script: {fileID: 0}
  - curve:
      serializedVersion: 2
      m_Curve:
      - time: 0
        value: 1
        inSlope: -.36219117
        outSlope: -.36219117
        tangentMode: 0
      - time: .0166666675
        value: .99396348
        inSlope: -.781829894
        outSlope: -.781829894
        tangentMode: 0
      - time: .0333333351
        value: .973939002
        inSlope: -1.68296266
        outSlope: -1.68296266
        tangentMode: 0
      - time: .0500000045
        value: .937864721
        inSlope: -2.66967964
        outSlope: -2.66967964
        tangentMode: 0
      - time: .0666666701
        value: .884949684
        inSlope: -3.66190577
        outSlope: -3.66190577
        tangentMode: 0
      - time: .0833333358
        value: .815801203
        inSlope: -4.57648182
        outSlope: -4.57648182
        tangentMode: 0
      - time: .100000001
        value: .732400298
        inSlope: -5.33625889
        outSlope: -5.33625889
        tangentMode: 0
      - time: .116666667
        value: .637925923
        inSlope: -5.87834644
        outSlope: -5.87834644
        tangentMode: 0
      - time: .13333334
        value: .536455393
        inSlope: -6.16009712
        outSlope: -6.16009712
        tangentMode: 0
      - time: .150000006
        value: .432589322
        inSlope: -6.16176319
        outSlope: -6.16176319
        tangentMode: 0
      - time: .166666672
        value: .3310633
        inSlope: -5.88542461
        outSlope: -5.88542461
        tangentMode: 0
      - time: .183333337
        value: .236408517
        inSlope: -5.35060549
        outSlope: -5.35060549
        tangentMode: 0
      - time: .200000003
        value: .152709797
        inSlope: -4.58748627
        outSlope: -4.58748627
        tangentMode: 0
      - time: .216666669
        value: .0834923238
        inSlope: -3.62920308
        outSlope: -3.62920308
        tangentMode: 0
      - time: .233333334
        value: .0317363665
        inSlope: -2.50477123
        outSlope: -2.50477123
        tangentMode: 0
      - time: .25
        value: -4.37113883e-08
        inSlope: -1.38335133
        outSlope: -1.38335133
        tangentMode: 0
      - time: .266666681
        value: -.0143753542
        inSlope: -.484535635
        outSlope: -.484535635
        tangentMode: 0
      - time: .283333361
        value: -.0161512457
        inSlope: .247292891
        outSlope: .247292891
        tangentMode: 0
      - time: .300000042
        value: -.00613225019
        inSlope: .930881321
        outSlope: .930881321
        tangentMode: 0
      - time: .316666722
        value: .0148781575
        inSlope: 1.56578267
        outSlope: 1.56578267
        tangentMode: 0
      - time: .333333403
        value: .0460605472
        inSlope: 2.15013957
        outSlope: 2.15013957
        tangentMode: 0
      - time: .350000083
        value: .0865495354
        inSlope: 2.68019438
        outSlope: 2.68019438
        tangentMode: 0
      - time: .366666764
        value: .135400429
        inSlope: 3.15032244
        outSlope: 3.15032244
        tangentMode: 0
      - time: .383333445
        value: .191560373
        inSlope: 3.55340958
        outSlope: 3.55340958
        tangentMode: 0
      - time: .400000125
        value: .25384751
        inSlope: 3.88150859
        outSlope: 3.88150859
        tangentMode: 0
      - time: .416666806
        value: .320944101
        inSlope: 4.12672329
        outSlope: 4.12672329
        tangentMode: 0
      - time: .433333486
        value: .391405076
        inSlope: 4.28215551
        outSlope: 4.28215551
        tangentMode: 0
      - time: .450000167
        value: .463682741
        inSlope: 4.3428545
        outSlope: 4.3428545
        tangentMode: 0
      - time: .466666847
        value: .536167026
        inSlope: 4.30668449
        outSlope: 4.30668449
        tangentMode: 0
      - time: .483333528
        value: .607239008
        inSlope: 4.17499256
        outSlope: 4.17499256
        tangentMode: 0
      - time: .500000179
        value: .67533344
        inSlope: 3.95299697
        outSlope: 3.95299697
        tangentMode: 0
      - time: .51666683
        value: .739005446
        inSlope: 3.64988375
        outSlope: 3.64988375
        tangentMode: 0
      - time: .53333348
        value: .796996117
        inSlope: 3.27857089
        outSlope: 3.27857089
        tangentMode: 0
      - time: .550000131
        value: .848291039
        inSlope: 2.85514808
        outSlope: 2.85514808
        tangentMode: 0
      - time: .566666782
        value: .892167628
        inSlope: 2.39806533
        outSlope: 2.39806533
        tangentMode: 0
      - time: .583333433
        value: .928226471
        inSlope: 1.92710471
        outSlope: 1.92710471
        tangentMode: 0
      - time: .600000083
        value: .956404388
        inSlope: 1.46227205
        outSlope: 1.46227205
        tangentMode: 0
      - time: .616666734
        value: .976968825
        inSlope: 1.02268076
        outSlope: 1.02268076
        tangentMode: 0
      - time: .633333385
        value: .990493715
        inSlope: .625523925
        outSlope: .625523925
        tangentMode: 0
      - time: .650000036
        value: .997819602
        inSlope: .285188824
        outSlope: .285188824
        tangentMode: 0
      - time: .666666687
        value: 1
        inSlope: .13082397
        outSlope: .13082397
        tangentMode: 0
      m_PreInfinity: 2
      m_PostInfinity: 2
    attribute: m_LocalRotation.w
    path: KOLESA/WHEEL_2
    classID: 4
    script: {fileID: 0}
  - curve:
      serializedVersion: 2
      m_Curve:
      - time: 0
        value: 1
        inSlope: Infinity
        outSlope: Infinity
        tangentMode: 31
      - time: .666666687
        value: 1
        inSlope: Infinity
        outSlope: Infinity
        tangentMode: 31
      m_PreInfinity: 2
      m_PostInfinity: 2
    attribute: m_IsActive
    path: KABINA_CONTROL/PODDON_ROG/PODDON_CONTROL
    classID: 1
    script: {fileID: 0}
  m_EulerEditorCurves:
  - curve:
      serializedVersion: 2
      m_Curve:
      - time: 0
        value: 0
        inSlope: 0
        outSlope: 0
        tangentMode: 10
      - time: .25
        value: 0
        inSlope: 0
        outSlope: 0
        tangentMode: 10
      - time: .666666687
        value: 0
        inSlope: 0
        outSlope: 0
        tangentMode: 10
      m_PreInfinity: 2
      m_PostInfinity: 2
    attribute: localEulerAnglesBaked.x
    path: KOLESA/WHEEL_1
    classID: 4
    script: {fileID: 0}
  - curve:
      serializedVersion: 2
      m_Curve:
      - time: 0
        value: 0
        inSlope: 0
        outSlope: 0
        tangentMode: 10
      - time: .25
        value: 0
        inSlope: 0
        outSlope: 0
        tangentMode: 10
      - time: .666666687
        value: 0
        inSlope: 0
        outSlope: 0
        tangentMode: 10
      m_PreInfinity: 2
      m_PostInfinity: 2
    attribute: localEulerAnglesBaked.y
    path: KOLESA/WHEEL_1
    classID: 4
    script: {fileID: 0}
  - curve:
      serializedVersion: 2
      m_Curve:
      - time: 0
        value: 0
        inSlope: 720
        outSlope: 720
        tangentMode: 10
      - time: .25
        value: 180
        inSlope: 144.000015
        outSlope: 144.000015
        tangentMode: 10
      - time: .666666687
        value: 0
        inSlope: -431.999969
        outSlope: -431.999969
        tangentMode: 10
      m_PreInfinity: 2
      m_PostInfinity: 2
    attribute: localEulerAnglesBaked.z
    path: KOLESA/WHEEL_1
    classID: 4
    script: {fileID: 0}
  - curve:
      serializedVersion: 2
      m_Curve:
      - time: 0
        value: 0
        inSlope: 0
        outSlope: 0
        tangentMode: 10
      - time: .25
        value: 0
        inSlope: 0
        outSlope: 0
        tangentMode: 10
      - time: .666666687
        value: 0
        inSlope: 0
        outSlope: 0
        tangentMode: 10
      m_PreInfinity: 2
      m_PostInfinity: 2
    attribute: localEulerAnglesBaked.x
    path: KOLESA/WHEEL_2
    classID: 4
    script: {fileID: 0}
  - curve:
      serializedVersion: 2
      m_Curve:
      - time: 0
        value: 0
        inSlope: 0
        outSlope: 0
        tangentMode: 10
      - time: .25
        value: 0
        inSlope: 0
        outSlope: 0
        tangentMode: 10
      - time: .666666687
        value: 0
        inSlope: 0
        outSlope: 0
        tangentMode: 10
      m_PreInfinity: 2
      m_PostInfinity: 2
    attribute: localEulerAnglesBaked.y
    path: KOLESA/WHEEL_2
    classID: 4
    script: {fileID: 0}
  - curve:
      serializedVersion: 2
      m_Curve:
      - time: 0
        value: 0
        inSlope: 720
        outSlope: 720
        tangentMode: 10
      - time: .25
        value: 180
        inSlope: 144.000015
        outSlope: 144.000015
        tangentMode: 10
      - time: .666666687
        value: 0
        inSlope: -431.999969
        outSlope: -431.999969
        tangentMode: 10
      m_PreInfinity: 2
      m_PostInfinity: 2
    attribute: localEulerAnglesBaked.z
    path: KOLESA/WHEEL_2
    classID: 4
    script: {fileID: 0}
  m_Events: []
