%YAML 1.1
%TAG !u! tag:unity3d.com,2011:
--- !u!74 &7400000
AnimationClip:
  m_ObjectHideFlags: 0
  m_PrefabParentObject: {fileID: 0}
  m_PrefabInternal: {fileID: 0}
  m_Name: VINTI
  serializedVersion: 6
  m_Legacy: 1
  m_Compressed: 0
  m_UseHighQualityCurve: 1
  m_RotationCurves:
  - curve:
      serializedVersion: 2
      m_Curve:
      - time: 0
        value: {x: -0, y: -0, z: -0, w: -1}
        inSlope: {x: 0, y: 0, z: 9.38606834, w: .738698184}
        outSlope: {x: 0, y: 0, z: 9.38606834, w: .738698184}
        tangentMode: 0
      - time: .0166666675
        value: {x: -0, y: -0, z: .156434476, w: -.987688363}
        inSlope: {x: 0, y: 0, z: 9.27050972, w: 1.4683038}
        outSlope: {x: 0, y: 0, z: 9.27050972, w: 1.4683038}
        tangentMode: 1093664768
      - time: .0333333351
        value: {x: -0, y: -0, z: .309017003, w: -.95105654}
        inSlope: {x: 0, y: 0, z: 8.92668152, w: 2.90045476}
        outSlope: {x: 0, y: 0, z: 8.92668152, w: 2.90045476}
        tangentMode: 1093664768
      - time: .0500000045
        value: {x: -0, y: -0, z: .453990549, w: -.891006529}
        inSlope: {x: 0, y: 0, z: 8.36304665, w: 4.26118612}
        outSlope: {x: 0, y: 0, z: 8.36304665, w: 4.26118612}
        tangentMode: 1107558400
      - time: .0666666701
        value: {x: -0, y: -0, z: .587785244, w: -.809017003}
        inSlope: {x: 0, y: 0, z: 7.59348679, w: 5.51699352}
        outSlope: {x: 0, y: 0, z: 7.59348679, w: 5.51699352}
        tangentMode: 1110441984
      - time: .0833333358
        value: {x: -0, y: -0, z: .707106769, w: -.707106769}
        inSlope: {x: 0, y: 0, z: 6.63695335, w: 6.63695145}
        outSlope: {x: 0, y: 0, z: 6.63695335, w: 6.63695145}
        tangentMode: 1110441984
      - time: .100000001
        value: {x: -0, y: -0, z: .809017003, w: -.587785304}
        inSlope: {x: 0, y: 0, z: 5.51699352, w: 7.59348822}
        outSlope: {x: 0, y: 0, z: 5.51699352, w: 7.59348822}
        tangentMode: 1110441984
      - time: .116666667
        value: {x: -0, y: -0, z: .891006529, w: -.453990519}
        inSlope: {x: 0, y: 0, z: 4.26118565, w: 8.36304855}
        outSlope: {x: 0, y: 0, z: 4.26118565, w: 8.36304855}
        tangentMode: 1110441984
      - time: .13333334
        value: {x: -0, y: -0, z: .95105654, w: -.309016973}
        inSlope: {x: 0, y: 0, z: 2.90045452, w: 8.92667961}
        outSlope: {x: 0, y: 0, z: 2.90045452, w: 8.92667961}
        tangentMode: 1115947008
      - time: .150000006
        value: {x: -0, y: -0, z: .987688363, w: -.156434491}
        inSlope: {x: 0, y: 0, z: 1.46830392, w: 9.27051163}
        outSlope: {x: 0, y: 0, z: 1.46830392, w: 9.27051163}
        tangentMode: 1117388800
      - time: .166666672
        value: {x: -0, y: -0, z: 1, w: 4.37113883e-08}
        inSlope: {x: 0, y: 0, z: 0, w: 9.38606834}
        outSlope: {x: 0, y: 0, z: 0, w: 9.38606834}
        tangentMode: 1117388800
      - time: .183333337
        value: {x: -0, y: -0, z: .987688363, w: .156434447}
        inSlope: {x: 0, y: 0, z: -1.46830392, w: 9.27050781}
        outSlope: {x: 0, y: 0, z: -1.46830392, w: 9.27050781}
        tangentMode: 1117388800
      - time: .200000003
        value: {x: -0, y: -0, z: .95105654, w: .309016943}
        inSlope: {x: 0, y: 0, z: -2.90045357, w: 8.92667961}
        outSlope: {x: 0, y: 0, z: -2.90045357, w: 8.92667961}
        tangentMode: 1117388800
      - time: .216666669
        value: {x: -0, y: -0, z: .891006589, w: .4539904}
        inSlope: {x: 0, y: 0, z: -4.2611866, w: 8.36304855}
        outSlope: {x: 0, y: 0, z: -4.2611866, w: 8.36304855}
        tangentMode: 1117388800
      - time: .233333334
        value: {x: -0, y: -0, z: .809017003, w: .587785184}
        inSlope: {x: 0, y: 0, z: -5.51699495, w: 7.59349155}
        outSlope: {x: 0, y: 0, z: -5.51699495, w: 7.59349155}
        tangentMode: 1117388800
      - time: .25
        value: {x: -0, y: -0, z: .707106769, w: .707106769}
        inSlope: {x: 0, y: 0, z: -6.63695145, w: 6.63695431}
        outSlope: {x: 0, y: 0, z: -6.63695145, w: 6.63695431}
        tangentMode: 1117388800
      - time: .266666681
        value: {x: -0, y: -0, z: .587785184, w: .809017062}
        inSlope: {x: 0, y: 0, z: -7.59348583, w: 5.51698971}
        outSlope: {x: 0, y: 0, z: -7.59348583, w: 5.51698971}
        tangentMode: 1117388800
      - time: .283333361
        value: {x: -0, y: -0, z: .45399037, w: .891006589}
        inSlope: {x: 0, y: 0, z: -8.36304474, w: 4.26118231}
        outSlope: {x: 0, y: 0, z: -8.36304474, w: 4.26118231}
        tangentMode: 1117388800
      - time: .300000042
        value: {x: -0, y: -0, z: .309016794, w: .9510566}
        inSlope: {x: 0, y: 0, z: -8.92668438, w: 2.90045261}
        outSlope: {x: 0, y: 0, z: -8.92668438, w: 2.90045261}
        tangentMode: 1115947008
      - time: .316666722
        value: {x: -0, y: -0, z: .15643397, w: .987688422}
        inSlope: {x: 0, y: 0, z: -9.27051544, w: 1.46830201}
        outSlope: {x: 0, y: 0, z: -9.27051544, w: 1.46830201}
        tangentMode: 1117388800
      - time: .333333343
        value: {x: -0, y: -0, z: -8.74227766e-08, w: 1}
        inSlope: {x: 0, y: 0, z: -9.3860693, w: .738696694}
        outSlope: {x: 0, y: 0, z: -9.3860693, w: .738696694}
        tangentMode: 1117388800
      m_PreInfinity: 2
      m_PostInfinity: 2
    path: VINT_LITTLE_CONTROL
  m_CompressedRotationCurves: []
  m_PositionCurves:
  - curve:
      serializedVersion: 2
      m_Curve:
      - time: 0
        value: {x: 0, y: 0, z: 0}
        inSlope: {x: 54, y: 0, z: -180}
        outSlope: {x: 54, y: 0, z: -180}
        tangentMode: 0
      - time: .166666672
        value: {x: 9, y: 0, z: -30}
        inSlope: {x: 21.8700142, y: 0, z: -90}
        outSlope: {x: 21.8700142, y: 0, z: -90}
        tangentMode: 0
      - time: .183333337
        value: {x: 8.82900047, y: 0, z: -30}
        inSlope: {x: -34.5599861, y: 0, z: 99.9999924}
        outSlope: {x: -34.5599861, y: 0, z: 99.9999924}
        tangentMode: 0
      - time: .333333343
        value: {x: 0, y: 0, z: 0}
        inSlope: {x: -58.8600006, y: 0, z: 199.999985}
        outSlope: {x: -58.8600006, y: 0, z: 199.999985}
        tangentMode: 0
      m_PreInfinity: 2
      m_PostInfinity: 2
    path: VINT_BIG_CONTROL/VINT1_BIG
  m_ScaleCurves:
  - curve:
      serializedVersion: 2
      m_Curve:
      - time: 0
        value: {x: -1, y: 1, z: 1}
        inSlope: {x: 5.39999962, y: 0, z: 0}
        outSlope: {x: 5.39999962, y: 0, z: 0}
        tangentMode: 91
      - time: .166666672
        value: {x: -.100000001, y: 1, z: 1}
        inSlope: {x: 8.70000076, y: 0, z: 0}
        outSlope: {x: 8.70000076, y: 0, z: 0}
        tangentMode: 0
      - time: .183333337
        value: {x: .100000001, y: 1, z: 1}
        inSlope: {x: 9, y: 0, z: 0}
        outSlope: {x: 9, y: 0, z: 0}
        tangentMode: 445526772
      - time: .333333343
        value: {x: 1, y: 1, z: 1}
        inSlope: {x: 5.99999952, y: 0, z: 0}
        outSlope: {x: 5.99999952, y: 0, z: 0}
        tangentMode: 1098907648
      m_PreInfinity: 2
      m_PostInfinity: 2
    path: VINT_BIG_CONTROL/VINT2_BIG
  - curve:
      serializedVersion: 2
      m_Curve:
      - time: 0
        value: {x: 1, y: 1, z: 1}
        inSlope: {x: -5.39999962, y: 0, z: 0}
        outSlope: {x: -5.39999962, y: 0, z: 0}
        tangentMode: 1085066444
      - time: .166666672
        value: {x: .100000001, y: 1, z: 1}
        inSlope: {x: -8.70000076, y: 0, z: 0}
        outSlope: {x: -8.70000076, y: 0, z: 0}
        tangentMode: 1091253044
      - time: .183333337
        value: {x: -.100000001, y: 1, z: 1}
        inSlope: {x: -9, y: 0, z: 0}
        outSlope: {x: -9, y: 0, z: 0}
        tangentMode: 1091567616
      - time: .333333343
        value: {x: -1, y: 1, z: 1}
        inSlope: {x: -5.99999952, y: 0, z: 0}
        outSlope: {x: -5.99999952, y: 0, z: 0}
        tangentMode: 1086324735
      m_PreInfinity: 2
      m_PostInfinity: 2
    path: VINT_BIG_CONTROL/VINT1_BIG
  m_FloatCurves: []
  m_PPtrCurves: []
  m_SampleRate: 60
  m_WrapMode: 2
  m_Bounds:
    m_Center: {x: 0, y: 0, z: 0}
    m_Extent: {x: 0, y: 0, z: 0}
  m_ClipBindingConstant:
    genericBindings: []
    pptrCurveMapping: []
  m_AnimationClipSettings:
    serializedVersion: 2
    m_StartTime: 0
    m_StopTime: .333333343
    m_OrientationOffsetY: 0
    m_Level: 0
    m_CycleOffset: 0
    m_LoopTime: 0
    m_LoopBlend: 0
    m_LoopBlendOrientation: 0
    m_LoopBlendPositionY: 0
    m_LoopBlendPositionXZ: 0
    m_KeepOriginalOrientation: 0
    m_KeepOriginalPositionY: 1
    m_KeepOriginalPositionXZ: 0
    m_HeightFromFeet: 0
    m_Mirror: 0
  m_EditorCurves:
  - curve:
      serializedVersion: 2
      m_Curve:
      - time: 0
        value: 1
        inSlope: 0
        outSlope: 0
        tangentMode: 10
      - time: .166666672
        value: 1
        inSlope: 0
        outSlope: 0
        tangentMode: 10
      - time: .183333337
        value: 1
        inSlope: 0
        outSlope: 0
        tangentMode: 10
      - time: .333333343
        value: 1
        inSlope: 0
        outSlope: 0
        tangentMode: 10
      m_PreInfinity: 2
      m_PostInfinity: 2
    attribute: m_LocalScale.z
    path: VINT_BIG_CONTROL/VINT2_BIG
    classID: 4
    script: {fileID: 0}
  - curve:
      serializedVersion: 2
      m_Curve:
      - time: 0
        value: 1
        inSlope: 0
        outSlope: 0
        tangentMode: 10
      - time: .166666672
        value: 1
        inSlope: 0
        outSlope: 0
        tangentMode: 10
      - time: .183333337
        value: 1
        inSlope: 0
        outSlope: 0
        tangentMode: 10
      - time: .333333343
        value: 1
        inSlope: 0
        outSlope: 0
        tangentMode: 10
      m_PreInfinity: 2
      m_PostInfinity: 2
    attribute: m_LocalScale.y
    path: VINT_BIG_CONTROL/VINT2_BIG
    classID: 4
    script: {fileID: 0}
  - curve:
      serializedVersion: 2
      m_Curve:
      - time: 0
        value: -1
        inSlope: 5.39999962
        outSlope: 5.39999962
        tangentMode: 10
      - time: .166666672
        value: -.100000001
        inSlope: 8.70000076
        outSlope: 8.70000076
        tangentMode: 10
      - time: .183333337
        value: .100000001
        inSlope: 9
        outSlope: 9
        tangentMode: 10
      - time: .333333343
        value: 1
        inSlope: 5.99999952
        outSlope: 5.99999952
        tangentMode: 10
      m_PreInfinity: 2
      m_PostInfinity: 2
    attribute: m_LocalScale.x
    path: VINT_BIG_CONTROL/VINT2_BIG
    classID: 4
    script: {fileID: 0}
  - curve:
      serializedVersion: 2
      m_Curve:
      - time: 0
        value: 0
        inSlope: -180
        outSlope: -180
        tangentMode: 10
      - time: .166666672
        value: -30
        inSlope: -90
        outSlope: -90
        tangentMode: 10
      - time: .183333337
        value: -30
        inSlope: 99.9999924
        outSlope: 99.9999924
        tangentMode: 10
      - time: .333333343
        value: 0
        inSlope: 199.999985
        outSlope: 199.999985
        tangentMode: 10
      m_PreInfinity: 2
      m_PostInfinity: 2
    attribute: m_LocalPosition.z
    path: VINT_BIG_CONTROL/VINT1_BIG
    classID: 4
    script: {fileID: 0}
  - curve:
      serializedVersion: 2
      m_Curve:
      - time: 0
        value: 1
        inSlope: -5.39999962
        outSlope: -5.39999962
        tangentMode: 10
      - time: .166666672
        value: .100000001
        inSlope: -8.70000076
        outSlope: -8.70000076
        tangentMode: 10
      - time: .183333337
        value: -.100000001
        inSlope: -9
        outSlope: -9
        tangentMode: 10
      - time: .333333343
        value: -1
        inSlope: -5.99999952
        outSlope: -5.99999952
        tangentMode: 10
      m_PreInfinity: 2
      m_PostInfinity: 2
    attribute: m_LocalScale.x
    path: VINT_BIG_CONTROL/VINT1_BIG
    classID: 4
    script: {fileID: 0}
  - curve:
      serializedVersion: 2
      m_Curve:
      - time: 0
        value: 1
        inSlope: 0
        outSlope: 0
        tangentMode: 10
      - time: .166666672
        value: 1
        inSlope: 0
        outSlope: 0
        tangentMode: 10
      - time: .183333337
        value: 1
        inSlope: 0
        outSlope: 0
        tangentMode: 10
      - time: .333333343
        value: 1
        inSlope: 0
        outSlope: 0
        tangentMode: 10
      m_PreInfinity: 2
      m_PostInfinity: 2
    attribute: m_LocalScale.y
    path: VINT_BIG_CONTROL/VINT1_BIG
    classID: 4
    script: {fileID: 0}
  - curve:
      serializedVersion: 2
      m_Curve:
      - time: 0
        value: 1
        inSlope: 0
        outSlope: 0
        tangentMode: 10
      - time: .166666672
        value: 1
        inSlope: 0
        outSlope: 0
        tangentMode: 10
      - time: .183333337
        value: 1
        inSlope: 0
        outSlope: 0
        tangentMode: 10
      - time: .333333343
        value: 1
        inSlope: 0
        outSlope: 0
        tangentMode: 10
      m_PreInfinity: 2
      m_PostInfinity: 2
    attribute: m_LocalScale.z
    path: VINT_BIG_CONTROL/VINT1_BIG
    classID: 4
    script: {fileID: 0}
  - curve:
      serializedVersion: 2
      m_Curve:
      - time: 0
        value: 0
        inSlope: 54
        outSlope: 54
        tangentMode: 10
      - time: .166666672
        value: 9
        inSlope: 21.8700142
        outSlope: 21.8700142
        tangentMode: 10
      - time: .183333337
        value: 8.82900047
        inSlope: -34.5599861
        outSlope: -34.5599861
        tangentMode: 10
      - time: .333333343
        value: 0
        inSlope: -58.8600006
        outSlope: -58.8600006
        tangentMode: 10
      m_PreInfinity: 2
      m_PostInfinity: 2
    attribute: m_LocalPosition.x
    path: VINT_BIG_CONTROL/VINT1_BIG
    classID: 4
    script: {fileID: 0}
  - curve:
      serializedVersion: 2
      m_Curve:
      - time: 0
        value: 0
        inSlope: 0
        outSlope: 0
        tangentMode: 10
      - time: .166666672
        value: 0
        inSlope: 0
        outSlope: 0
        tangentMode: 10
      - time: .183333337
        value: 0
        inSlope: 0
        outSlope: 0
        tangentMode: 10
      - time: .333333343
        value: 0
        inSlope: 0
        outSlope: 0
        tangentMode: 10
      m_PreInfinity: 2
      m_PostInfinity: 2
    attribute: m_LocalPosition.y
    path: VINT_BIG_CONTROL/VINT1_BIG
    classID: 4
    script: {fileID: 0}
  - curve:
      serializedVersion: 2
      m_Curve:
      - time: 0
        value: -0
        inSlope: 0
        outSlope: 0
        tangentMode: 0
      - time: .0166666675
        value: -0
        inSlope: 0
        outSlope: 0
        tangentMode: 0
      - time: .0333333351
        value: -0
        inSlope: 0
        outSlope: 0
        tangentMode: 0
      - time: .0500000045
        value: -0
        inSlope: 0
        outSlope: 0
        tangentMode: 0
      - time: .0666666701
        value: -0
        inSlope: 0
        outSlope: 0
        tangentMode: 0
      - time: .0833333358
        value: -0
        inSlope: 0
        outSlope: 0
        tangentMode: 0
      - time: .100000001
        value: -0
        inSlope: 0
        outSlope: 0
        tangentMode: 0
      - time: .116666667
        value: -0
        inSlope: 0
        outSlope: 0
        tangentMode: 0
      - time: .13333334
        value: -0
        inSlope: 0
        outSlope: 0
        tangentMode: 0
      - time: .150000006
        value: -0
        inSlope: 0
        outSlope: 0
        tangentMode: 0
      - time: .166666672
        value: -0
        inSlope: 0
        outSlope: 0
        tangentMode: 0
      - time: .183333337
        value: -0
        inSlope: 0
        outSlope: 0
        tangentMode: 0
      - time: .200000003
        value: -0
        inSlope: 0
        outSlope: 0
        tangentMode: 0
      - time: .216666669
        value: -0
        inSlope: 0
        outSlope: 0
        tangentMode: 0
      - time: .233333334
        value: -0
        inSlope: 0
        outSlope: 0
        tangentMode: 0
      - time: .25
        value: -0
        inSlope: 0
        outSlope: 0
        tangentMode: 0
      - time: .266666681
        value: -0
        inSlope: 0
        outSlope: 0
        tangentMode: 0
      - time: .283333361
        value: -0
        inSlope: 0
        outSlope: 0
        tangentMode: 0
      - time: .300000042
        value: -0
        inSlope: 0
        outSlope: 0
        tangentMode: 0
      - time: .316666722
        value: -0
        inSlope: 0
        outSlope: 0
        tangentMode: 0
      - time: .333333343
        value: -0
        inSlope: 0
        outSlope: 0
        tangentMode: 0
      m_PreInfinity: 2
      m_PostInfinity: 2
    attribute: m_LocalRotation.x
    path: VINT_LITTLE_CONTROL
    classID: 4
    script: {fileID: 0}
  - curve:
      serializedVersion: 2
      m_Curve:
      - time: 0
        value: -0
        inSlope: 0
        outSlope: 0
        tangentMode: 0
      - time: .0166666675
        value: -0
        inSlope: 0
        outSlope: 0
        tangentMode: 0
      - time: .0333333351
        value: -0
        inSlope: 0
        outSlope: 0
        tangentMode: 0
      - time: .0500000045
        value: -0
        inSlope: 0
        outSlope: 0
        tangentMode: 0
      - time: .0666666701
        value: -0
        inSlope: 0
        outSlope: 0
        tangentMode: 0
      - time: .0833333358
        value: -0
        inSlope: 0
        outSlope: 0
        tangentMode: 0
      - time: .100000001
        value: -0
        inSlope: 0
        outSlope: 0
        tangentMode: 0
      - time: .116666667
        value: -0
        inSlope: 0
        outSlope: 0
        tangentMode: 0
      - time: .13333334
        value: -0
        inSlope: 0
        outSlope: 0
        tangentMode: 0
      - time: .150000006
        value: -0
        inSlope: 0
        outSlope: 0
        tangentMode: 0
      - time: .166666672
        value: -0
        inSlope: 0
        outSlope: 0
        tangentMode: 0
      - time: .183333337
        value: -0
        inSlope: 0
        outSlope: 0
        tangentMode: 0
      - time: .200000003
        value: -0
        inSlope: 0
        outSlope: 0
        tangentMode: 0
      - time: .216666669
        value: -0
        inSlope: 0
        outSlope: 0
        tangentMode: 0
      - time: .233333334
        value: -0
        inSlope: 0
        outSlope: 0
        tangentMode: 0
      - time: .25
        value: -0
        inSlope: 0
        outSlope: 0
        tangentMode: 0
      - time: .266666681
        value: -0
        inSlope: 0
        outSlope: 0
        tangentMode: 0
      - time: .283333361
        value: -0
        inSlope: 0
        outSlope: 0
        tangentMode: 0
      - time: .300000042
        value: -0
        inSlope: 0
        outSlope: 0
        tangentMode: 0
      - time: .316666722
        value: -0
        inSlope: 0
        outSlope: 0
        tangentMode: 0
      - time: .333333343
        value: -0
        inSlope: 0
        outSlope: 0
        tangentMode: 0
      m_PreInfinity: 2
      m_PostInfinity: 2
    attribute: m_LocalRotation.y
    path: VINT_LITTLE_CONTROL
    classID: 4
    script: {fileID: 0}
  - curve:
      serializedVersion: 2
      m_Curve:
      - time: 0
        value: -0
        inSlope: 9.38606834
        outSlope: 9.38606834
        tangentMode: 0
      - time: .0166666675
        value: .156434476
        inSlope: 9.27050972
        outSlope: 9.27050972
        tangentMode: 0
      - time: .0333333351
        value: .309017003
        inSlope: 8.92668152
        outSlope: 8.92668152
        tangentMode: 0
      - time: .0500000045
        value: .453990549
        inSlope: 8.36304665
        outSlope: 8.36304665
        tangentMode: 0
      - time: .0666666701
        value: .587785244
        inSlope: 7.59348679
        outSlope: 7.59348679
        tangentMode: 0
      - time: .0833333358
        value: .707106769
        inSlope: 6.63695335
        outSlope: 6.63695335
        tangentMode: 0
      - time: .100000001
        value: .809017003
        inSlope: 5.51699352
        outSlope: 5.51699352
        tangentMode: 0
      - time: .116666667
        value: .891006529
        inSlope: 4.26118565
        outSlope: 4.26118565
        tangentMode: 0
      - time: .13333334
        value: .95105654
        inSlope: 2.90045452
        outSlope: 2.90045452
        tangentMode: 0
      - time: .150000006
        value: .987688363
        inSlope: 1.46830392
        outSlope: 1.46830392
        tangentMode: 0
      - time: .166666672
        value: 1
        inSlope: 0
        outSlope: 0
        tangentMode: 0
      - time: .183333337
        value: .987688363
        inSlope: -1.46830392
        outSlope: -1.46830392
        tangentMode: 0
      - time: .200000003
        value: .95105654
        inSlope: -2.90045357
        outSlope: -2.90045357
        tangentMode: 0
      - time: .216666669
        value: .891006589
        inSlope: -4.2611866
        outSlope: -4.2611866
        tangentMode: 0
      - time: .233333334
        value: .809017003
        inSlope: -5.51699495
        outSlope: -5.51699495
        tangentMode: 0
      - time: .25
        value: .707106769
        inSlope: -6.63695145
        outSlope: -6.63695145
        tangentMode: 0
      - time: .266666681
        value: .587785184
        inSlope: -7.59348583
        outSlope: -7.59348583
        tangentMode: 0
      - time: .283333361
        value: .45399037
        inSlope: -8.36304474
        outSlope: -8.36304474
        tangentMode: 0
      - time: .300000042
        value: .309016794
        inSlope: -8.92668438
        outSlope: -8.92668438
        tangentMode: 0
      - time: .316666722
        value: .15643397
        inSlope: -9.27051544
        outSlope: -9.27051544
        tangentMode: 0
      - time: .333333343
        value: -8.74227766e-08
        inSlope: -9.3860693
        outSlope: -9.3860693
        tangentMode: 0
      m_PreInfinity: 2
      m_PostInfinity: 2
    attribute: m_LocalRotation.z
    path: VINT_LITTLE_CONTROL
    classID: 4
    script: {fileID: 0}
  - curve:
      serializedVersion: 2
      m_Curve:
      - time: 0
        value: -1
        inSlope: .738698184
        outSlope: .738698184
        tangentMode: 0
      - time: .0166666675
        value: -.987688363
        inSlope: 1.4683038
        outSlope: 1.4683038
        tangentMode: 0
      - time: .0333333351
        value: -.95105654
        inSlope: 2.90045476
        outSlope: 2.90045476
        tangentMode: 0
      - time: .0500000045
        value: -.891006529
        inSlope: 4.26118612
        outSlope: 4.26118612
        tangentMode: 0
      - time: .0666666701
        value: -.809017003
        inSlope: 5.51699352
        outSlope: 5.51699352
        tangentMode: 0
      - time: .0833333358
        value: -.707106769
        inSlope: 6.63695145
        outSlope: 6.63695145
        tangentMode: 0
      - time: .100000001
        value: -.587785304
        inSlope: 7.59348822
        outSlope: 7.59348822
        tangentMode: 0
      - time: .116666667
        value: -.453990519
        inSlope: 8.36304855
        outSlope: 8.36304855
        tangentMode: 0
      - time: .13333334
        value: -.309016973
        inSlope: 8.92667961
        outSlope: 8.92667961
        tangentMode: 0
      - time: .150000006
        value: -.156434491
        inSlope: 9.27051163
        outSlope: 9.27051163
        tangentMode: 0
      - time: .166666672
        value: 4.37113883e-08
        inSlope: 9.38606834
        outSlope: 9.38606834
        tangentMode: 0
      - time: .183333337
        value: .156434447
        inSlope: 9.27050781
        outSlope: 9.27050781
        tangentMode: 0
      - time: .200000003
        value: .309016943
        inSlope: 8.92667961
        outSlope: 8.92667961
        tangentMode: 0
      - time: .216666669
        value: .4539904
        inSlope: 8.36304855
        outSlope: 8.36304855
        tangentMode: 0
      - time: .233333334
        value: .587785184
        inSlope: 7.59349155
        outSlope: 7.59349155
        tangentMode: 0
      - time: .25
        value: .707106769
        inSlope: 6.63695431
        outSlope: 6.63695431
        tangentMode: 0
      - time: .266666681
        value: .809017062
        inSlope: 5.51698971
        outSlope: 5.51698971
        tangentMode: 0
      - time: .283333361
        value: .891006589
        inSlope: 4.26118231
        outSlope: 4.26118231
        tangentMode: 0
      - time: .300000042
        value: .9510566
        inSlope: 2.90045261
        outSlope: 2.90045261
        tangentMode: 0
      - time: .316666722
        value: .987688422
        inSlope: 1.46830201
        outSlope: 1.46830201
        tangentMode: 0
      - time: .333333343
        value: 1
        inSlope: .738696694
        outSlope: .738696694
        tangentMode: 0
      m_PreInfinity: 2
      m_PostInfinity: 2
    attribute: m_LocalRotation.w
    path: VINT_LITTLE_CONTROL
    classID: 4
    script: {fileID: 0}
  m_EulerEditorCurves:
  - curve:
      serializedVersion: 2
      m_Curve:
      - time: 0
        value: 0
        inSlope: 0
        outSlope: 0
        tangentMode: 10
      - time: .333333343
        value: 0
        inSlope: 0
        outSlope: 0
        tangentMode: 10
      m_PreInfinity: 2
      m_PostInfinity: 2
    attribute: localEulerAnglesBaked.x
    path: VINT_LITTLE_CONTROL
    classID: 4
    script: {fileID: 0}
  - curve:
      serializedVersion: 2
      m_Curve:
      - time: 0
        value: 0
        inSlope: 0
        outSlope: 0
        tangentMode: 10
      - time: .333333343
        value: 0
        inSlope: 0
        outSlope: 0
        tangentMode: 10
      m_PreInfinity: 2
      m_PostInfinity: 2
    attribute: localEulerAnglesBaked.y
    path: VINT_LITTLE_CONTROL
    classID: 4
    script: {fileID: 0}
  - curve:
      serializedVersion: 2
      m_Curve:
      - time: 0
        value: 0
        inSlope: -1080
        outSlope: -1080
        tangentMode: 10
      - time: .333333343
        value: -360
        inSlope: -1080
        outSlope: -1080
        tangentMode: 10
      m_PreInfinity: 2
      m_PostInfinity: 2
    attribute: localEulerAnglesBaked.z
    path: VINT_LITTLE_CONTROL
    classID: 4
    script: {fileID: 0}
  m_HasGenericRootTransform: 0
  m_HasMotionFloatCurves: 0
  m_GenerateMotionCurves: 0
  m_Events: []
