%YAML 1.1
%TAG !u! tag:unity3d.com,2011:
--- !u!114 &11400000
MonoBehaviour:
  m_ObjectHideFlags: 0
  m_PrefabParentObject: {fileID: 0}
  m_PrefabInternal: {fileID: 0}
  m_GameObject: {fileID: 0}
  m_Enabled: 1
  m_EditorHideFlags: 0
  m_Script: {fileID: 11500000, guid: 6a755b1a40b35b349b3a74f42d774893, type: 3}
  m_Name: AppSettings_IPhonePlayer_Default
  m_EditorClassIdentifier: 
  _objectReferences: []
  _serializedStateKeys:
  - _PNSList
  - _appDomains
  _serializedStateValues:
  - '{"Freemium":{"enabled":false,"appId":null,"googleProjectNumber":null,"_objectReferences":null,"_serializedStateKeys":null,"_serializedStateValues":null},"Full":{"enabled":false,"appId":null,"googleProjectNumber":null,"_objectReferences":null,"_serializedStateKeys":null,"_serializedStateValues":null},"Lite":{"enabled":false,"appId":null,"googleProjectNumber":null,"_objectReferences":null,"_serializedStateKeys":null,"_serializedStateValues":null}}'
  - '{}'
  refreshAppLinksInResume: 1
  DLC:
    _objectReferences: []
    _serializedStateKeys: []
    _serializedStateValues: []
  CP:
    _objectReferences: []
    _serializedStateKeys:
    - UIViewMode
    - _uriPrefabs
    _serializedStateValues:
    - '"CrossPromotionView"'
    - '{"en":"UI/CPUIViewControl","ru":"UI/CPUIViewControl"}'
    testMode: 0
    resetActiveUpdate: 1
    denyRunUpdateFromLevel: -1
    UIViewMode: 8
    alwaysLandscape: 0
    waitBeforeCompleteImagesLoading: 0.25
    disable: 0
  IAP:
    _objectReferences: []
    _serializedStateKeys:
    - UIViewMode
    - GetFullVersionViewMode
    - _uriPrefabs
    - _uriGfVPrefabs
    _serializedStateValues:
    - '"InAppView"'
    - '"BuyFullVersionView"'
    - 
    - 
    enabled: 0
    UIViewMode: 512
    broadcastPMEvents: 1
    GetFullVersionViewMode: 32
    timeWaitBeforeClose: 0.2
    trackFullVersion: 1
  Scene:
    _objectReferences: []
    _serializedStateKeys:
    - SplahIndex
    - CleanerIndex
    _serializedStateValues:
    - 0
    - 0
    _mainIndex: 1
  UI:
    _objectReferences: []
    _serializedStateKeys:
    - _defaultLang
    - _supportedLang
    _serializedStateValues:
    - '"en"'
    - '{"none":false,"en":true,"ru":true,"jp":false,"fr":false,"sp":false,"it":false,"pt":false,"de":false,"cn":false,"kr":false,"tr":false}'
    _isMultiLang: 1
    _defaultLang: 1
    sleepTimeout: -1
  Effect:
    _objectReferences: []
    _serializedStateKeys:
    - fading
    - parentalGateBackScreen
    _serializedStateValues:
    - '{"duration":0.5,"mode":"OutContinued","color":{"r":1.0,"g":1.0,"b":1.0,"a":1.0},"isAutoSetUIViewMode":true}'
    - '{"color":{"r":0.0,"g":0.0,"b":0.0,"a":0.670000016689301}}'
    fading:
      duration: 0.5
      mode: 3
      color: {r: 1, g: 1, b: 1, a: 1}
      isAutoSetUIViewMode: 1
    parentalGateBackScreen:
      color: {r: 0, g: 0, b: 0, a: 0.67}
  appInfo:
    _objectReferences: []
    _serializedStateKeys:
    - _productNames
    - _activeAppType
    - _bundleVersions
    - _productCategory
    - _appIds
    - _shortBundleIds
    - androidStore
    - _splitBinary
    - _usePatchOBB
    _serializedStateValues:
    - '{"Full":"dummy","Lite":"dummy","Freemium":"dummy"}'
    - '"Freemium"'
    - '{"Full":"1.0.0.0","Lite":"1.0.0.0","Freemium":"1.0.0.0"}'
    - '"None"'
    - '{"Full":"777777","Lite":"7777778","Freemium":"777777"}'
    - '{"Full":"dummy","Lite":"dummy","Freemium":"dummy"}'
    - '"GooglePlayMarket"'
    - '{"Full":false,"Lite":false,"Freemium":false}'
    - 
    _activeAppType: 0
    _productCategory: 0
    _prefixBundleId: com.mage-app.a
    androidStore: 0
    publicKey: 
