%YAML 1.1
%TAG !u! tag:unity3d.com,2011:
--- !u!114 &11400000
MonoBehaviour:
  m_ObjectHideFlags: 0
  m_PrefabParentObject: {fileID: 0}
  m_PrefabInternal: {fileID: 0}
  m_GameObject: {fileID: 0}
  m_Enabled: 1
  m_EditorHideFlags: 0
  m_Script: {fileID: 11500000, guid: 1d7c99812bc8b4f03b176e3810c7c945, type: 3}
  m_Name: FunnyFoods.LanguageData
  m_EditorClassIdentifier: 
  languageDataContainer:
    _objectReferences: []
    _serializedStateKeys:
    - foodSexRU
    - foodSexDE
    - foodSexFR
    - foodSexSP
    - foodSexPT
    - foodSexIT
    _serializedStateValues:
    - '{"Banana":"HE","Apple":"IT","Melon":"SHE","Corn":"SHE","Cheese":"HE","Lemon":"HE","Pear":"SHE","Grapes":"HE","Eggplante":"HE","Cabbage":"SHE","Blackberry":"SHE","Fig":"HE","Watermelon":"HE","Cucumber":"HE","Broccoli":"SHE","Peas":"HE","Mafin":"HE","Coconut":"HE","Cookie":"IT","Ice_cream":"IT","Chocolate":"HE","Potato":"SHE","Plum":"SHE","Jelly":"IT","Blueberry":"SHE","Lollipop":"HE","Strawberry":"SHE","Tomato":"HE","Radish":"SHE","Bell_pepper":"HE","Chili_pepper":"HE","Pomegranate":"HE","Pumpkin":"SHE","Onion":"HE","Persimmon":"SHE","Yogurt":"HE","Mushroom":"HE","Egg":"IT","Garlic":"HE","Zephyr":"HE","Orange":"HE","Carrot":"SHE","BOAT":"HE","TRUCK":"HE","PAN":"SHE","STAR":"SHE","RECTANGLE":"HE","DIAMOND":"HE","SQUARE":"HE","OVAL":"HE","CIRCLE":"HE","TRIANGLE":"HE","SEMICIRCLE":"HE","HEART":"IT","HEXAGON":"HE","PENTAGON":"HE"}'
    - '{"Banana":"SHE","Apple":"HE","Melon":"SHE","Corn":"HE","Cheese":"HE","Lemon":"SHE","Pear":"SHE","Grapes":"HE","Eggplante":"SHE","Cabbage":"HE","Blackberry":"SHE","Fig":"SHE","Watermelon":"SHE","Cucumber":"SHE","Broccoli":"HE","Peas":"HE","Mafin":"HE","Coconut":"SHE","Cookie":"HE","Ice_cream":"IT","Chocolate":"SHE","Potato":"SHE","Plum":"SHE","Jelly":"SHE","Blueberry":"SHE","Lollipop":"IT","Strawberry":"SHE","Tomato":"SHE","Radish":"IT","Bell_pepper":"SHE","Chili_pepper":"SHE","Pomegranate":"HE","Pumpkin":"HE","Onion":"SHE","Persimmon":"SHE","Yogurt":"HE","Mushroom":"HE","Egg":"IT","Garlic":"HE","Zephyr":"IT","Orange":"SHE","Carrot":"SHE","BOAT":"IT","TRUCK":"HE","PAN":"SHE","STAR":"HE","RECTANGLE":"IT","DIAMOND":"SHE","SQUARE":"IT","OVAL":"IT","CIRCLE":"HE","TRIANGLE":"IT","SEMICIRCLE":"HE","HEART":"IT"}'
    - '{"Banana":"SHE","Apple":"SHE","Melon":"SHE","Corn":"HE","Cheese":"HE","Lemon":"HE","Pear":"SHE","Grapes":"HE","Eggplante":"SHE","Cabbage":"HE","Blackberry":"HE","Fig":"SHE","Watermelon":"HE","Cucumber":"HE","Broccoli":"HE","Peas":"HE","Mafin":"HE","Coconut":"SHE","Cookie":"HE","Ice_cream":"SHE","Chocolate":"HE","Potato":"SHE","Plum":"SHE","Jelly":"SHE","Blueberry":"SHE","Lollipop":"HE","Strawberry":"SHE","Tomato":"SHE","Radish":"HE","Bell_pepper":"HE","Chili_pepper":"HE","Pomegranate":"SHE","Pumpkin":"SHE","Onion":"HE","Persimmon":"HE","Yogurt":"HE","Mushroom":"HE","Egg":"HE","Garlic":"HE","Zephyr":"HE","Orange":"SHE","Carrot":"SHE","BOAT":"HE","TRUCK":"HE","PAN":"SHE","STAR":"SHE","RECTANGLE":"HE","DIAMOND":"HE","SQUARE":"HE","OVAL":"HE","CIRCLE":"HE","TRIANGLE":"HE","SEMICIRCLE":"HE","HEART":"HE"}'
    - '{"Banana":"HE","Apple":"SHE","Melon":"HE","Corn":"HE","Cheese":"HE","Lemon":"HE","Pear":"SHE","Grapes":"SHE","Eggplante":"SHE","Cabbage":"HE","Blackberry":"HE","Fig":"HE","Watermelon":"SHE","Cucumber":"HE","Broccoli":"HE","Peas":"HE","Mafin":"SHE","Coconut":"HE","Cookie":"SHE","Ice_cream":"HE","Chocolate":"HE","Potato":"SHE","Plum":"SHE","Jelly":"SHE","Blueberry":"SHE","Lollipop":"HE","Strawberry":"SHE","Tomato":"HE","Radish":"SHE","Bell_pepper":"HE","Chili_pepper":"SHE","Pomegranate":"SHE","Pumpkin":"SHE","Onion":"SHE","Persimmon":"HE","Yogurt":"HE","Mushroom":"HE","Egg":"HE","Garlic":"HE","Zephyr":"SHE","Orange":"SHE","Carrot":"SHE","BOAT":"HE","TRUCK":"HE","PAN":"SHE","STAR":"SHE","RECTANGLE":"HE","DIAMOND":"HE","SQUARE":"HE","OVAL":"HE","CIRCLE":"HE","TRIANGLE":"HE","SEMICIRCLE":"HE","HEART":"HE"}'
    - '{"Banana":"HE","Apple":"HE","Melon":"HE","Corn":"HE","Cheese":"HE","Lemon":"HE","Pear":"HE","Grapes":"HE","Eggplante":"HE","Cabbage":"HE","Blackberry":"HE","Fig":"HE","Watermelon":"HE","Cucumber":"HE","Broccoli":"HE","Peas":"HE","Mafin":"HE","Coconut":"HE","Cookie":"HE","Ice_cream":"HE","Chocolate":"HE","Potato":"HE","Plum":"HE","Jelly":"HE","Blueberry":"HE","Lollipop":"HE","Strawberry":"HE","Tomato":"HE","Radish":"HE","Bell_pepper":"HE","Chili_pepper":"HE","Pomegranate":"HE","Pumpkin":"HE","Onion":"HE","Persimmon":"HE","Yogurt":"HE","Mushroom":"HE","Egg":"HE","Garlic":"HE","Zephyr":"HE","Orange":"HE","Carrot":"HE","BOAT":"HE","TRUCK":"HE","PAN":"HE","STAR":"HE","RECTANGLE":"HE","DIAMOND":"HE","SQUARE":"HE","OVAL":"HE","CIRCLE":"HE","TRIANGLE":"HE","SEMICIRCLE":"HE","HEART":"HE"}'
    - '{"Banana":"SHE","Apple":"SHE","Melon":"HE","Corn":"SHE","Cheese":"HE","Lemon":"HE","Pear":"SHE","Grapes":"SHE","Eggplante":"SHE","Cabbage":"HE","Blackberry":"HE","Fig":"HE","Watermelon":"HE","Cucumber":"HE","Broccoli":"HE","Peas":"HE","Mafin":"HE","Coconut":"HE","Cookie":"HE","Ice_cream":"HE","Chocolate":"HE","Potato":"SHE","Plum":"SHE","Jelly":"SHE","Blueberry":"HE","Lollipop":"SHE","Strawberry":"SHE","Tomato":"HE","Radish":"HE","Bell_pepper":"HE","Chili_pepper":"HE","Pomegranate":"SHE","Pumpkin":"SHE","Onion":"SHE","Persimmon":"HE","Yogurt":"HE","Mushroom":"HE","Egg":"HE","Garlic":"HE","Zephyr":"HE","Orange":"SHE","Carrot":"SHE","BOAT":"SHE","TRUCK":"HE","PAN":"SHE","STAR":"SHE","RECTANGLE":"HE","DIAMOND":"HE","SQUARE":"HE","OVAL":"HE","CIRCLE":"HE","TRIANGLE":"HE","SEMICIRCLE":"HE","HEART":"HE"}'
