%YAML 1.1
%TAG !u! tag:unity3d.com,2011:
--- !u!74 &7400000
AnimationClip:
  m_ObjectHideFlags: 0
  m_PrefabParentObject: {fileID: 0}
  m_PrefabInternal: {fileID: 0}
  m_Name: Kot_HEAD
  serializedVersion: 4
  m_AnimationType: 1
  m_Compressed: 0
  m_UseHighQualityCurve: 1
  m_RotationCurves:
  - curve:
      serializedVersion: 2
      m_Curve:
      - time: 0
        value: {x: 0, y: 0, z: 0, w: 1}
        inSlope: {x: 0, y: 0, z: -.0337299928, w: -1.07288352e-05}
        outSlope: {x: 0, y: 0, z: -.0337299928, w: -1.07288352e-05}
        tangentMode: 2831292
      - time: .0166666675
        value: {x: 0, y: 0, z: -.000562166562, w: .999999821}
        inSlope: {x: 0, y: 0, z: -.0652873069, w: -7.15255737e-05}
        outSlope: {x: 0, y: 0, z: -.0652873069, w: -7.15255737e-05}
        tangentMode: 2831744
      - time: .0333333351
        value: {x: 0, y: 0, z: -.00217624358, w: .999997616}
        inSlope: {x: 0, y: 0, z: -.125142589, w: -.000330805749}
        outSlope: {x: 0, y: 0, z: -.125142589, w: -.000330805749}
        tangentMode: 2832200
      - time: .0500000045
        value: {x: 0, y: 0, z: -.00473358668, w: .999988794}
        inSlope: {x: 0, y: 0, z: -.17847836, w: -.000919103622}
        outSlope: {x: 0, y: 0, z: -.17847836, w: -.000919103622}
        tangentMode: 2832652
      - time: .0666666701
        value: {x: 0, y: 0, z: -.00812552217, w: .999966979}
        inSlope: {x: 0, y: 0, z: -.225292355, w: -.00191152119}
        outSlope: {x: 0, y: 0, z: -.225292355, w: -.00191152119}
        tangentMode: 2833110
      - time: .0833333358
        value: {x: 0, y: 0, z: -.0122433314, w: .999925077}
        inSlope: {x: 0, y: 0, z: -.26558125, w: -.0033330922}
        outSlope: {x: 0, y: 0, z: -.26558125, w: -.0033330922}
        tangentMode: 0
      - time: .100000001
        value: {x: 0, y: 0, z: -.0169782303, w: .999855876}
        inSlope: {x: 0, y: 0, z: -.29934144, w: -.00516057061}
        outSlope: {x: 0, y: 0, z: -.29934144, w: -.00516057061}
        tangentMode: 0
      - time: .116666667
        value: {x: 0, y: 0, z: -.022221379, w: .999753058}
        inSlope: {x: 0, y: 0, z: -.326569676, w: -.00732421689}
        outSlope: {x: 0, y: 0, z: -.326569676, w: -.00732421689}
        tangentMode: 0
      - time: .13333334
        value: {x: 0, y: 0, z: -.0278638881, w: .999611735}
        inSlope: {x: 0, y: 0, z: -.347263515, w: -.0097292643}
        outSlope: {x: 0, y: 0, z: -.347263515, w: -.0097292643}
        tangentMode: 0
      - time: .150000006
        value: {x: 0, y: 0, z: -.033796832, w: .999428749}
        inSlope: {x: 0, y: 0, z: -.36142236, w: -.012255908}
        outSlope: {x: 0, y: 0, z: -.36142236, w: -.012255908}
        tangentMode: 0
      - time: .166666672
        value: {x: 0, y: 0, z: -.0399112999, w: .999203205}
        inSlope: {x: 0, y: 0, z: -.369047642, w: -.0147557277}
        outSlope: {x: 0, y: 0, z: -.369047642, w: -.0147557277}
        tangentMode: 0
      - time: .183333337
        value: {x: 0, y: 0, z: -.0460984185, w: .998936892}
        inSlope: {x: 0, y: 0, z: -.370143414, w: -.0170749445}
        outSlope: {x: 0, y: 0, z: -.370143414, w: -.0170749445}
        tangentMode: 0
      - time: .200000003
        value: {x: 0, y: 0, z: -.052249413, w: .99863404}
        inSlope: {x: 0, y: 0, z: -.364716291, w: -.0190562028}
        outSlope: {x: 0, y: 0, z: -.364716291, w: -.0190562028}
        tangentMode: 0
      - time: .216666669
        value: {x: 0, y: 0, z: -.0582556278, w: .998301685}
        inSlope: {x: 0, y: 0, z: -.352775455, w: -.0205403585}
        outSlope: {x: 0, y: 0, z: -.352775455, w: -.0205403585}
        tangentMode: 0
      - time: .233333334
        value: {x: 0, y: 0, z: -.0640085936, w: .997949362}
        inSlope: {x: 0, y: 0, z: -.334331334, w: -.0213825721}
        outSlope: {x: 0, y: 0, z: -.334331334, w: -.0213825721}
        tangentMode: 0
      - time: .25
        value: {x: 0, y: 0, z: -.069400005, w: .997588933}
        inSlope: {x: 0, y: 0, z: -.309394956, w: -.0214523003}
        outSlope: {x: 0, y: 0, z: -.309394956, w: -.0214523003}
        tangentMode: 0
      - time: .266666681
        value: {x: 0, y: 0, z: -.0743217617, w: .997234285}
        inSlope: {x: 0, y: 0, z: -.277978122, w: -.0206368975}
        outSlope: {x: 0, y: 0, z: -.277978122, w: -.0206368975}
        tangentMode: 0
      - time: .283333361
        value: {x: 0, y: 0, z: -.0786659494, w: .996901035}
        inSlope: {x: 0, y: 0, z: -.240090817, w: -.0188612789}
        outSlope: {x: 0, y: 0, z: -.240090817, w: -.0188612789}
        tangentMode: 0
      - time: .300000042
        value: {x: 0, y: 0, z: -.0823247954, w: .996605575}
        inSlope: {x: 0, y: 0, z: -.19573985, w: -.0160914529}
        outSlope: {x: 0, y: 0, z: -.19573985, w: -.0160914529}
        tangentMode: 0
      - time: .316666722
        value: {x: 0, y: 0, z: -.0851906165, w: .996364653}
        inSlope: {x: 0, y: 0, z: -.144928351, w: -.0123256342}
        outSlope: {x: 0, y: 0, z: -.144928351, w: -.0123256342}
        tangentMode: 0
      - time: .333333403
        value: {x: 0, y: 0, z: -.0871557444, w: .99619472}
        inSlope: {x: 0, y: 0, z: -.0991763845, w: -.00864564627}
        outSlope: {x: 0, y: 0, z: -.0991763845, w: -.00864564627}
        tangentMode: 0
      - time: .350000083
        value: {x: 0, y: 0, z: -.0884964988, w: .996076465}
        inSlope: {x: 0, y: 0, z: -.0674284399, w: -.00597595656}
        outSlope: {x: 0, y: 0, z: -.0674284399, w: -.00597595656}
        tangentMode: 0
      - time: .366666764
        value: {x: 0, y: 0, z: -.0894033611, w: .995995522}
        inSlope: {x: 0, y: 0, z: -.0343018472, w: -.00306665641}
        outSlope: {x: 0, y: 0, z: -.0343018472, w: -.00306665641}
        tangentMode: 0
      - time: .383333445
        value: {x: 0, y: 0, z: -.0896398947, w: .995974243}
        inSlope: {x: 0, y: 0, z: .0130129494, w: .00116407778}
        outSlope: {x: 0, y: 0, z: .0130129494, w: .00116407778}
        tangentMode: 0
      - time: .400000125
        value: {x: 0, y: 0, z: -.0889695957, w: .996034324}
        inSlope: {x: 0, y: 0, z: .0745253414, w: .00661432184}
        outSlope: {x: 0, y: 0, z: .0745253414, w: .00661432184}
        tangentMode: 0
      - time: .416666806
        value: {x: 0, y: 0, z: -.0871557146, w: .99619472}
        inSlope: {x: 0, y: 0, z: .168380886, w: .0145625938}
        outSlope: {x: 0, y: 0, z: .168380886, w: .0145625938}
        tangentMode: 0
      - time: .433333486
        value: {x: 0, y: 0, z: -.0833568946, w: .996519744}
        inSlope: {x: 0, y: 0, z: .30380863, w: .0250249878}
        outSlope: {x: 0, y: 0, z: .30380863, w: .0250249878}
        tangentMode: 0
      - time: .450000167
        value: {x: 0, y: 0, z: -.0770287514, w: .997028887}
        inSlope: {x: 0, y: 0, z: .449331552, w: .0341891944}
        outSlope: {x: 0, y: 0, z: .449331552, w: .0341891944}
        tangentMode: 0
      - time: .466666847
        value: {x: 0, y: 0, z: -.0683791637, w: .997659385}
        inSlope: {x: 0, y: 0, z: .58238107, w: .0392979085}
        outSlope: {x: 0, y: 0, z: .58238107, w: .0392979085}
        tangentMode: 0
      - time: .483333528
        value: {x: 0, y: 0, z: -.0576160327, w: .998338819}
        inSlope: {x: 0, y: 0, z: .702931046, w: .0398987532}
        outSlope: {x: 0, y: 0, z: .702931046, w: .0398987532}
        tangentMode: 0
      - time: .500000179
        value: {x: 0, y: 0, z: -.0449481308, w: .998989344}
        inSlope: {x: 0, y: 0, z: .810912013, w: .0358003713}
        outSlope: {x: 0, y: 0, z: .810912013, w: .0358003713}
        tangentMode: 0
      - time: .51666683
        value: {x: 0, y: 0, z: -.0305856597, w: .999532163}
        inSlope: {x: 0, y: 0, z: .906220198, w: .0270599388}
        outSlope: {x: 0, y: 0, z: .906220198, w: .0270599388}
        tangentMode: 0
      - time: .53333348
        value: {x: 0, y: 0, z: -.01474082, w: .999891341}
        inSlope: {x: 0, y: 0, z: .988731384, w: .0139510762}
        outSlope: {x: 0, y: 0, z: .988731384, w: .0139510762}
        tangentMode: 0
      - time: .550000131
        value: {x: 0, y: 0, z: .00237201992, w: .999997199}
        inSlope: {x: 0, y: 0, z: 1.05831528, w: -.003066662}
        outSlope: {x: 0, y: 0, z: 1.05831528, w: -.003066662}
        tangentMode: 0
      - time: .566666782
        value: {x: 0, y: 0, z: .020536324, w: .999789119}
        inSlope: {x: 0, y: 0, z: 1.11484993, w: -.0233692154}
        outSlope: {x: 0, y: 0, z: 1.11484993, w: -.0233692154}
        tangentMode: 0
      - time: .583333433
        value: {x: 0, y: 0, z: .0395336486, w: .999218225}
        inSlope: {x: 0, y: 0, z: 1.15823448, w: -.0461894721}
        outSlope: {x: 0, y: 0, z: 1.15823448, w: -.0461894721}
        tangentMode: 0
      - time: .600000083
        value: {x: 0, y: 0, z: .059144102, w: .998249471}
        inSlope: {x: 0, y: 0, z: 1.18840265, w: -.0706583932}
        outSlope: {x: 0, y: 0, z: 1.18840265, w: -.0706583932}
        tangentMode: 0
      - time: .616666734
        value: {x: 0, y: 0, z: .0791470334, w: .996862948}
        inSlope: {x: 0, y: 0, z: 1.20533156, w: -.0958229005}
        outSlope: {x: 0, y: 0, z: 1.20533156, w: -.0958229005}
        tangentMode: 0
      - time: .633333385
        value: {x: 0, y: 0, z: .0993217826, w: .995055377}
        inSlope: {x: 0, y: 0, z: 1.20904613, w: -.120676279}
        outSlope: {x: 0, y: 0, z: 1.20904613, w: -.120676279}
        tangentMode: 0
      - time: .650000036
        value: {x: 0, y: 0, z: .119448535, w: .992840409}
        inSlope: {x: 0, y: 0, z: 1.19962537, w: -.144193918}
        outSlope: {x: 0, y: 0, z: 1.19962537, w: -.144193918}
        tangentMode: 0
      - time: .666666687
        value: {x: 0, y: 0, z: .139309257, w: .990248919}
        inSlope: {x: 0, y: 0, z: 1.17719698, w: -.165351182}
        outSlope: {x: 0, y: 0, z: 1.17719698, w: -.165351182}
        tangentMode: 0
      - time: .683333337
        value: {x: 0, y: 0, z: .158688396, w: .987328708}
        inSlope: {x: 0, y: 0, z: 1.14193499, w: -.18316108}
        outSlope: {x: 0, y: 0, z: 1.14193499, w: -.18316108}
        tangentMode: 0
      - time: .699999988
        value: {x: 0, y: 0, z: .177373722, w: .984143555}
        inSlope: {x: 0, y: 0, z: 1.09405494, w: -.196700871}
        outSlope: {x: 0, y: 0, z: 1.09405494, w: -.196700871}
        tangentMode: 0
      - time: .716666639
        value: {x: 0, y: 0, z: .195156857, w: .980772018}
        inSlope: {x: 0, y: 0, z: 1.03379273, w: -.205133751}
        outSlope: {x: 0, y: 0, z: 1.03379273, w: -.205133751}
        tangentMode: 0
      - time: .73333329
        value: {x: 0, y: 0, z: .211833447, w: .97730577}
        inSlope: {x: 0, y: 0, z: .961394072, w: -.207740858}
        outSlope: {x: 0, y: 0, z: .961394072, w: -.207740858}
        tangentMode: 0
      - time: .74999994
        value: {x: 0, y: 0, z: .227203295, w: .97384733}
        inSlope: {x: 0, y: 0, z: .877103746, w: -.20394285}
        outSlope: {x: 0, y: 0, z: .877103746, w: -.20394285}
        tangentMode: 0
      - time: .766666591
        value: {x: 0, y: 0, z: .241070211, w: .970507681}
        inSlope: {x: 0, y: 0, z: .781138241, w: -.193324864}
        outSlope: {x: 0, y: 0, z: .781138241, w: -.193324864}
        tangentMode: 0
      - time: .783333242
        value: {x: 0, y: 0, z: .253241211, w: .967403173}
        inSlope: {x: 0, y: 0, z: .673666954, w: -.175659835}
        outSlope: {x: 0, y: 0, z: .673666954, w: -.175659835}
        tangentMode: 0
      - time: .799999893
        value: {x: 0, y: 0, z: .263525754, w: .964652359}
        inSlope: {x: 0, y: 0, z: .55479759, w: -.150926262}
        outSlope: {x: 0, y: 0, z: .55479759, w: -.150926262}
        tangentMode: 0
      - time: .816666543
        value: {x: 0, y: 0, z: .271734446, w: .962372303}
        inSlope: {x: 0, y: 0, z: .424555659, w: -.119340539}
        outSlope: {x: 0, y: 0, z: .424555659, w: -.119340539}
        tangentMode: 0
      - time: .833333194
        value: {x: 0, y: 0, z: .277677596, w: .960674345}
        inSlope: {x: 0, y: 0, z: .316618979, w: -.0912810266}
        outSlope: {x: 0, y: 0, z: .316618979, w: -.0912810266}
        tangentMode: 0
      - time: .849999845
        value: {x: 0, y: 0, z: .282288402, w: .959329605}
        inSlope: {x: 0, y: 0, z: .268551052, w: -.0789839774}
        outSlope: {x: 0, y: 0, z: .268551052, w: -.0789839774}
        tangentMode: 0
      - time: .866666496
        value: {x: 0, y: 0, z: .286629289, w: .958041549}
        inSlope: {x: 0, y: 0, z: .252449751, w: -.0754917413}
        outSlope: {x: 0, y: 0, z: .252449751, w: -.0754917413}
        tangentMode: 0
      - time: .883333147
        value: {x: 0, y: 0, z: .290703386, w: .956813216}
        inSlope: {x: 0, y: 0, z: .236537993, w: -.0718296245}
        outSlope: {x: 0, y: 0, z: .236537993, w: -.0718296245}
        tangentMode: 0
      - time: .899999797
        value: {x: 0, y: 0, z: .294513881, w: .95564723}
        inSlope: {x: 0, y: 0, z: .220810384, w: -.0680173039}
        outSlope: {x: 0, y: 0, z: .220810384, w: -.0680173039}
        tangentMode: 0
      - time: .916666448
        value: {x: 0, y: 0, z: .298063725, w: .954545975}
        inSlope: {x: 0, y: 0, z: .205262512, w: -.064065516}
        outSlope: {x: 0, y: 0, z: .205262512, w: -.064065516}
        tangentMode: 0
      - time: .933333099
        value: {x: 0, y: 0, z: .301355958, w: .953511715}
        inSlope: {x: 0, y: 0, z: .189895213, w: -.0599885583}
        outSlope: {x: 0, y: 0, z: .189895213, w: -.0599885583}
        tangentMode: 0
      - time: .94999975
        value: {x: 0, y: 0, z: .30439356, w: .952546358}
        inSlope: {x: 0, y: 0, z: .174699605, w: -.0558007285}
        outSlope: {x: 0, y: 0, z: .174699605, w: -.0558007285}
        tangentMode: 0
      - time: .9666664
        value: {x: 0, y: 0, z: .307179272, w: .951651692}
        inSlope: {x: 0, y: 0, z: .159675628, w: -.0515181348}
        outSlope: {x: 0, y: 0, z: .159675628, w: -.0515181348}
        tangentMode: 0
      - time: .983333051
        value: {x: 0, y: 0, z: .309716076, w: .950829089}
        inSlope: {x: 0, y: 0, z: .14482066, w: -.0471532792}
        outSlope: {x: 0, y: 0, z: .14482066, w: -.0471532792}
        tangentMode: 0
      - time: .999999702
        value: {x: 0, y: 0, z: .312006623, w: .950079918}
        inSlope: {x: 0, y: 0, z: .130129069, w: -.042716831}
        outSlope: {x: 0, y: 0, z: .130129069, w: -.042716831}
        tangentMode: 0
      - time: 1.01666641
        value: {x: 0, y: 0, z: .314053714, w: .949405193}
        inSlope: {x: 0, y: 0, z: .115598634, w: -.0382232293}
        outSlope: {x: 0, y: 0, z: .115598634, w: -.0382232293}
        tangentMode: 0
      - time: 1.03333306
        value: {x: 0, y: 0, z: .315859914, w: .948805809}
        inSlope: {x: 0, y: 0, z: .101223983, w: -.0336832106}
        outSlope: {x: 0, y: 0, z: .101223983, w: -.0336832106}
        tangentMode: 0
      - time: 1.04999971
        value: {x: 0, y: 0, z: .317427844, w: .948282421}
        inSlope: {x: 0, y: 0, z: .0870037898, w: -.0291109364}
        outSlope: {x: 0, y: 0, z: .0870037898, w: -.0291109364}
        tangentMode: 0
      - time: 1.06666636
        value: {x: 0, y: 0, z: .318760037, w: .947835445}
        inSlope: {x: 0, y: 0, z: .0729346946, w: -.0245172009}
        outSlope: {x: 0, y: 0, z: .0729346946, w: -.0245172009}
        tangentMode: 0
      - time: 1.08333302
        value: {x: 0, y: 0, z: .319858998, w: .947465181}
        inSlope: {x: 0, y: 0, z: .0590113327, w: -.0199145265}
        outSlope: {x: 0, y: 0, z: .0590113327, w: -.0199145265}
        tangentMode: 0
      - time: 1.09999967
        value: {x: 0, y: 0, z: .32072708, w: .947171628}
        inSlope: {x: 0, y: 0, z: .0452292413, w: -.015310064}
        outSlope: {x: 0, y: 0, z: .0452292413, w: -.015310064}
        tangentMode: 0
      - time: 1.11666632
        value: {x: 0, y: 0, z: .321366638, w: .946954846}
        inSlope: {x: 0, y: 0, z: .0315875113, w: -.0107145412}
        outSlope: {x: 0, y: 0, z: .0315875113, w: -.0107145412}
        tangentMode: 0
      - time: 1.13333297
        value: {x: 0, y: 0, z: .321779996, w: .946814477}
        inSlope: {x: 0, y: 0, z: .0180825777, w: -.0061422647}
        outSlope: {x: 0, y: 0, z: .0180825777, w: -.0061422647}
        tangentMode: 0
      - time: 1.14999962
        value: {x: 0, y: 0, z: .32196939, w: .946750104}
        inSlope: {x: 0, y: 0, z: .00471085776, w: -.00160217436}
        outSlope: {x: 0, y: 0, z: .00471085776, w: -.00160217436}
        tangentMode: 0
      - time: 1.16666627
        value: {x: 0, y: 0, z: .321937025, w: .946761072}
        inSlope: {x: 0, y: 0, z: -.00853122026, w: .00289857667}
        outSlope: {x: 0, y: 0, z: -.00853122026, w: .00289857667}
        tangentMode: 0
      - time: 1.18333292
        value: {x: 0, y: 0, z: .321685016, w: .946846724}
        inSlope: {x: 0, y: 0, z: -.0216490235, w: .00735283643}
        outSlope: {x: 0, y: 0, z: -.0216490235, w: .00735283643}
        tangentMode: 0
      - time: 1.19999957
        value: {x: 0, y: 0, z: .321215391, w: .947006166}
        inSlope: {x: 0, y: 0, z: -.0346434452, w: .0117462985}
        outSlope: {x: 0, y: 0, z: -.0346434452, w: .0117462985}
        tangentMode: 0
      - time: 1.21666622
        value: {x: 0, y: 0, z: .320530236, w: .947238266}
        inSlope: {x: 0, y: 0, z: -.0475162715, w: .0160735995}
        outSlope: {x: 0, y: 0, z: -.0475162715, w: .0160735995}
        tangentMode: 0
      - time: 1.23333287
        value: {x: 0, y: 0, z: .319631517, w: .947541952}
        inSlope: {x: 0, y: 0, z: -.0602719784, w: .0203240104}
        outSlope: {x: 0, y: 0, z: -.0602719784, w: .0203240104}
        tangentMode: 0
      - time: 1.24999952
        value: {x: 0, y: 0, z: .318521172, w: .947915733}
        inSlope: {x: 0, y: 0, z: -.0729132444, w: .0244903788}
        outSlope: {x: 0, y: 0, z: -.0729132444, w: .0244903788}
        tangentMode: 0
      - time: 1.26666617
        value: {x: 0, y: 0, z: .317201078, w: .948358297}
        inSlope: {x: 0, y: 0, z: -.0854409561, w: .0285673421}
        outSlope: {x: 0, y: 0, z: -.0854409561, w: .0285673421}
        tangentMode: 0
      - time: 1.28333282
        value: {x: 0, y: 0, z: .315673143, w: .948867977}
        inSlope: {x: 0, y: 0, z: -.0978595912, w: .0325441658}
        outSlope: {x: 0, y: 0, z: -.0978595912, w: .0325441658}
        tangentMode: 0
      - time: 1.29999948
        value: {x: 0, y: 0, z: .313939095, w: .949443102}
        inSlope: {x: 0, y: 0, z: -.110170051, w: .036415495}
        outSlope: {x: 0, y: 0, z: -.110170051, w: .036415495}
        tangentMode: 0
      - time: 1.31666613
        value: {x: 0, y: 0, z: .312000811, w: .950081825}
        inSlope: {x: 0, y: 0, z: -.122374117, w: .0401723757}
        outSlope: {x: 0, y: 0, z: -.122374117, w: .0401723757}
        tangentMode: 0
      - time: 1.33333278
        value: {x: 0, y: 0, z: .309859961, w: .95078218}
        inSlope: {x: 0, y: 0, z: -.134476244, w: .0438112468}
        outSlope: {x: 0, y: 0, z: -.134476244, w: .0438112468}
        tangentMode: 0
      - time: 1.34999943
        value: {x: 0, y: 0, z: .307518274, w: .951542199}
        inSlope: {x: 0, y: 0, z: -.146473795, w: .0473213643}
        outSlope: {x: 0, y: 0, z: -.146473795, w: .0473213643}
        tangentMode: 0
      - time: 1.36666608
        value: {x: 0, y: 0, z: .304977506, w: .952359557}
        inSlope: {x: 0, y: 0, z: -.158372074, w: .0506973751}
        outSlope: {x: 0, y: 0, z: -.158372074, w: .0506973751}
        tangentMode: 0
      - time: 1.38333273
        value: {x: 0, y: 0, z: .302239209, w: .95323211}
        inSlope: {x: 0, y: 0, z: -.170172915, w: .0539374873}
        outSlope: {x: 0, y: 0, z: -.170172915, w: .0539374873}
        tangentMode: 0
      - time: 1.39999938
        value: {x: 0, y: 0, z: .299305081, w: .954157472}
        inSlope: {x: 0, y: 0, z: -.181874514, w: .0570309684}
        outSlope: {x: 0, y: 0, z: -.181874514, w: .0570309684}
        tangentMode: 0
      - time: 1.41666603
        value: {x: 0, y: 0, z: .296176732, w: .95513314}
        inSlope: {x: 0, y: 0, z: -.19347775, w: .0599742532}
        outSlope: {x: 0, y: 0, z: -.19347775, w: .0599742532}
        tangentMode: 0
      - time: 1.43333268
        value: {x: 0, y: 0, z: .292855829, w: .956156611}
        inSlope: {x: 0, y: 0, z: -.204985335, w: .0627619624}
        outSlope: {x: 0, y: 0, z: -.204985335, w: .0627619624}
        tangentMode: 0
      - time: 1.44999933
        value: {x: 0, y: 0, z: .289343894, w: .957225204}
        inSlope: {x: 0, y: 0, z: -.216399044, w: .0653887391}
        outSlope: {x: 0, y: 0, z: -.216399044, w: .0653887391}
        tangentMode: 0
      - time: 1.46666598
        value: {x: 0, y: 0, z: .285642534, w: .958336234}
        inSlope: {x: 0, y: 0, z: -.227717072, w: .0678510144}
        outSlope: {x: 0, y: 0, z: -.227717072, w: .0678510144}
        tangentMode: 0
      - time: 1.48333263
        value: {x: 0, y: 0, z: .281753331, w: .959486902}
        inSlope: {x: 0, y: 0, z: -.238939464, w: .0701398328}
        outSlope: {x: 0, y: 0, z: -.238939464, w: .0701398328}
        tangentMode: 0
      - time: 1.49999928
        value: {x: 0, y: 0, z: .277677894, w: .960674226}
        inSlope: {x: 0, y: 0, z: -.29458642, w: .0848723277}
        outSlope: {x: 0, y: 0, z: -.29458642, w: .0848723277}
        tangentMode: 0
      - time: 1.51666594
        value: {x: 0, y: 0, z: .271933794, w: .962315977}
        inSlope: {x: 0, y: 0, z: -.432608545, w: .12153995}
        outSlope: {x: 0, y: 0, z: -.432608545, w: .12153995}
        tangentMode: 0
      - time: 1.53333259
        value: {x: 0, y: 0, z: .263257623, w: .964725554}
        inSlope: {x: 0, y: 0, z: -.598689318, w: .162513405}
        outSlope: {x: 0, y: 0, z: -.598689318, w: .162513405}
        tangentMode: 0
      - time: 1.54999924
        value: {x: 0, y: 0, z: .251977503, w: .967733085}
        inSlope: {x: 0, y: 0, z: -.745087504, w: .193087041}
        outSlope: {x: 0, y: 0, z: -.745087504, w: .193087041}
        tangentMode: 0
      - time: 1.56666589
        value: {x: 0, y: 0, z: .238421395, w: .971161783}
        inSlope: {x: 0, y: 0, z: -.871722817, w: .213108867}
        outSlope: {x: 0, y: 0, z: -.871722817, w: .213108867}
        tangentMode: 0
      - time: 1.58333254
        value: {x: 0, y: 0, z: .222920105, w: .974836707}
        inSlope: {x: 0, y: 0, z: -.978364825, w: .222909659}
        outSlope: {x: 0, y: 0, z: -.978364825, w: .222909659}
        tangentMode: 0
      - time: 1.59999919
        value: {x: 0, y: 0, z: .205809265, w: .978592098}
        inSlope: {x: 0, y: 0, z: -1.06468153, w: .223233312}
        outSlope: {x: 0, y: 0, z: -1.06468153, w: .223233312}
        tangentMode: 0
      - time: 1.61666584
        value: {x: 0, y: 0, z: .187430754, w: .982277811}
        inSlope: {x: 0, y: 0, z: -1.13028169, w: .215165228}
        outSlope: {x: 0, y: 0, z: -1.13028169, w: .215165228}
        tangentMode: 0
      - time: 1.63333249
        value: {x: 0, y: 0, z: .168133244, w: .985764265}
        inSlope: {x: 0, y: 0, z: -1.17476583, w: .200064361}
        outSlope: {x: 0, y: 0, z: -1.17476583, w: .200064361}
        tangentMode: 0
      - time: 1.64999914
        value: {x: 0, y: 0, z: .148271933, w: .988946617}
        inSlope: {x: 0, y: 0, z: -1.19776082, w: .179491818}
        outSlope: {x: 0, y: 0, z: -1.19776082, w: .179491818}
        tangentMode: 0
      - time: 1.66666579
        value: {x: 0, y: 0, z: .128207922, w: .99174732}
        inSlope: {x: 0, y: 0, z: -1.19895124, w: .155126601}
        outSlope: {x: 0, y: 0, z: -1.19895124, w: .155126601}
        tangentMode: 0
      - time: 1.68333244
        value: {x: 0, y: 0, z: .108306929, w: .994117498}
        inSlope: {x: 0, y: 0, z: -1.17810178, w: .128696084}
        outSlope: {x: 0, y: 0, z: -1.17810178, w: .128696084}
        tangentMode: 0
      - time: 1.69999909
        value: {x: 0, y: 0, z: .088937901, w: .996037185}
        inSlope: {x: 0, y: 0, z: -1.13506591, w: .101888277}
        outSlope: {x: 0, y: 0, z: -1.13506591, w: .101888277}
        tangentMode: 0
      - time: 1.71666574
        value: {x: 0, y: 0, z: .0704714358, w: .997513771}
        inSlope: {x: 0, y: 0, z: -1.06978691, w: .0762749463}
        outSlope: {x: 0, y: 0, z: -1.06978691, w: .0762749463}
        tangentMode: 0
      - time: 1.7333324
        value: {x: 0, y: 0, z: .0532783717, w: .998579681}
        inSlope: {x: 0, y: 0, z: -.982286692, w: .053227596}
        outSlope: {x: 0, y: 0, z: -.982286692, w: .053227596}
        tangentMode: 0
      - time: 1.74999905
        value: {x: 0, y: 0, z: .0377285779, w: .999288023}
        inSlope: {x: 0, y: 0, z: -.87264812, w: .0338316299}
        outSlope: {x: 0, y: 0, z: -.87264812, w: .0338316299}
        tangentMode: 0
      - time: 1.7666657
        value: {x: 0, y: 0, z: .0241901278, w: .999707401}
        inSlope: {x: 0, y: 0, z: -.740990162, w: .0188130327}
        outSlope: {x: 0, y: 0, z: -.740990162, w: .0188130327}
        tangentMode: 0
      - time: 1.78333235
        value: {x: 0, y: 0, z: .0130289299, w: .999915123}
        inSlope: {x: 0, y: 0, z: -.587441206, w: .00845969561}
        outSlope: {x: 0, y: 0, z: -.587441206, w: .00845969561}
        tangentMode: 0
      - time: 1.799999
        value: {x: 0, y: 0, z: .0046087727, w: .99998939}
        inSlope: {x: 0, y: 0, z: -.412114859, w: .0025391602}
        outSlope: {x: 0, y: 0, z: -.412114859, w: .0025391602}
        tangentMode: 0
      - time: 1.81666565
        value: {x: 0, y: 0, z: -.000708219246, w: .999999762}
        inSlope: {x: 0, y: 0, z: -.215086594, w: .000219947222}
        outSlope: {x: 0, y: 0, z: -.215086594, w: .000219947222}
        tangentMode: 0
      - time: 1.83333337
        value: {x: 0, y: 0, z: -.00256089284, w: .999996722}
        inSlope: {x: 0, y: 0, z: -.111153364, w: -.000182378644}
        outSlope: {x: 0, y: 0, z: -.111153364, w: -.000182378644}
        tangentMode: 0
      m_PreInfinity: 2
      m_PostInfinity: 2
    path: 
  m_CompressedRotationCurves: []
  m_PositionCurves:
  - curve:
      serializedVersion: 2
      m_Curve:
      - time: 0
        value: {x: 0, y: 0, z: -60}
        inSlope: {x: 0, y: 0, z: 0}
        outSlope: {x: 0, y: 0, z: 0}
        tangentMode: 445775908
      - time: .416666657
        value: {x: 0, y: 0, z: -60}
        inSlope: {x: 0, y: 0, z: 0}
        outSlope: {x: 0, y: 0, z: 0}
        tangentMode: 445775908
      - time: .833333313
        value: {x: 178.233459, y: 44.5593262, z: -60}
        inSlope: {x: 107.049644, y: 170.282806, z: 0}
        outSlope: {x: 107.049644, y: 170.282806, z: 0}
        tangentMode: 445775908
      - time: 1.16666663
        value: {x: 197.550537, y: 57.6529236, z: -60}
        inSlope: {x: 4.4263916, y: 0, z: 0}
        outSlope: {x: 4.4263916, y: 0, z: 0}
        tangentMode: 0
      - time: 1.5
        value: {x: 178.233459, y: 44.5593262, z: -60}
        inSlope: {x: -124.75515, y: -138.363449, z: 0}
        outSlope: {x: -124.75515, y: -138.363449, z: 0}
        tangentMode: 445775908
      - time: 1.83333337
        value: {x: 0, y: 0, z: -60}
        inSlope: {x: 0, y: 0, z: 0}
        outSlope: {x: 0, y: 0, z: 0}
        tangentMode: 445775908
      m_PreInfinity: 2
      m_PostInfinity: 2
    path: 
  m_ScaleCurves:
  - curve:
      serializedVersion: 2
      m_Curve:
      - time: 0
        value: {x: 1, y: 0, z: 1}
        inSlope: {x: 0, y: 0, z: 0}
        outSlope: {x: 0, y: 0, z: 0}
        tangentMode: 445775908
      - time: .416666657
        value: {x: 1, y: 0, z: 1}
        inSlope: {x: 0, y: 0, z: 0}
        outSlope: {x: 0, y: 0, z: 0}
        tangentMode: 445775908
      - time: .833333313
        value: {x: 1.26802909, y: .863667667, z: 1}
        inSlope: {x: 0, y: .243156597, z: 0}
        outSlope: {x: 0, y: .243156597, z: 0}
        tangentMode: 445775908
      - time: 1.5
        value: {x: 1.26802909, y: .863667667, z: 1}
        inSlope: {x: 0, y: -.319577247, z: 0}
        outSlope: {x: 0, y: -.319577247, z: 0}
        tangentMode: 445775908
      - time: 1.83333337
        value: {x: 1, y: 0, z: 1}
        inSlope: {x: 0, y: 0, z: 0}
        outSlope: {x: 0, y: 0, z: 0}
        tangentMode: 445775908
      m_PreInfinity: 2
      m_PostInfinity: 2
    path: JAZIK_CONTROL/JAZIK
  - curve:
      serializedVersion: 2
      m_Curve:
      - time: 0
        value: {x: 1, y: 1, z: 1}
        inSlope: {x: 0, y: 0, z: 0}
        outSlope: {x: 0, y: 0, z: 0}
        tangentMode: 445775908
      - time: .0833333358
        value: {x: 1, y: .150000006, z: 1}
        inSlope: {x: 0, y: 0, z: 0}
        outSlope: {x: 0, y: 0, z: 0}
        tangentMode: 445775908
      - time: .200000003
        value: {x: 1, y: .150000006, z: 1}
        inSlope: {x: 0, y: 0, z: 0}
        outSlope: {x: 0, y: 0, z: 0}
        tangentMode: 445775908
      - time: .316666663
        value: {x: 1, y: 1, z: 1}
        inSlope: {x: 0, y: 0, z: 0}
        outSlope: {x: 0, y: 0, z: 0}
        tangentMode: 445775908
      - time: 1.83333337
        value: {x: 1, y: 1, z: 1}
        inSlope: {x: 0, y: 0, z: 0}
        outSlope: {x: 0, y: 0, z: 0}
        tangentMode: 445775908
      m_PreInfinity: 2
      m_PostInfinity: 2
    path: GLAZ_R_CONTROL/GLAZ_R
  - curve:
      serializedVersion: 2
      m_Curve:
      - time: 0
        value: {x: 1, y: 1, z: 1}
        inSlope: {x: 0, y: 0, z: 0}
        outSlope: {x: 0, y: 0, z: 0}
        tangentMode: 445775908
      - time: .0833333358
        value: {x: 1, y: .150000006, z: 1}
        inSlope: {x: 0, y: 0, z: 0}
        outSlope: {x: 0, y: 0, z: 0}
        tangentMode: 445775908
      - time: .200000003
        value: {x: 1, y: .150000006, z: 1}
        inSlope: {x: 0, y: 0, z: 0}
        outSlope: {x: 0, y: 0, z: 0}
        tangentMode: 445775908
      - time: .316666663
        value: {x: 1, y: 1, z: 1}
        inSlope: {x: 0, y: 0, z: 0}
        outSlope: {x: 0, y: 0, z: 0}
        tangentMode: 445775908
      - time: 1.83333337
        value: {x: 1, y: 1, z: 1}
        inSlope: {x: 0, y: 0, z: 0}
        outSlope: {x: 0, y: 0, z: 0}
        tangentMode: 445775908
      m_PreInfinity: 2
      m_PostInfinity: 2
    path: GLAZ_L_CONTROL/GLAZ_L
  m_FloatCurves:
  - curve:
      serializedVersion: 2
      m_Curve:
      - time: 0
        value: 1
        inSlope: Infinity
        outSlope: Infinity
        tangentMode: 31
      - time: 1.83333337
        value: 1
        inSlope: Infinity
        outSlope: Infinity
        tangentMode: 31
      m_PreInfinity: 2
      m_PostInfinity: 2
    attribute: m_IsActive
    path: ROT_CONTROL/NOSIK
    classID: 1
    script: {fileID: 0}
  m_PPtrCurves: []
  m_SampleRate: 60
  m_WrapMode: 0
  m_Bounds:
    m_Center: {x: 0, y: 0, z: 0}
    m_Extent: {x: 0, y: 0, z: 0}
  m_ClipBindingConstant:
    genericBindings: []
    pptrCurveMapping: []
  m_AnimationClipSettings:
    serializedVersion: 2
    m_StartTime: 0
    m_StopTime: 1.83333337
    m_OrientationOffsetY: 0
    m_Level: 0
    m_CycleOffset: 0
    m_LoopTime: 0
    m_LoopBlend: 0
    m_LoopBlendOrientation: 0
    m_LoopBlendPositionY: 0
    m_LoopBlendPositionXZ: 0
    m_KeepOriginalOrientation: 0
    m_KeepOriginalPositionY: 1
    m_KeepOriginalPositionXZ: 0
    m_HeightFromFeet: 0
    m_Mirror: 0
  m_EditorCurves:
  - curve:
      serializedVersion: 2
      m_Curve:
      - time: 0
        value: 1
        inSlope: 0
        outSlope: 0
        tangentMode: 10
      m_PreInfinity: 2
      m_PostInfinity: 2
    attribute: m_LocalScale.z
    path: JAZIK_CONTROL/JAZIK
    classID: 4
    script: {fileID: 0}
  - curve:
      serializedVersion: 2
      m_Curve:
      - time: 0
        value: 0
        inSlope: 0
        outSlope: 0
        tangentMode: 0
      - time: .416666657
        value: 0
        inSlope: 0
        outSlope: 0
        tangentMode: 0
      - time: .833333313
        value: .863667667
        inSlope: .243156597
        outSlope: .243156597
        tangentMode: 0
      - time: 1.5
        value: .863667667
        inSlope: -.319577247
        outSlope: -.319577247
        tangentMode: 0
      - time: 1.83333337
        value: 0
        inSlope: 0
        outSlope: 0
        tangentMode: 0
      m_PreInfinity: 2
      m_PostInfinity: 2
    attribute: m_LocalScale.y
    path: JAZIK_CONTROL/JAZIK
    classID: 4
    script: {fileID: 0}
  - curve:
      serializedVersion: 2
      m_Curve:
      - time: 0
        value: 1
        inSlope: 0
        outSlope: 0
        tangentMode: 0
      - time: .416666657
        value: 1
        inSlope: 0
        outSlope: 0
        tangentMode: 0
      - time: .833333313
        value: 1.26802909
        inSlope: 0
        outSlope: 0
        tangentMode: 0
      - time: 1.5
        value: 1.26802909
        inSlope: 0
        outSlope: 0
        tangentMode: 0
      - time: 1.83333337
        value: 1
        inSlope: 0
        outSlope: 0
        tangentMode: 0
      m_PreInfinity: 2
      m_PostInfinity: 2
    attribute: m_LocalScale.x
    path: JAZIK_CONTROL/JAZIK
    classID: 4
    script: {fileID: 0}
  - curve:
      serializedVersion: 2
      m_Curve:
      - time: 0
        value: -60
        inSlope: 0
        outSlope: 0
        tangentMode: 10
      m_PreInfinity: 2
      m_PostInfinity: 2
    attribute: m_LocalPosition.z
    path: 
    classID: 4
    script: {fileID: 0}
  - curve:
      serializedVersion: 2
      m_Curve:
      - time: 0
        value: 0
        inSlope: 0
        outSlope: 0
        tangentMode: 0
      - time: .416666657
        value: 0
        inSlope: 0
        outSlope: 0
        tangentMode: 0
      - time: .833333313
        value: 178.233459
        inSlope: 107.049644
        outSlope: 107.049644
        tangentMode: 0
      - time: 1.5
        value: 178.233459
        inSlope: -124.75515
        outSlope: -124.75515
        tangentMode: 0
      - time: 1.83333337
        value: 0
        inSlope: 0
        outSlope: 0
        tangentMode: 0
      m_PreInfinity: 2
      m_PostInfinity: 2
    attribute: m_LocalPosition.x
    path: 
    classID: 4
    script: {fileID: 0}
  - curve:
      serializedVersion: 2
      m_Curve:
      - time: 0
        value: 0
        inSlope: 0
        outSlope: 0
        tangentMode: 0
      - time: .416666657
        value: 0
        inSlope: 0
        outSlope: 0
        tangentMode: 0
      - time: .833333313
        value: 44.5593262
        inSlope: 170.282806
        outSlope: 170.282806
        tangentMode: 0
      - time: 1.16666663
        value: 57.6529236
        inSlope: 0
        outSlope: 0
        tangentMode: 0
      - time: 1.5
        value: 44.5593262
        inSlope: -138.363449
        outSlope: -138.363449
        tangentMode: 0
      - time: 1.83333337
        value: 0
        inSlope: 0
        outSlope: 0
        tangentMode: 0
      m_PreInfinity: 2
      m_PostInfinity: 2
    attribute: m_LocalPosition.y
    path: 
    classID: 4
    script: {fileID: 0}
  - curve:
      serializedVersion: 2
      m_Curve:
      - time: 0
        value: 1
        inSlope: 0
        outSlope: 0
        tangentMode: 0
      m_PreInfinity: 2
      m_PostInfinity: 2
    attribute: m_LocalScale.z
    path: GLAZ_R_CONTROL/GLAZ_R
    classID: 4
    script: {fileID: 0}
  - curve:
      serializedVersion: 2
      m_Curve:
      - time: 0
        value: 1
        inSlope: 0
        outSlope: 0
        tangentMode: 0
      - time: .0833333358
        value: .150000006
        inSlope: 0
        outSlope: 0
        tangentMode: 0
      - time: .200000003
        value: .150000006
        inSlope: 0
        outSlope: 0
        tangentMode: 0
      - time: .316666663
        value: 1
        inSlope: 0
        outSlope: 0
        tangentMode: 0
      - time: 1.83333337
        value: 1
        inSlope: 0
        outSlope: 0
        tangentMode: 0
      m_PreInfinity: 2
      m_PostInfinity: 2
    attribute: m_LocalScale.y
    path: GLAZ_R_CONTROL/GLAZ_R
    classID: 4
    script: {fileID: 0}
  - curve:
      serializedVersion: 2
      m_Curve:
      - time: 0
        value: 1
        inSlope: 0
        outSlope: 0
        tangentMode: 0
      m_PreInfinity: 2
      m_PostInfinity: 2
    attribute: m_LocalScale.x
    path: GLAZ_R_CONTROL/GLAZ_R
    classID: 4
    script: {fileID: 0}
  - curve:
      serializedVersion: 2
      m_Curve:
      - time: 0
        value: 1
        inSlope: 0
        outSlope: 0
        tangentMode: 10
      m_PreInfinity: 2
      m_PostInfinity: 2
    attribute: m_LocalScale.z
    path: GLAZ_L_CONTROL/GLAZ_L
    classID: 4
    script: {fileID: 0}
  - curve:
      serializedVersion: 2
      m_Curve:
      - time: 0
        value: 1
        inSlope: 0
        outSlope: 0
        tangentMode: 10
      m_PreInfinity: 2
      m_PostInfinity: 2
    attribute: m_LocalScale.x
    path: GLAZ_L_CONTROL/GLAZ_L
    classID: 4
    script: {fileID: 0}
  - curve:
      serializedVersion: 2
      m_Curve:
      - time: 0
        value: 1
        inSlope: 0
        outSlope: 0
        tangentMode: 0
      - time: .0833333358
        value: .150000006
        inSlope: 0
        outSlope: 0
        tangentMode: 0
      - time: .200000003
        value: .150000006
        inSlope: 0
        outSlope: 0
        tangentMode: 0
      - time: .316666663
        value: 1
        inSlope: 0
        outSlope: 0
        tangentMode: 0
      - time: 1.83333337
        value: 1
        inSlope: 0
        outSlope: 0
        tangentMode: 0
      m_PreInfinity: 2
      m_PostInfinity: 2
    attribute: m_LocalScale.y
    path: GLAZ_L_CONTROL/GLAZ_L
    classID: 4
    script: {fileID: 0}
  - curve:
      serializedVersion: 2
      m_Curve:
      - time: 0
        value: 0
        inSlope: 0
        outSlope: 0
        tangentMode: 0
      - time: .0166666675
        value: 0
        inSlope: 0
        outSlope: 0
        tangentMode: 0
      - time: .0333333351
        value: 0
        inSlope: 0
        outSlope: 0
        tangentMode: 0
      - time: .0500000045
        value: 0
        inSlope: 0
        outSlope: 0
        tangentMode: 0
      - time: .0666666701
        value: 0
        inSlope: 0
        outSlope: 0
        tangentMode: 0
      - time: .0833333358
        value: 0
        inSlope: 0
        outSlope: 0
        tangentMode: 0
      - time: .100000001
        value: 0
        inSlope: 0
        outSlope: 0
        tangentMode: 0
      - time: .116666667
        value: 0
        inSlope: 0
        outSlope: 0
        tangentMode: 0
      - time: .13333334
        value: 0
        inSlope: 0
        outSlope: 0
        tangentMode: 0
      - time: .150000006
        value: 0
        inSlope: 0
        outSlope: 0
        tangentMode: 0
      - time: .166666672
        value: 0
        inSlope: 0
        outSlope: 0
        tangentMode: 0
      - time: .183333337
        value: 0
        inSlope: 0
        outSlope: 0
        tangentMode: 0
      - time: .200000003
        value: 0
        inSlope: 0
        outSlope: 0
        tangentMode: 0
      - time: .216666669
        value: 0
        inSlope: 0
        outSlope: 0
        tangentMode: 0
      - time: .233333334
        value: 0
        inSlope: 0
        outSlope: 0
        tangentMode: 0
      - time: .25
        value: 0
        inSlope: 0
        outSlope: 0
        tangentMode: 0
      - time: .266666681
        value: 0
        inSlope: 0
        outSlope: 0
        tangentMode: 0
      - time: .283333361
        value: 0
        inSlope: 0
        outSlope: 0
        tangentMode: 0
      - time: .300000042
        value: 0
        inSlope: 0
        outSlope: 0
        tangentMode: 0
      - time: .316666722
        value: 0
        inSlope: 0
        outSlope: 0
        tangentMode: 0
      - time: .333333403
        value: 0
        inSlope: 0
        outSlope: 0
        tangentMode: 0
      - time: .350000083
        value: 0
        inSlope: 0
        outSlope: 0
        tangentMode: 0
      - time: .366666764
        value: 0
        inSlope: 0
        outSlope: 0
        tangentMode: 0
      - time: .383333445
        value: 0
        inSlope: 0
        outSlope: 0
        tangentMode: 0
      - time: .400000125
        value: 0
        inSlope: 0
        outSlope: 0
        tangentMode: 0
      - time: .416666806
        value: 0
        inSlope: 0
        outSlope: 0
        tangentMode: 0
      - time: .433333486
        value: 0
        inSlope: 0
        outSlope: 0
        tangentMode: 0
      - time: .450000167
        value: 0
        inSlope: 0
        outSlope: 0
        tangentMode: 0
      - time: .466666847
        value: 0
        inSlope: 0
        outSlope: 0
        tangentMode: 0
      - time: .483333528
        value: 0
        inSlope: 0
        outSlope: 0
        tangentMode: 0
      - time: .500000179
        value: 0
        inSlope: 0
        outSlope: 0
        tangentMode: 0
      - time: .51666683
        value: 0
        inSlope: 0
        outSlope: 0
        tangentMode: 0
      - time: .53333348
        value: 0
        inSlope: 0
        outSlope: 0
        tangentMode: 0
      - time: .550000131
        value: 0
        inSlope: 0
        outSlope: 0
        tangentMode: 0
      - time: .566666782
        value: 0
        inSlope: 0
        outSlope: 0
        tangentMode: 0
      - time: .583333433
        value: 0
        inSlope: 0
        outSlope: 0
        tangentMode: 0
      - time: .600000083
        value: 0
        inSlope: 0
        outSlope: 0
        tangentMode: 0
      - time: .616666734
        value: 0
        inSlope: 0
        outSlope: 0
        tangentMode: 0
      - time: .633333385
        value: 0
        inSlope: 0
        outSlope: 0
        tangentMode: 0
      - time: .650000036
        value: 0
        inSlope: 0
        outSlope: 0
        tangentMode: 0
      - time: .666666687
        value: 0
        inSlope: 0
        outSlope: 0
        tangentMode: 0
      - time: .683333337
        value: 0
        inSlope: 0
        outSlope: 0
        tangentMode: 0
      - time: .699999988
        value: 0
        inSlope: 0
        outSlope: 0
        tangentMode: 0
      - time: .716666639
        value: 0
        inSlope: 0
        outSlope: 0
        tangentMode: 0
      - time: .73333329
        value: 0
        inSlope: 0
        outSlope: 0
        tangentMode: 0
      - time: .74999994
        value: 0
        inSlope: 0
        outSlope: 0
        tangentMode: 0
      - time: .766666591
        value: 0
        inSlope: 0
        outSlope: 0
        tangentMode: 0
      - time: .783333242
        value: 0
        inSlope: 0
        outSlope: 0
        tangentMode: 0
      - time: .799999893
        value: 0
        inSlope: 0
        outSlope: 0
        tangentMode: 0
      - time: .816666543
        value: 0
        inSlope: 0
        outSlope: 0
        tangentMode: 0
      - time: .833333194
        value: 0
        inSlope: 0
        outSlope: 0
        tangentMode: 0
      - time: .849999845
        value: 0
        inSlope: 0
        outSlope: 0
        tangentMode: 0
      - time: .866666496
        value: 0
        inSlope: 0
        outSlope: 0
        tangentMode: 0
      - time: .883333147
        value: 0
        inSlope: 0
        outSlope: 0
        tangentMode: 0
      - time: .899999797
        value: 0
        inSlope: 0
        outSlope: 0
        tangentMode: 0
      - time: .916666448
        value: 0
        inSlope: 0
        outSlope: 0
        tangentMode: 0
      - time: .933333099
        value: 0
        inSlope: 0
        outSlope: 0
        tangentMode: 0
      - time: .94999975
        value: 0
        inSlope: 0
        outSlope: 0
        tangentMode: 0
      - time: .9666664
        value: 0
        inSlope: 0
        outSlope: 0
        tangentMode: 0
      - time: .983333051
        value: 0
        inSlope: 0
        outSlope: 0
        tangentMode: 0
      - time: .999999702
        value: 0
        inSlope: 0
        outSlope: 0
        tangentMode: 0
      - time: 1.01666641
        value: 0
        inSlope: 0
        outSlope: 0
        tangentMode: 0
      - time: 1.03333306
        value: 0
        inSlope: 0
        outSlope: 0
        tangentMode: 0
      - time: 1.04999971
        value: 0
        inSlope: 0
        outSlope: 0
        tangentMode: 0
      - time: 1.06666636
        value: 0
        inSlope: 0
        outSlope: 0
        tangentMode: 0
      - time: 1.08333302
        value: 0
        inSlope: 0
        outSlope: 0
        tangentMode: 0
      - time: 1.09999967
        value: 0
        inSlope: 0
        outSlope: 0
        tangentMode: 0
      - time: 1.11666632
        value: 0
        inSlope: 0
        outSlope: 0
        tangentMode: 0
      - time: 1.13333297
        value: 0
        inSlope: 0
        outSlope: 0
        tangentMode: 0
      - time: 1.14999962
        value: 0
        inSlope: 0
        outSlope: 0
        tangentMode: 0
      - time: 1.16666627
        value: 0
        inSlope: 0
        outSlope: 0
        tangentMode: 0
      - time: 1.18333292
        value: 0
        inSlope: 0
        outSlope: 0
        tangentMode: 0
      - time: 1.19999957
        value: 0
        inSlope: 0
        outSlope: 0
        tangentMode: 0
      - time: 1.21666622
        value: 0
        inSlope: 0
        outSlope: 0
        tangentMode: 0
      - time: 1.23333287
        value: 0
        inSlope: 0
        outSlope: 0
        tangentMode: 0
      - time: 1.24999952
        value: 0
        inSlope: 0
        outSlope: 0
        tangentMode: 0
      - time: 1.26666617
        value: 0
        inSlope: 0
        outSlope: 0
        tangentMode: 0
      - time: 1.28333282
        value: 0
        inSlope: 0
        outSlope: 0
        tangentMode: 0
      - time: 1.29999948
        value: 0
        inSlope: 0
        outSlope: 0
        tangentMode: 0
      - time: 1.31666613
        value: 0
        inSlope: 0
        outSlope: 0
        tangentMode: 0
      - time: 1.33333278
        value: 0
        inSlope: 0
        outSlope: 0
        tangentMode: 0
      - time: 1.34999943
        value: 0
        inSlope: 0
        outSlope: 0
        tangentMode: 0
      - time: 1.36666608
        value: 0
        inSlope: 0
        outSlope: 0
        tangentMode: 0
      - time: 1.38333273
        value: 0
        inSlope: 0
        outSlope: 0
        tangentMode: 0
      - time: 1.39999938
        value: 0
        inSlope: 0
        outSlope: 0
        tangentMode: 0
      - time: 1.41666603
        value: 0
        inSlope: 0
        outSlope: 0
        tangentMode: 0
      - time: 1.43333268
        value: 0
        inSlope: 0
        outSlope: 0
        tangentMode: 0
      - time: 1.44999933
        value: 0
        inSlope: 0
        outSlope: 0
        tangentMode: 0
      - time: 1.46666598
        value: 0
        inSlope: 0
        outSlope: 0
        tangentMode: 0
      - time: 1.48333263
        value: 0
        inSlope: 0
        outSlope: 0
        tangentMode: 0
      - time: 1.49999928
        value: 0
        inSlope: 0
        outSlope: 0
        tangentMode: 0
      - time: 1.51666594
        value: 0
        inSlope: 0
        outSlope: 0
        tangentMode: 0
      - time: 1.53333259
        value: 0
        inSlope: 0
        outSlope: 0
        tangentMode: 0
      - time: 1.54999924
        value: 0
        inSlope: 0
        outSlope: 0
        tangentMode: 0
      - time: 1.56666589
        value: 0
        inSlope: 0
        outSlope: 0
        tangentMode: 0
      - time: 1.58333254
        value: 0
        inSlope: 0
        outSlope: 0
        tangentMode: 0
      - time: 1.59999919
        value: 0
        inSlope: 0
        outSlope: 0
        tangentMode: 0
      - time: 1.61666584
        value: 0
        inSlope: 0
        outSlope: 0
        tangentMode: 0
      - time: 1.63333249
        value: 0
        inSlope: 0
        outSlope: 0
        tangentMode: 0
      - time: 1.64999914
        value: 0
        inSlope: 0
        outSlope: 0
        tangentMode: 0
      - time: 1.66666579
        value: 0
        inSlope: 0
        outSlope: 0
        tangentMode: 0
      - time: 1.68333244
        value: 0
        inSlope: 0
        outSlope: 0
        tangentMode: 0
      - time: 1.69999909
        value: 0
        inSlope: 0
        outSlope: 0
        tangentMode: 0
      - time: 1.71666574
        value: 0
        inSlope: 0
        outSlope: 0
        tangentMode: 0
      - time: 1.7333324
        value: 0
        inSlope: 0
        outSlope: 0
        tangentMode: 0
      - time: 1.74999905
        value: 0
        inSlope: 0
        outSlope: 0
        tangentMode: 0
      - time: 1.7666657
        value: 0
        inSlope: 0
        outSlope: 0
        tangentMode: 0
      - time: 1.78333235
        value: 0
        inSlope: 0
        outSlope: 0
        tangentMode: 0
      - time: 1.799999
        value: 0
        inSlope: 0
        outSlope: 0
        tangentMode: 0
      - time: 1.81666565
        value: 0
        inSlope: 0
        outSlope: 0
        tangentMode: 0
      - time: 1.83333337
        value: 0
        inSlope: 0
        outSlope: 0
        tangentMode: 0
      m_PreInfinity: 2
      m_PostInfinity: 2
    attribute: m_LocalRotation.x
    path: 
    classID: 4
    script: {fileID: 0}
  - curve:
      serializedVersion: 2
      m_Curve:
      - time: 0
        value: 0
        inSlope: 0
        outSlope: 0
        tangentMode: 0
      - time: .0166666675
        value: 0
        inSlope: 0
        outSlope: 0
        tangentMode: 0
      - time: .0333333351
        value: 0
        inSlope: 0
        outSlope: 0
        tangentMode: 0
      - time: .0500000045
        value: 0
        inSlope: 0
        outSlope: 0
        tangentMode: 0
      - time: .0666666701
        value: 0
        inSlope: 0
        outSlope: 0
        tangentMode: 0
      - time: .0833333358
        value: 0
        inSlope: 0
        outSlope: 0
        tangentMode: 0
      - time: .100000001
        value: 0
        inSlope: 0
        outSlope: 0
        tangentMode: 0
      - time: .116666667
        value: 0
        inSlope: 0
        outSlope: 0
        tangentMode: 0
      - time: .13333334
        value: 0
        inSlope: 0
        outSlope: 0
        tangentMode: 0
      - time: .150000006
        value: 0
        inSlope: 0
        outSlope: 0
        tangentMode: 0
      - time: .166666672
        value: 0
        inSlope: 0
        outSlope: 0
        tangentMode: 0
      - time: .183333337
        value: 0
        inSlope: 0
        outSlope: 0
        tangentMode: 0
      - time: .200000003
        value: 0
        inSlope: 0
        outSlope: 0
        tangentMode: 0
      - time: .216666669
        value: 0
        inSlope: 0
        outSlope: 0
        tangentMode: 0
      - time: .233333334
        value: 0
        inSlope: 0
        outSlope: 0
        tangentMode: 0
      - time: .25
        value: 0
        inSlope: 0
        outSlope: 0
        tangentMode: 0
      - time: .266666681
        value: 0
        inSlope: 0
        outSlope: 0
        tangentMode: 0
      - time: .283333361
        value: 0
        inSlope: 0
        outSlope: 0
        tangentMode: 0
      - time: .300000042
        value: 0
        inSlope: 0
        outSlope: 0
        tangentMode: 0
      - time: .316666722
        value: 0
        inSlope: 0
        outSlope: 0
        tangentMode: 0
      - time: .333333403
        value: 0
        inSlope: 0
        outSlope: 0
        tangentMode: 0
      - time: .350000083
        value: 0
        inSlope: 0
        outSlope: 0
        tangentMode: 0
      - time: .366666764
        value: 0
        inSlope: 0
        outSlope: 0
        tangentMode: 0
      - time: .383333445
        value: 0
        inSlope: 0
        outSlope: 0
        tangentMode: 0
      - time: .400000125
        value: 0
        inSlope: 0
        outSlope: 0
        tangentMode: 0
      - time: .416666806
        value: 0
        inSlope: 0
        outSlope: 0
        tangentMode: 0
      - time: .433333486
        value: 0
        inSlope: 0
        outSlope: 0
        tangentMode: 0
      - time: .450000167
        value: 0
        inSlope: 0
        outSlope: 0
        tangentMode: 0
      - time: .466666847
        value: 0
        inSlope: 0
        outSlope: 0
        tangentMode: 0
      - time: .483333528
        value: 0
        inSlope: 0
        outSlope: 0
        tangentMode: 0
      - time: .500000179
        value: 0
        inSlope: 0
        outSlope: 0
        tangentMode: 0
      - time: .51666683
        value: 0
        inSlope: 0
        outSlope: 0
        tangentMode: 0
      - time: .53333348
        value: 0
        inSlope: 0
        outSlope: 0
        tangentMode: 0
      - time: .550000131
        value: 0
        inSlope: 0
        outSlope: 0
        tangentMode: 0
      - time: .566666782
        value: 0
        inSlope: 0
        outSlope: 0
        tangentMode: 0
      - time: .583333433
        value: 0
        inSlope: 0
        outSlope: 0
        tangentMode: 0
      - time: .600000083
        value: 0
        inSlope: 0
        outSlope: 0
        tangentMode: 0
      - time: .616666734
        value: 0
        inSlope: 0
        outSlope: 0
        tangentMode: 0
      - time: .633333385
        value: 0
        inSlope: 0
        outSlope: 0
        tangentMode: 0
      - time: .650000036
        value: 0
        inSlope: 0
        outSlope: 0
        tangentMode: 0
      - time: .666666687
        value: 0
        inSlope: 0
        outSlope: 0
        tangentMode: 0
      - time: .683333337
        value: 0
        inSlope: 0
        outSlope: 0
        tangentMode: 0
      - time: .699999988
        value: 0
        inSlope: 0
        outSlope: 0
        tangentMode: 0
      - time: .716666639
        value: 0
        inSlope: 0
        outSlope: 0
        tangentMode: 0
      - time: .73333329
        value: 0
        inSlope: 0
        outSlope: 0
        tangentMode: 0
      - time: .74999994
        value: 0
        inSlope: 0
        outSlope: 0
        tangentMode: 0
      - time: .766666591
        value: 0
        inSlope: 0
        outSlope: 0
        tangentMode: 0
      - time: .783333242
        value: 0
        inSlope: 0
        outSlope: 0
        tangentMode: 0
      - time: .799999893
        value: 0
        inSlope: 0
        outSlope: 0
        tangentMode: 0
      - time: .816666543
        value: 0
        inSlope: 0
        outSlope: 0
        tangentMode: 0
      - time: .833333194
        value: 0
        inSlope: 0
        outSlope: 0
        tangentMode: 0
      - time: .849999845
        value: 0
        inSlope: 0
        outSlope: 0
        tangentMode: 0
      - time: .866666496
        value: 0
        inSlope: 0
        outSlope: 0
        tangentMode: 0
      - time: .883333147
        value: 0
        inSlope: 0
        outSlope: 0
        tangentMode: 0
      - time: .899999797
        value: 0
        inSlope: 0
        outSlope: 0
        tangentMode: 0
      - time: .916666448
        value: 0
        inSlope: 0
        outSlope: 0
        tangentMode: 0
      - time: .933333099
        value: 0
        inSlope: 0
        outSlope: 0
        tangentMode: 0
      - time: .94999975
        value: 0
        inSlope: 0
        outSlope: 0
        tangentMode: 0
      - time: .9666664
        value: 0
        inSlope: 0
        outSlope: 0
        tangentMode: 0
      - time: .983333051
        value: 0
        inSlope: 0
        outSlope: 0
        tangentMode: 0
      - time: .999999702
        value: 0
        inSlope: 0
        outSlope: 0
        tangentMode: 0
      - time: 1.01666641
        value: 0
        inSlope: 0
        outSlope: 0
        tangentMode: 0
      - time: 1.03333306
        value: 0
        inSlope: 0
        outSlope: 0
        tangentMode: 0
      - time: 1.04999971
        value: 0
        inSlope: 0
        outSlope: 0
        tangentMode: 0
      - time: 1.06666636
        value: 0
        inSlope: 0
        outSlope: 0
        tangentMode: 0
      - time: 1.08333302
        value: 0
        inSlope: 0
        outSlope: 0
        tangentMode: 0
      - time: 1.09999967
        value: 0
        inSlope: 0
        outSlope: 0
        tangentMode: 0
      - time: 1.11666632
        value: 0
        inSlope: 0
        outSlope: 0
        tangentMode: 0
      - time: 1.13333297
        value: 0
        inSlope: 0
        outSlope: 0
        tangentMode: 0
      - time: 1.14999962
        value: 0
        inSlope: 0
        outSlope: 0
        tangentMode: 0
      - time: 1.16666627
        value: 0
        inSlope: 0
        outSlope: 0
        tangentMode: 0
      - time: 1.18333292
        value: 0
        inSlope: 0
        outSlope: 0
        tangentMode: 0
      - time: 1.19999957
        value: 0
        inSlope: 0
        outSlope: 0
        tangentMode: 0
      - time: 1.21666622
        value: 0
        inSlope: 0
        outSlope: 0
        tangentMode: 0
      - time: 1.23333287
        value: 0
        inSlope: 0
        outSlope: 0
        tangentMode: 0
      - time: 1.24999952
        value: 0
        inSlope: 0
        outSlope: 0
        tangentMode: 0
      - time: 1.26666617
        value: 0
        inSlope: 0
        outSlope: 0
        tangentMode: 0
      - time: 1.28333282
        value: 0
        inSlope: 0
        outSlope: 0
        tangentMode: 0
      - time: 1.29999948
        value: 0
        inSlope: 0
        outSlope: 0
        tangentMode: 0
      - time: 1.31666613
        value: 0
        inSlope: 0
        outSlope: 0
        tangentMode: 0
      - time: 1.33333278
        value: 0
        inSlope: 0
        outSlope: 0
        tangentMode: 0
      - time: 1.34999943
        value: 0
        inSlope: 0
        outSlope: 0
        tangentMode: 0
      - time: 1.36666608
        value: 0
        inSlope: 0
        outSlope: 0
        tangentMode: 0
      - time: 1.38333273
        value: 0
        inSlope: 0
        outSlope: 0
        tangentMode: 0
      - time: 1.39999938
        value: 0
        inSlope: 0
        outSlope: 0
        tangentMode: 0
      - time: 1.41666603
        value: 0
        inSlope: 0
        outSlope: 0
        tangentMode: 0
      - time: 1.43333268
        value: 0
        inSlope: 0
        outSlope: 0
        tangentMode: 0
      - time: 1.44999933
        value: 0
        inSlope: 0
        outSlope: 0
        tangentMode: 0
      - time: 1.46666598
        value: 0
        inSlope: 0
        outSlope: 0
        tangentMode: 0
      - time: 1.48333263
        value: 0
        inSlope: 0
        outSlope: 0
        tangentMode: 0
      - time: 1.49999928
        value: 0
        inSlope: 0
        outSlope: 0
        tangentMode: 0
      - time: 1.51666594
        value: 0
        inSlope: 0
        outSlope: 0
        tangentMode: 0
      - time: 1.53333259
        value: 0
        inSlope: 0
        outSlope: 0
        tangentMode: 0
      - time: 1.54999924
        value: 0
        inSlope: 0
        outSlope: 0
        tangentMode: 0
      - time: 1.56666589
        value: 0
        inSlope: 0
        outSlope: 0
        tangentMode: 0
      - time: 1.58333254
        value: 0
        inSlope: 0
        outSlope: 0
        tangentMode: 0
      - time: 1.59999919
        value: 0
        inSlope: 0
        outSlope: 0
        tangentMode: 0
      - time: 1.61666584
        value: 0
        inSlope: 0
        outSlope: 0
        tangentMode: 0
      - time: 1.63333249
        value: 0
        inSlope: 0
        outSlope: 0
        tangentMode: 0
      - time: 1.64999914
        value: 0
        inSlope: 0
        outSlope: 0
        tangentMode: 0
      - time: 1.66666579
        value: 0
        inSlope: 0
        outSlope: 0
        tangentMode: 0
      - time: 1.68333244
        value: 0
        inSlope: 0
        outSlope: 0
        tangentMode: 0
      - time: 1.69999909
        value: 0
        inSlope: 0
        outSlope: 0
        tangentMode: 0
      - time: 1.71666574
        value: 0
        inSlope: 0
        outSlope: 0
        tangentMode: 0
      - time: 1.7333324
        value: 0
        inSlope: 0
        outSlope: 0
        tangentMode: 0
      - time: 1.74999905
        value: 0
        inSlope: 0
        outSlope: 0
        tangentMode: 0
      - time: 1.7666657
        value: 0
        inSlope: 0
        outSlope: 0
        tangentMode: 0
      - time: 1.78333235
        value: 0
        inSlope: 0
        outSlope: 0
        tangentMode: 0
      - time: 1.799999
        value: 0
        inSlope: 0
        outSlope: 0
        tangentMode: 0
      - time: 1.81666565
        value: 0
        inSlope: 0
        outSlope: 0
        tangentMode: 0
      - time: 1.83333337
        value: 0
        inSlope: 0
        outSlope: 0
        tangentMode: 0
      m_PreInfinity: 2
      m_PostInfinity: 2
    attribute: m_LocalRotation.y
    path: 
    classID: 4
    script: {fileID: 0}
  - curve:
      serializedVersion: 2
      m_Curve:
      - time: 0
        value: 0
        inSlope: -.0337299928
        outSlope: -.0337299928
        tangentMode: 0
      - time: .0166666675
        value: -.000562166562
        inSlope: -.0652873069
        outSlope: -.0652873069
        tangentMode: 0
      - time: .0333333351
        value: -.00217624358
        inSlope: -.125142589
        outSlope: -.125142589
        tangentMode: 0
      - time: .0500000045
        value: -.00473358668
        inSlope: -.17847836
        outSlope: -.17847836
        tangentMode: 0
      - time: .0666666701
        value: -.00812552217
        inSlope: -.225292355
        outSlope: -.225292355
        tangentMode: 0
      - time: .0833333358
        value: -.0122433314
        inSlope: -.26558125
        outSlope: -.26558125
        tangentMode: 0
      - time: .100000001
        value: -.0169782303
        inSlope: -.29934144
        outSlope: -.29934144
        tangentMode: 0
      - time: .116666667
        value: -.022221379
        inSlope: -.326569676
        outSlope: -.326569676
        tangentMode: 0
      - time: .13333334
        value: -.0278638881
        inSlope: -.347263515
        outSlope: -.347263515
        tangentMode: 0
      - time: .150000006
        value: -.033796832
        inSlope: -.36142236
        outSlope: -.36142236
        tangentMode: 0
      - time: .166666672
        value: -.0399112999
        inSlope: -.369047642
        outSlope: -.369047642
        tangentMode: 0
      - time: .183333337
        value: -.0460984185
        inSlope: -.370143414
        outSlope: -.370143414
        tangentMode: 0
      - time: .200000003
        value: -.052249413
        inSlope: -.364716291
        outSlope: -.364716291
        tangentMode: 0
      - time: .216666669
        value: -.0582556278
        inSlope: -.352775455
        outSlope: -.352775455
        tangentMode: 0
      - time: .233333334
        value: -.0640085936
        inSlope: -.334331334
        outSlope: -.334331334
        tangentMode: 0
      - time: .25
        value: -.069400005
        inSlope: -.309394956
        outSlope: -.309394956
        tangentMode: 0
      - time: .266666681
        value: -.0743217617
        inSlope: -.277978122
        outSlope: -.277978122
        tangentMode: 0
      - time: .283333361
        value: -.0786659494
        inSlope: -.240090817
        outSlope: -.240090817
        tangentMode: 0
      - time: .300000042
        value: -.0823247954
        inSlope: -.19573985
        outSlope: -.19573985
        tangentMode: 0
      - time: .316666722
        value: -.0851906165
        inSlope: -.144928351
        outSlope: -.144928351
        tangentMode: 0
      - time: .333333403
        value: -.0871557444
        inSlope: -.0991763845
        outSlope: -.0991763845
        tangentMode: 0
      - time: .350000083
        value: -.0884964988
        inSlope: -.0674284399
        outSlope: -.0674284399
        tangentMode: 0
      - time: .366666764
        value: -.0894033611
        inSlope: -.0343018472
        outSlope: -.0343018472
        tangentMode: 0
      - time: .383333445
        value: -.0896398947
        inSlope: .0130129494
        outSlope: .0130129494
        tangentMode: 0
      - time: .400000125
        value: -.0889695957
        inSlope: .0745253414
        outSlope: .0745253414
        tangentMode: 0
      - time: .416666806
        value: -.0871557146
        inSlope: .168380886
        outSlope: .168380886
        tangentMode: 0
      - time: .433333486
        value: -.0833568946
        inSlope: .30380863
        outSlope: .30380863
        tangentMode: 0
      - time: .450000167
        value: -.0770287514
        inSlope: .449331552
        outSlope: .449331552
        tangentMode: 0
      - time: .466666847
        value: -.0683791637
        inSlope: .58238107
        outSlope: .58238107
        tangentMode: 0
      - time: .483333528
        value: -.0576160327
        inSlope: .702931046
        outSlope: .702931046
        tangentMode: 0
      - time: .500000179
        value: -.0449481308
        inSlope: .810912013
        outSlope: .810912013
        tangentMode: 0
      - time: .51666683
        value: -.0305856597
        inSlope: .906220198
        outSlope: .906220198
        tangentMode: 0
      - time: .53333348
        value: -.01474082
        inSlope: .988731384
        outSlope: .988731384
        tangentMode: 0
      - time: .550000131
        value: .00237201992
        inSlope: 1.05831528
        outSlope: 1.05831528
        tangentMode: 0
      - time: .566666782
        value: .020536324
        inSlope: 1.11484993
        outSlope: 1.11484993
        tangentMode: 0
      - time: .583333433
        value: .0395336486
        inSlope: 1.15823448
        outSlope: 1.15823448
        tangentMode: 0
      - time: .600000083
        value: .059144102
        inSlope: 1.18840265
        outSlope: 1.18840265
        tangentMode: 0
      - time: .616666734
        value: .0791470334
        inSlope: 1.20533156
        outSlope: 1.20533156
        tangentMode: 0
      - time: .633333385
        value: .0993217826
        inSlope: 1.20904613
        outSlope: 1.20904613
        tangentMode: 0
      - time: .650000036
        value: .119448535
        inSlope: 1.19962537
        outSlope: 1.19962537
        tangentMode: 0
      - time: .666666687
        value: .139309257
        inSlope: 1.17719698
        outSlope: 1.17719698
        tangentMode: 0
      - time: .683333337
        value: .158688396
        inSlope: 1.14193499
        outSlope: 1.14193499
        tangentMode: 0
      - time: .699999988
        value: .177373722
        inSlope: 1.09405494
        outSlope: 1.09405494
        tangentMode: 0
      - time: .716666639
        value: .195156857
        inSlope: 1.03379273
        outSlope: 1.03379273
        tangentMode: 0
      - time: .73333329
        value: .211833447
        inSlope: .961394072
        outSlope: .961394072
        tangentMode: 0
      - time: .74999994
        value: .227203295
        inSlope: .877103746
        outSlope: .877103746
        tangentMode: 0
      - time: .766666591
        value: .241070211
        inSlope: .781138241
        outSlope: .781138241
        tangentMode: 0
      - time: .783333242
        value: .253241211
        inSlope: .673666954
        outSlope: .673666954
        tangentMode: 0
      - time: .799999893
        value: .263525754
        inSlope: .55479759
        outSlope: .55479759
        tangentMode: 0
      - time: .816666543
        value: .271734446
        inSlope: .424555659
        outSlope: .424555659
        tangentMode: 0
      - time: .833333194
        value: .277677596
        inSlope: .316618979
        outSlope: .316618979
        tangentMode: 0
      - time: .849999845
        value: .282288402
        inSlope: .268551052
        outSlope: .268551052
        tangentMode: 0
      - time: .866666496
        value: .286629289
        inSlope: .252449751
        outSlope: .252449751
        tangentMode: 0
      - time: .883333147
        value: .290703386
        inSlope: .236537993
        outSlope: .236537993
        tangentMode: 0
      - time: .899999797
        value: .294513881
        inSlope: .220810384
        outSlope: .220810384
        tangentMode: 0
      - time: .916666448
        value: .298063725
        inSlope: .205262512
        outSlope: .205262512
        tangentMode: 0
      - time: .933333099
        value: .301355958
        inSlope: .189895213
        outSlope: .189895213
        tangentMode: 0
      - time: .94999975
        value: .30439356
        inSlope: .174699605
        outSlope: .174699605
        tangentMode: 0
      - time: .9666664
        value: .307179272
        inSlope: .159675628
        outSlope: .159675628
        tangentMode: 0
      - time: .983333051
        value: .309716076
        inSlope: .14482066
        outSlope: .14482066
        tangentMode: 0
      - time: .999999702
        value: .312006623
        inSlope: .130129069
        outSlope: .130129069
        tangentMode: 0
      - time: 1.01666641
        value: .314053714
        inSlope: .115598634
        outSlope: .115598634
        tangentMode: 0
      - time: 1.03333306
        value: .315859914
        inSlope: .101223983
        outSlope: .101223983
        tangentMode: 0
      - time: 1.04999971
        value: .317427844
        inSlope: .0870037898
        outSlope: .0870037898
        tangentMode: 0
      - time: 1.06666636
        value: .318760037
        inSlope: .0729346946
        outSlope: .0729346946
        tangentMode: 0
      - time: 1.08333302
        value: .319858998
        inSlope: .0590113327
        outSlope: .0590113327
        tangentMode: 0
      - time: 1.09999967
        value: .32072708
        inSlope: .0452292413
        outSlope: .0452292413
        tangentMode: 0
      - time: 1.11666632
        value: .321366638
        inSlope: .0315875113
        outSlope: .0315875113
        tangentMode: 0
      - time: 1.13333297
        value: .321779996
        inSlope: .0180825777
        outSlope: .0180825777
        tangentMode: 0
      - time: 1.14999962
        value: .32196939
        inSlope: .00471085776
        outSlope: .00471085776
        tangentMode: 0
      - time: 1.16666627
        value: .321937025
        inSlope: -.00853122026
        outSlope: -.00853122026
        tangentMode: 0
      - time: 1.18333292
        value: .321685016
        inSlope: -.0216490235
        outSlope: -.0216490235
        tangentMode: 0
      - time: 1.19999957
        value: .321215391
        inSlope: -.0346434452
        outSlope: -.0346434452
        tangentMode: 0
      - time: 1.21666622
        value: .320530236
        inSlope: -.0475162715
        outSlope: -.0475162715
        tangentMode: 0
      - time: 1.23333287
        value: .319631517
        inSlope: -.0602719784
        outSlope: -.0602719784
        tangentMode: 0
      - time: 1.24999952
        value: .318521172
        inSlope: -.0729132444
        outSlope: -.0729132444
        tangentMode: 0
      - time: 1.26666617
        value: .317201078
        inSlope: -.0854409561
        outSlope: -.0854409561
        tangentMode: 0
      - time: 1.28333282
        value: .315673143
        inSlope: -.0978595912
        outSlope: -.0978595912
        tangentMode: 0
      - time: 1.29999948
        value: .313939095
        inSlope: -.110170051
        outSlope: -.110170051
        tangentMode: 0
      - time: 1.31666613
        value: .312000811
        inSlope: -.122374117
        outSlope: -.122374117
        tangentMode: 0
      - time: 1.33333278
        value: .309859961
        inSlope: -.134476244
        outSlope: -.134476244
        tangentMode: 0
      - time: 1.34999943
        value: .307518274
        inSlope: -.146473795
        outSlope: -.146473795
        tangentMode: 0
      - time: 1.36666608
        value: .304977506
        inSlope: -.158372074
        outSlope: -.158372074
        tangentMode: 0
      - time: 1.38333273
        value: .302239209
        inSlope: -.170172915
        outSlope: -.170172915
        tangentMode: 0
      - time: 1.39999938
        value: .299305081
        inSlope: -.181874514
        outSlope: -.181874514
        tangentMode: 0
      - time: 1.41666603
        value: .296176732
        inSlope: -.19347775
        outSlope: -.19347775
        tangentMode: 0
      - time: 1.43333268
        value: .292855829
        inSlope: -.204985335
        outSlope: -.204985335
        tangentMode: 0
      - time: 1.44999933
        value: .289343894
        inSlope: -.216399044
        outSlope: -.216399044
        tangentMode: 0
      - time: 1.46666598
        value: .285642534
        inSlope: -.227717072
        outSlope: -.227717072
        tangentMode: 0
      - time: 1.48333263
        value: .281753331
        inSlope: -.238939464
        outSlope: -.238939464
        tangentMode: 0
      - time: 1.49999928
        value: .277677894
        inSlope: -.29458642
        outSlope: -.29458642
        tangentMode: 0
      - time: 1.51666594
        value: .271933794
        inSlope: -.432608545
        outSlope: -.432608545
        tangentMode: 0
      - time: 1.53333259
        value: .263257623
        inSlope: -.598689318
        outSlope: -.598689318
        tangentMode: 0
      - time: 1.54999924
        value: .251977503
        inSlope: -.745087504
        outSlope: -.745087504
        tangentMode: 0
      - time: 1.56666589
        value: .238421395
        inSlope: -.871722817
        outSlope: -.871722817
        tangentMode: 0
      - time: 1.58333254
        value: .222920105
        inSlope: -.978364825
        outSlope: -.978364825
        tangentMode: 0
      - time: 1.59999919
        value: .205809265
        inSlope: -1.06468153
        outSlope: -1.06468153
        tangentMode: 0
      - time: 1.61666584
        value: .187430754
        inSlope: -1.13028169
        outSlope: -1.13028169
        tangentMode: 0
      - time: 1.63333249
        value: .168133244
        inSlope: -1.17476583
        outSlope: -1.17476583
        tangentMode: 0
      - time: 1.64999914
        value: .148271933
        inSlope: -1.19776082
        outSlope: -1.19776082
        tangentMode: 0
      - time: 1.66666579
        value: .128207922
        inSlope: -1.19895124
        outSlope: -1.19895124
        tangentMode: 0
      - time: 1.68333244
        value: .108306929
        inSlope: -1.17810178
        outSlope: -1.17810178
        tangentMode: 0
      - time: 1.69999909
        value: .088937901
        inSlope: -1.13506591
        outSlope: -1.13506591
        tangentMode: 0
      - time: 1.71666574
        value: .0704714358
        inSlope: -1.06978691
        outSlope: -1.06978691
        tangentMode: 0
      - time: 1.7333324
        value: .0532783717
        inSlope: -.982286692
        outSlope: -.982286692
        tangentMode: 0
      - time: 1.74999905
        value: .0377285779
        inSlope: -.87264812
        outSlope: -.87264812
        tangentMode: 0
      - time: 1.7666657
        value: .0241901278
        inSlope: -.740990162
        outSlope: -.740990162
        tangentMode: 0
      - time: 1.78333235
        value: .0130289299
        inSlope: -.587441206
        outSlope: -.587441206
        tangentMode: 0
      - time: 1.799999
        value: .0046087727
        inSlope: -.412114859
        outSlope: -.412114859
        tangentMode: 0
      - time: 1.81666565
        value: -.000708219246
        inSlope: -.215086594
        outSlope: -.215086594
        tangentMode: 0
      - time: 1.83333337
        value: -.00256089284
        inSlope: -.111153364
        outSlope: -.111153364
        tangentMode: 0
      m_PreInfinity: 2
      m_PostInfinity: 2
    attribute: m_LocalRotation.z
    path: 
    classID: 4
    script: {fileID: 0}
  - curve:
      serializedVersion: 2
      m_Curve:
      - time: 0
        value: 1
        inSlope: -1.07288352e-05
        outSlope: -1.07288352e-05
        tangentMode: 0
      - time: .0166666675
        value: .999999821
        inSlope: -7.15255737e-05
        outSlope: -7.15255737e-05
        tangentMode: 0
      - time: .0333333351
        value: .999997616
        inSlope: -.000330805749
        outSlope: -.000330805749
        tangentMode: 0
      - time: .0500000045
        value: .999988794
        inSlope: -.000919103622
        outSlope: -.000919103622
        tangentMode: 0
      - time: .0666666701
        value: .999966979
        inSlope: -.00191152119
        outSlope: -.00191152119
        tangentMode: 0
      - time: .0833333358
        value: .999925077
        inSlope: -.0033330922
        outSlope: -.0033330922
        tangentMode: 0
      - time: .100000001
        value: .999855876
        inSlope: -.00516057061
        outSlope: -.00516057061
        tangentMode: 0
      - time: .116666667
        value: .999753058
        inSlope: -.00732421689
        outSlope: -.00732421689
        tangentMode: 0
      - time: .13333334
        value: .999611735
        inSlope: -.0097292643
        outSlope: -.0097292643
        tangentMode: 0
      - time: .150000006
        value: .999428749
        inSlope: -.012255908
        outSlope: -.012255908
        tangentMode: 0
      - time: .166666672
        value: .999203205
        inSlope: -.0147557277
        outSlope: -.0147557277
        tangentMode: 0
      - time: .183333337
        value: .998936892
        inSlope: -.0170749445
        outSlope: -.0170749445
        tangentMode: 0
      - time: .200000003
        value: .99863404
        inSlope: -.0190562028
        outSlope: -.0190562028
        tangentMode: 0
      - time: .216666669
        value: .998301685
        inSlope: -.0205403585
        outSlope: -.0205403585
        tangentMode: 0
      - time: .233333334
        value: .997949362
        inSlope: -.0213825721
        outSlope: -.0213825721
        tangentMode: 0
      - time: .25
        value: .997588933
        inSlope: -.0214523003
        outSlope: -.0214523003
        tangentMode: 0
      - time: .266666681
        value: .997234285
        inSlope: -.0206368975
        outSlope: -.0206368975
        tangentMode: 0
      - time: .283333361
        value: .996901035
        inSlope: -.0188612789
        outSlope: -.0188612789
        tangentMode: 0
      - time: .300000042
        value: .996605575
        inSlope: -.0160914529
        outSlope: -.0160914529
        tangentMode: 0
      - time: .316666722
        value: .996364653
        inSlope: -.0123256342
        outSlope: -.0123256342
        tangentMode: 0
      - time: .333333403
        value: .99619472
        inSlope: -.00864564627
        outSlope: -.00864564627
        tangentMode: 0
      - time: .350000083
        value: .996076465
        inSlope: -.00597595656
        outSlope: -.00597595656
        tangentMode: 0
      - time: .366666764
        value: .995995522
        inSlope: -.00306665641
        outSlope: -.00306665641
        tangentMode: 0
      - time: .383333445
        value: .995974243
        inSlope: .00116407778
        outSlope: .00116407778
        tangentMode: 0
      - time: .400000125
        value: .996034324
        inSlope: .00661432184
        outSlope: .00661432184
        tangentMode: 0
      - time: .416666806
        value: .99619472
        inSlope: .0145625938
        outSlope: .0145625938
        tangentMode: 0
      - time: .433333486
        value: .996519744
        inSlope: .0250249878
        outSlope: .0250249878
        tangentMode: 0
      - time: .450000167
        value: .997028887
        inSlope: .0341891944
        outSlope: .0341891944
        tangentMode: 0
      - time: .466666847
        value: .997659385
        inSlope: .0392979085
        outSlope: .0392979085
        tangentMode: 0
      - time: .483333528
        value: .998338819
        inSlope: .0398987532
        outSlope: .0398987532
        tangentMode: 0
      - time: .500000179
        value: .998989344
        inSlope: .0358003713
        outSlope: .0358003713
        tangentMode: 0
      - time: .51666683
        value: .999532163
        inSlope: .0270599388
        outSlope: .0270599388
        tangentMode: 0
      - time: .53333348
        value: .999891341
        inSlope: .0139510762
        outSlope: .0139510762
        tangentMode: 0
      - time: .550000131
        value: .999997199
        inSlope: -.003066662
        outSlope: -.003066662
        tangentMode: 0
      - time: .566666782
        value: .999789119
        inSlope: -.0233692154
        outSlope: -.0233692154
        tangentMode: 0
      - time: .583333433
        value: .999218225
        inSlope: -.0461894721
        outSlope: -.0461894721
        tangentMode: 0
      - time: .600000083
        value: .998249471
        inSlope: -.0706583932
        outSlope: -.0706583932
        tangentMode: 0
      - time: .616666734
        value: .996862948
        inSlope: -.0958229005
        outSlope: -.0958229005
        tangentMode: 0
      - time: .633333385
        value: .995055377
        inSlope: -.120676279
        outSlope: -.120676279
        tangentMode: 0
      - time: .650000036
        value: .992840409
        inSlope: -.144193918
        outSlope: -.144193918
        tangentMode: 0
      - time: .666666687
        value: .990248919
        inSlope: -.165351182
        outSlope: -.165351182
        tangentMode: 0
      - time: .683333337
        value: .987328708
        inSlope: -.18316108
        outSlope: -.18316108
        tangentMode: 0
      - time: .699999988
        value: .984143555
        inSlope: -.196700871
        outSlope: -.196700871
        tangentMode: 0
      - time: .716666639
        value: .980772018
        inSlope: -.205133751
        outSlope: -.205133751
        tangentMode: 0
      - time: .73333329
        value: .97730577
        inSlope: -.207740858
        outSlope: -.207740858
        tangentMode: 0
      - time: .74999994
        value: .97384733
        inSlope: -.20394285
        outSlope: -.20394285
        tangentMode: 0
      - time: .766666591
        value: .970507681
        inSlope: -.193324864
        outSlope: -.193324864
        tangentMode: 0
      - time: .783333242
        value: .967403173
        inSlope: -.175659835
        outSlope: -.175659835
        tangentMode: 0
      - time: .799999893
        value: .964652359
        inSlope: -.150926262
        outSlope: -.150926262
        tangentMode: 0
      - time: .816666543
        value: .962372303
        inSlope: -.119340539
        outSlope: -.119340539
        tangentMode: 0
      - time: .833333194
        value: .960674345
        inSlope: -.0912810266
        outSlope: -.0912810266
        tangentMode: 0
      - time: .849999845
        value: .959329605
        inSlope: -.0789839774
        outSlope: -.0789839774
        tangentMode: 0
      - time: .866666496
        value: .958041549
        inSlope: -.0754917413
        outSlope: -.0754917413
        tangentMode: 0
      - time: .883333147
        value: .956813216
        inSlope: -.0718296245
        outSlope: -.0718296245
        tangentMode: 0
      - time: .899999797
        value: .95564723
        inSlope: -.0680173039
        outSlope: -.0680173039
        tangentMode: 0
      - time: .916666448
        value: .954545975
        inSlope: -.064065516
        outSlope: -.064065516
        tangentMode: 0
      - time: .933333099
        value: .953511715
        inSlope: -.0599885583
        outSlope: -.0599885583
        tangentMode: 0
      - time: .94999975
        value: .952546358
        inSlope: -.0558007285
        outSlope: -.0558007285
        tangentMode: 0
      - time: .9666664
        value: .951651692
        inSlope: -.0515181348
        outSlope: -.0515181348
        tangentMode: 0
      - time: .983333051
        value: .950829089
        inSlope: -.0471532792
        outSlope: -.0471532792
        tangentMode: 0
      - time: .999999702
        value: .950079918
        inSlope: -.042716831
        outSlope: -.042716831
        tangentMode: 0
      - time: 1.01666641
        value: .949405193
        inSlope: -.0382232293
        outSlope: -.0382232293
        tangentMode: 0
      - time: 1.03333306
        value: .948805809
        inSlope: -.0336832106
        outSlope: -.0336832106
        tangentMode: 0
      - time: 1.04999971
        value: .948282421
        inSlope: -.0291109364
        outSlope: -.0291109364
        tangentMode: 0
      - time: 1.06666636
        value: .947835445
        inSlope: -.0245172009
        outSlope: -.0245172009
        tangentMode: 0
      - time: 1.08333302
        value: .947465181
        inSlope: -.0199145265
        outSlope: -.0199145265
        tangentMode: 0
      - time: 1.09999967
        value: .947171628
        inSlope: -.015310064
        outSlope: -.015310064
        tangentMode: 0
      - time: 1.11666632
        value: .946954846
        inSlope: -.0107145412
        outSlope: -.0107145412
        tangentMode: 0
      - time: 1.13333297
        value: .946814477
        inSlope: -.0061422647
        outSlope: -.0061422647
        tangentMode: 0
      - time: 1.14999962
        value: .946750104
        inSlope: -.00160217436
        outSlope: -.00160217436
        tangentMode: 0
      - time: 1.16666627
        value: .946761072
        inSlope: .00289857667
        outSlope: .00289857667
        tangentMode: 0
      - time: 1.18333292
        value: .946846724
        inSlope: .00735283643
        outSlope: .00735283643
        tangentMode: 0
      - time: 1.19999957
        value: .947006166
        inSlope: .0117462985
        outSlope: .0117462985
        tangentMode: 0
      - time: 1.21666622
        value: .947238266
        inSlope: .0160735995
        outSlope: .0160735995
        tangentMode: 0
      - time: 1.23333287
        value: .947541952
        inSlope: .0203240104
        outSlope: .0203240104
        tangentMode: 0
      - time: 1.24999952
        value: .947915733
        inSlope: .0244903788
        outSlope: .0244903788
        tangentMode: 0
      - time: 1.26666617
        value: .948358297
        inSlope: .0285673421
        outSlope: .0285673421
        tangentMode: 0
      - time: 1.28333282
        value: .948867977
        inSlope: .0325441658
        outSlope: .0325441658
        tangentMode: 0
      - time: 1.29999948
        value: .949443102
        inSlope: .036415495
        outSlope: .036415495
        tangentMode: 0
      - time: 1.31666613
        value: .950081825
        inSlope: .0401723757
        outSlope: .0401723757
        tangentMode: 0
      - time: 1.33333278
        value: .95078218
        inSlope: .0438112468
        outSlope: .0438112468
        tangentMode: 0
      - time: 1.34999943
        value: .951542199
        inSlope: .0473213643
        outSlope: .0473213643
        tangentMode: 0
      - time: 1.36666608
        value: .952359557
        inSlope: .0506973751
        outSlope: .0506973751
        tangentMode: 0
      - time: 1.38333273
        value: .95323211
        inSlope: .0539374873
        outSlope: .0539374873
        tangentMode: 0
      - time: 1.39999938
        value: .954157472
        inSlope: .0570309684
        outSlope: .0570309684
        tangentMode: 0
      - time: 1.41666603
        value: .95513314
        inSlope: .0599742532
        outSlope: .0599742532
        tangentMode: 0
      - time: 1.43333268
        value: .956156611
        inSlope: .0627619624
        outSlope: .0627619624
        tangentMode: 0
      - time: 1.44999933
        value: .957225204
        inSlope: .0653887391
        outSlope: .0653887391
        tangentMode: 0
      - time: 1.46666598
        value: .958336234
        inSlope: .0678510144
        outSlope: .0678510144
        tangentMode: 0
      - time: 1.48333263
        value: .959486902
        inSlope: .0701398328
        outSlope: .0701398328
        tangentMode: 0
      - time: 1.49999928
        value: .960674226
        inSlope: .0848723277
        outSlope: .0848723277
        tangentMode: 0
      - time: 1.51666594
        value: .962315977
        inSlope: .12153995
        outSlope: .12153995
        tangentMode: 0
      - time: 1.53333259
        value: .964725554
        inSlope: .162513405
        outSlope: .162513405
        tangentMode: 0
      - time: 1.54999924
        value: .967733085
        inSlope: .193087041
        outSlope: .193087041
        tangentMode: 0
      - time: 1.56666589
        value: .971161783
        inSlope: .213108867
        outSlope: .213108867
        tangentMode: 0
      - time: 1.58333254
        value: .974836707
        inSlope: .222909659
        outSlope: .222909659
        tangentMode: 0
      - time: 1.59999919
        value: .978592098
        inSlope: .223233312
        outSlope: .223233312
        tangentMode: 0
      - time: 1.61666584
        value: .982277811
        inSlope: .215165228
        outSlope: .215165228
        tangentMode: 0
      - time: 1.63333249
        value: .985764265
        inSlope: .200064361
        outSlope: .200064361
        tangentMode: 0
      - time: 1.64999914
        value: .988946617
        inSlope: .179491818
        outSlope: .179491818
        tangentMode: 0
      - time: 1.66666579
        value: .99174732
        inSlope: .155126601
        outSlope: .155126601
        tangentMode: 0
      - time: 1.68333244
        value: .994117498
        inSlope: .128696084
        outSlope: .128696084
        tangentMode: 0
      - time: 1.69999909
        value: .996037185
        inSlope: .101888277
        outSlope: .101888277
        tangentMode: 0
      - time: 1.71666574
        value: .997513771
        inSlope: .0762749463
        outSlope: .0762749463
        tangentMode: 0
      - time: 1.7333324
        value: .998579681
        inSlope: .053227596
        outSlope: .053227596
        tangentMode: 0
      - time: 1.74999905
        value: .999288023
        inSlope: .0338316299
        outSlope: .0338316299
        tangentMode: 0
      - time: 1.7666657
        value: .999707401
        inSlope: .0188130327
        outSlope: .0188130327
        tangentMode: 0
      - time: 1.78333235
        value: .999915123
        inSlope: .00845969561
        outSlope: .00845969561
        tangentMode: 0
      - time: 1.799999
        value: .99998939
        inSlope: .0025391602
        outSlope: .0025391602
        tangentMode: 0
      - time: 1.81666565
        value: .999999762
        inSlope: .000219947222
        outSlope: .000219947222
        tangentMode: 0
      - time: 1.83333337
        value: .999996722
        inSlope: -.000182378644
        outSlope: -.000182378644
        tangentMode: 0
      m_PreInfinity: 2
      m_PostInfinity: 2
    attribute: m_LocalRotation.w
    path: 
    classID: 4
    script: {fileID: 0}
  - curve:
      serializedVersion: 2
      m_Curve:
      - time: 0
        value: 1
        inSlope: Infinity
        outSlope: Infinity
        tangentMode: 31
      - time: 1.83333337
        value: 1
        inSlope: Infinity
        outSlope: Infinity
        tangentMode: 31
      m_PreInfinity: 2
      m_PostInfinity: 2
    attribute: m_IsActive
    path: ROT_CONTROL/NOSIK
    classID: 1
    script: {fileID: 0}
  m_EulerEditorCurves:
  - curve:
      serializedVersion: 2
      m_Curve:
      - time: 0
        value: 0
        inSlope: 0
        outSlope: 0
        tangentMode: 10
      m_PreInfinity: 2
      m_PostInfinity: 2
    attribute: localEulerAnglesBaked.x
    path: 
    classID: 4
    script: {fileID: 0}
  - curve:
      serializedVersion: 2
      m_Curve:
      - time: 0
        value: 0
        inSlope: 0
        outSlope: 0
        tangentMode: 10
      m_PreInfinity: 2
      m_PostInfinity: 2
    attribute: localEulerAnglesBaked.y
    path: 
    classID: 4
    script: {fileID: 0}
  - curve:
      serializedVersion: 2
      m_Curve:
      - time: 0
        value: 0
        inSlope: 0
        outSlope: 0
        tangentMode: 0
      - time: .333333343
        value: -10
        inSlope: -10.2068872
        outSlope: -10.2068872
        tangentMode: 0
      - time: .416666657
        value: -10
        inSlope: 17.0105534
        outSlope: 17.0105534
        tangentMode: 0
      - time: .833333313
        value: 32.2433014
        inSlope: 33.972168
        outSlope: 33.972168
        tangentMode: 0
      - time: 1.5
        value: 32.2433014
        inSlope: -29.8308315
        outSlope: -29.8308315
        tangentMode: 0
      - time: 1.83333337
        value: -.293457031
        inSlope: 0
        outSlope: 0
        tangentMode: 0
      m_PreInfinity: 2
      m_PostInfinity: 2
    attribute: localEulerAnglesBaked.z
    path: 
    classID: 4
    script: {fileID: 0}
  m_Events: []
