%YAML 1.1
%TAG !u! tag:unity3d.com,2011:
--- !u!21 &2100000
Material:
  serializedVersion: 3
  m_ObjectHideFlags: 0
  m_PrefabParentObject: {fileID: 0}
  m_PrefabInternal: {fileID: 0}
  m_Name: AquariumSplash
  m_Shader: {fileID: 4800000, guid: 970bafee3b21ad947824a8ee3d1575d4, type: 3}
  m_ShaderKeywords: []
  m_CustomRenderQueue: -1
  m_SavedProperties:
    serializedVersion: 2
    m_TexEnvs:
      data:
        first:
          name: _MainTex
        second:
          m_Texture: {fileID: 2800000, guid: 029a83360df79c54cbade2a2b30406e9, type: 3}
          m_Scale: {x: 1, y: 1}
          m_Offset: {x: 0, y: 0}
      data:
        first:
          name: _WaterTex
        second:
          m_Texture: {fileID: 2800000, guid: 458f55474f911a94798cd1c18cfdef6f, type: 3}
          m_Scale: {x: .00999999978, y: .00999999978}
          m_Offset: {x: 0, y: 0}
      data:
        first:
          name: _MaskTex
        second:
          m_Texture: {fileID: 2800000, guid: 029a83360df79c54cbade2a2b30406e9, type: 3}
          m_Scale: {x: 1, y: 1}
          m_Offset: {x: 0, y: 0}
    m_Floats:
      data:
        first:
          name: PixelSnap
        second: 0
      data:
        first:
          name: _Additivity1
        second: 0
      data:
        first:
          name: _Additivity0
        second: 0
      data:
        first:
          name: _FillFade
        second: .100000001
      data:
        first:
          name: _FillAmount
        second: 1
      data:
        first:
          name: _WaveAmpl
        second: 1
      data:
        first:
          name: _WavePhase
        second: 0
      data:
        first:
          name: _TexScale
        second: 1
    m_Colors:
      data:
        first:
          name: _Color
        second: {r: 1, g: 1, b: 1, a: .43921569}
      data:
        first:
          name: _Color1
        second: {r: 1, g: 1, b: 1, a: 1}
      data:
        first:
          name: _Color0
        second: {r: 1, g: 1, b: 1, a: 1}
