%YAML 1.1
%TAG !u! tag:unity3d.com,2011:
--- !u!21 &2100000
Material:
  serializedVersion: 6
  m_ObjectHideFlags: 0
  m_PrefabParentObject: {fileID: 0}
  m_PrefabInternal: {fileID: 0}
  m_Name: KUZOV_RED_CTRL_mat
  m_Shader: {fileID: 4800000, guid: 6695109538563bf499af22d83bf834a3, type: 3}
  m_ShaderKeywords: 
  m_LightmapFlags: 5
  m_CustomRenderQueue: -1
  stringTagMap:
    'Platform:': '?Shader:"Color: HSV", ?RGB+A:False, ?Color:True, ?Vertex:False,
      _Color:"1,1,1,1", _MainTex:0d4aa31fe3d6e8d458e4e7b3cfa417df, _MainTex_ST:"1,1,0,0",
      _H:0, _S:0, _V:0'
  m_SavedProperties:
    serializedVersion: 2
    m_TexEnvs:
      data:
        first:
          name: _MainTex
        second:
          m_Texture: {fileID: 2800000, guid: 0d4aa31fe3d6e8d458e4e7b3cfa417df, type: 3}
          m_Scale: {x: 1, y: 1}
          m_Offset: {x: 0, y: 0}
    m_Floats:
      data:
        first:
          name: _BiniUber
        second: 0
      data:
        first:
          name: _H
        second: 0
      data:
        first:
          name: _S
        second: 0
      data:
        first:
          name: _V
        second: 0
    m_Colors:
      data:
        first:
          name: _Color
        second: {r: 1, g: 1, b: 1, a: 1}
