%YAML 1.1
%TAG !u! tag:unity3d.com,2011:
--- !u!114 &11400000
MonoBehaviour:
  m_ObjectHideFlags: 0
  m_PrefabParentObject: {fileID: 0}
  m_PrefabInternal: {fileID: 0}
  m_GameObject: {fileID: 0}
  m_Enabled: 1
  m_EditorHideFlags: 0
  m_Script: {fileID: 1219815696, guid: de72a6d2da64d114d95e3c5a01cfaec5, type: 3}
  m_Name: RM_AMB_FoodPosInTelegaController
  m_EditorClassIdentifier: 
  category: General
  fsm:
    dataVersion: 1
    usedInTemplate: {fileID: 11400000}
    name: FSM
    startState: GetParams
    states:
    - name: GetParams
      description: 
      colorIndex: 0
      position:
        serializedVersion: 2
        x: 118
        y: 113
        width: 100
        height: 32
      isBreakpoint: 0
      isSequence: 0
      hideUnused: 0
      transitions:
      - fsmEvent:
          name: FINISHED
          isSystemEvent: 1
          isGlobal: 1
        toState: CreateShadows
        linkStyle: 0
        linkConstraint: 0
        colorIndex: 0
      actionData:
        actionNames:
        - HutongGames.PlayMaker.Actions.GetChildCount
        - HutongGames.PlayMaker.Actions.SetIntValue
        - HutongGames.PlayMaker.Actions.GetParent
        - HutongGames.PlayMaker.Actions.ArrayAddRange
        - HutongGames.PlayMaker.Actions.RZ_GetChild
        customNames:
        - 
        - 
        - 
        - 
        - 
        actionEnabled: 0101010101
        actionIsOpen: 0000000001
        actionStartIndex: 000000000200000005000000070000000c000000
        actionHashCodes: 8124dc01603dd905d97b72020216160221571704
        unityObjectParams: []
        fsmGameObjectParams:
        - useVariable: 1
          name: needFoods
          tooltip: 
          showInInspector: 0
          networkSync: 0
          value: {fileID: 0}
        - useVariable: 1
          name: tablichka
          tooltip: 
          showInInspector: 0
          networkSync: 0
          value: {fileID: 0}
        fsmOwnerDefaultParams:
        - ownerOption: 0
          gameObject:
            useVariable: 0
            name: 
            tooltip: 
            showInInspector: 0
            networkSync: 0
            value: {fileID: 0}
        - ownerOption: 1
          gameObject:
            useVariable: 1
            name: RM/AMB/NowNeedFood
            tooltip: 
            showInInspector: 0
            networkSync: 0
            value: {fileID: 0}
        - ownerOption: 1
          gameObject:
            useVariable: 1
            name: RM/AMB/TelegaControl
            tooltip: 
            showInInspector: 0
            networkSync: 0
            value: {fileID: 0}
        animationCurveParams: []
        functionCallParams: []
        fsmTemplateControlParams: []
        fsmEventTargetParams: []
        fsmPropertyParams: []
        layoutOptionParams: []
        fsmStringParams:
        - useVariable: 0
          name: 
          tooltip: 
          showInInspector: 0
          networkSync: 0
          value: TABLICHKA_CONTROL
        - useVariable: 0
          name: 
          tooltip: 
          showInInspector: 0
          networkSync: 0
          value: Untagged
        fsmObjectParams: []
        fsmVarParams:
        - variableName: 
          objectType: UnityEngine.Object
          useVariable: 0
          type: 4
          floatValue: 0
          intValue: 0
          boolValue: 0
          stringValue: GLAZ_L_CONTROL
          vector4Value: {x: 0, y: 0, z: 0, w: 0}
          objectReference: {fileID: 0}
          arrayValue:
            useVariable: 0
            name: 
            tooltip: 
            showInInspector: 0
            networkSync: 0
            type: -1
            objectTypeName: 
            floatValues: []
            intValues: 
            boolValues: 
            stringValues: []
            vector4Values: []
            objectReferences: []
        - variableName: 
          objectType: UnityEngine.Object
          useVariable: 0
          type: 4
          floatValue: 0
          intValue: 0
          boolValue: 0
          stringValue: GLAZ_R_CONTROL
          vector4Value: {x: 0, y: 0, z: 0, w: 0}
          objectReference: {fileID: 0}
          arrayValue:
            useVariable: 0
            name: 
            tooltip: 
            showInInspector: 0
            networkSync: 0
            type: -1
            objectTypeName: 
            floatValues: []
            intValues: 
            boolValues: 
            stringValues: []
            vector4Values: []
            objectReferences: []
        - variableName: 
          objectType: UnityEngine.Object
          useVariable: 0
          type: 4
          floatValue: 0
          intValue: 0
          boolValue: 0
          stringValue: ROT_CONTROL
          vector4Value: {x: 0, y: 0, z: 0, w: 0}
          objectReference: {fileID: 0}
          arrayValue:
            useVariable: 0
            name: 
            tooltip: 
            showInInspector: 0
            networkSync: 0
            type: -1
            objectTypeName: 
            floatValues: []
            intValues: 
            boolValues: 
            stringValues: []
            vector4Values: []
            objectReferences: []
        fsmArrayParams:
        - useVariable: 1
          name: namesForDestroy
          tooltip: 
          showInInspector: 0
          networkSync: 0
          type: 4
          objectTypeName: UnityEngine.Object
          floatValues: []
          intValues: 
          boolValues: 
          stringValues: []
          vector4Values: []
          objectReferences: []
        fsmEnumParams: []
        fsmFloatParams: []
        fsmIntParams: []
        fsmBoolParams: []
        fsmVector2Params: []
        fsmVector3Params: []
        fsmColorParams: []
        fsmRectParams: []
        fsmQuaternionParams: []
        stringParams: []
        byteData: 00000000016368696c64436f756e740000000001636f756e7465720000000000000000
        arrayParamSizes: 03000000
        arrayParamTypes:
        - HutongGames.PlayMaker.FsmVar
        customTypeSizes: 
        customTypeNames: []
        paramDataType: 14000000100000001000000010000000010000001400000013000000290000000c0000002700000027000000270000001400000012000000120000001300000011000000
        paramName:
        - gameObject
        - storeResult
        - intVariable
        - intValue
        - everyFrame
        - gameObject
        - storeResult
        - array
        - variables
        - 
        - 
        - 
        - gameObject
        - childName
        - withTag
        - storeResult
        - everyFrame
        paramDataPos: 00000000000000000f0000001b00000020000000010000000000000000000000000000000000000001000000020000000200000000000000010000000100000021000000
        paramByteDataSize: 000000000f0000000c0000000500000001000000000000000000000000000000000000000000000000000000000000000000000000000000000000000000000002000000
    - name: CreateShadows
      description: 
      colorIndex: 0
      position:
        serializedVersion: 2
        x: 101
        y: 167
        width: 124
        height: 48
      isBreakpoint: 0
      isSequence: 0
      hideUnused: 0
      transitions:
      - fsmEvent:
          name: again
          isSystemEvent: 0
          isGlobal: 1
        toState: CreateShadows
        linkStyle: 0
        linkConstraint: 0
        colorIndex: 0
      - fsmEvent:
          name: FINISHED
          isSystemEvent: 1
          isGlobal: 1
        toState: SetFoodPos
        linkStyle: 0
        linkConstraint: 0
        colorIndex: 0
      actionData:
        actionNames:
        - HutongGames.PlayMaker.Actions.GetChildNum
        - HutongGames.PlayMaker.Actions.CreateObject
        - HutongGames.PlayMaker.Actions.RZ_CreateShadowObject
        - HutongGames.PlayMaker.Actions.RZ_DestroyComponents
        - HutongGames.PlayMaker.Actions.SetName
        - HutongGames.PlayMaker.Actions.RZ_SetParent
        - HutongGames.PlayMaker.Actions.SetScale
        - HutongGames.PlayMaker.Actions.SetPosition
        - HutongGames.PlayMaker.Actions.RZ_GetChildNum
        - HutongGames.PlayMaker.Actions.RZ_CreateObject
        - HutongGames.PlayMaker.Actions.SetPosition
        - HutongGames.PlayMaker.Actions.SetActiveGO
        - HutongGames.PlayMaker.Actions.SetActiveGO
        - HutongGames.PlayMaker.Actions.IntAdd
        - HutongGames.PlayMaker.Actions.IntCompare
        - HutongGames.PlayMaker.Actions.SetIntValue
        - HutongGames.PlayMaker.Actions.SendEvent
        - HutongGames.PlayMaker.Actions.SendEvent
        customNames:
        - 
        - 
        - 
        - 
        - 
        - 
        - 
        - 
        - 
        - 
        - 
        - 
        - 
        - 
        - 
        - 
        - 
        - 
        actionEnabled: 010101010101010101010101010101010101
        actionIsOpen: 000000000000000000000000000000000000
        actionStartIndex: 00000000030000000a0000000f00000015000000170000001b000000220000002a0000002f0000003d0000004500000047000000490000004c000000520000005500000059000000
        actionHashCodes: 280cdd053e28c603fc0a5805f4ad41019bd6f8015c855405afff1105f6e5be031429a60579f57e04f6e5be0315264c0115264c01603dd90509faa102603dd9055e69bb045e69bb04
        unityObjectParams: []
        fsmGameObjectParams:
        - useVariable: 1
          name: pos
          tooltip: 
          showInInspector: 0
          networkSync: 0
          value: {fileID: 0}
        - useVariable: 1
          name: RM/AMB/NowNeedFood
          tooltip: 
          showInInspector: 0
          networkSync: 0
          value: {fileID: 0}
        - useVariable: 0
          name: 
          tooltip: 
          showInInspector: 0
          networkSync: 0
          value: {fileID: 0}
        - useVariable: 1
          name: shadowObj
          tooltip: 
          showInInspector: 0
          networkSync: 0
          value: {fileID: 0}
        - useVariable: 1
          name: num
          tooltip: 
          showInInspector: 0
          networkSync: 0
          value: {fileID: 0}
        - useVariable: 1
          name: num
          tooltip: 
          showInInspector: 0
          networkSync: 0
          value: {fileID: 0}
        - useVariable: 1
          name: num
          tooltip: 
          showInInspector: 0
          networkSync: 0
          value: {fileID: 0}
        fsmOwnerDefaultParams:
        - ownerOption: 0
          gameObject:
            useVariable: 0
            name: 
            tooltip: 
            showInInspector: 0
            networkSync: 0
            value: {fileID: 0}
        - ownerOption: 1
          gameObject:
            useVariable: 1
            name: shadowObj
            tooltip: 
            showInInspector: 0
            networkSync: 0
            value: {fileID: 0}
        - ownerOption: 1
          gameObject:
            useVariable: 1
            name: shadowObj
            tooltip: 
            showInInspector: 0
            networkSync: 0
            value: {fileID: 0}
        - ownerOption: 1
          gameObject:
            useVariable: 1
            name: shadowObj
            tooltip: 
            showInInspector: 0
            networkSync: 0
            value: {fileID: 0}
        - ownerOption: 1
          gameObject:
            useVariable: 1
            name: shadowObj
            tooltip: 
            showInInspector: 0
            networkSync: 0
            value: {fileID: 0}
        - ownerOption: 1
          gameObject:
            useVariable: 1
            name: pos
            tooltip: 
            showInInspector: 0
            networkSync: 0
            value: {fileID: 0}
        - ownerOption: 1
          gameObject:
            useVariable: 1
            name: shadowObj
            tooltip: 
            showInInspector: 0
            networkSync: 0
            value: {fileID: 0}
        - ownerOption: 1
          gameObject:
            useVariable: 1
            name: shadowObj
            tooltip: 
            showInInspector: 0
            networkSync: 0
            value: {fileID: 0}
        - ownerOption: 1
          gameObject:
            useVariable: 1
            name: RM/AMB/NumbersControl
            tooltip: 
            showInInspector: 0
            networkSync: 0
            value: {fileID: 0}
        - ownerOption: 1
          gameObject:
            useVariable: 1
            name: pos
            tooltip: 
            showInInspector: 0
            networkSync: 0
            value: {fileID: 0}
        - ownerOption: 1
          gameObject:
            useVariable: 1
            name: num
            tooltip: 
            showInInspector: 0
            networkSync: 0
            value: {fileID: 0}
        - ownerOption: 1
          gameObject:
            useVariable: 1
            name: shadowObj
            tooltip: 
            showInInspector: 0
            networkSync: 0
            value: {fileID: 0}
        - ownerOption: 1
          gameObject:
            useVariable: 1
            name: pos
            tooltip: 
            showInInspector: 0
            networkSync: 0
            value: {fileID: 0}
        animationCurveParams: []
        functionCallParams: []
        fsmTemplateControlParams: []
        fsmEventTargetParams:
        - target: 1
          excludeSelf:
            useVariable: 0
            name: 
            tooltip: 
            showInInspector: 0
            networkSync: 0
            value: 0
          gameObject:
            ownerOption: 1
            gameObject:
              useVariable: 1
              name: RM/AMB/TelegaControl
              tooltip: 
              showInInspector: 0
              networkSync: 0
              value: {fileID: 0}
          fsmName:
            useVariable: 0
            name: 
            tooltip: 
            showInInspector: 0
            networkSync: 0
            value: 
          sendToChildren:
            useVariable: 0
            name: 
            tooltip: 
            showInInspector: 0
            networkSync: 0
            value: 0
          fsmComponent: {fileID: 0}
        - target: 1
          excludeSelf:
            useVariable: 0
            name: 
            tooltip: 
            showInInspector: 0
            networkSync: 0
            value: 0
          gameObject:
            ownerOption: 1
            gameObject:
              useVariable: 1
              name: RM/AMB/HandControl
              tooltip: 
              showInInspector: 0
              networkSync: 0
              value: {fileID: 0}
          fsmName:
            useVariable: 0
            name: 
            tooltip: 
            showInInspector: 0
            networkSync: 0
            value: 
          sendToChildren:
            useVariable: 0
            name: 
            tooltip: 
            showInInspector: 0
            networkSync: 0
            value: 0
          fsmComponent: {fileID: 0}
        fsmPropertyParams: []
        layoutOptionParams: []
        fsmStringParams:
        - useVariable: 0
          name: 
          tooltip: 
          showInInspector: 0
          networkSync: 0
          value: BoxCollider
        - useVariable: 0
          name: 
          tooltip: 
          showInInspector: 0
          networkSync: 0
          value: SHADOW
        - useVariable: 0
          name: 
          tooltip: 
          showInInspector: 0
          networkSync: 0
          value: 
        fsmObjectParams: []
        fsmVarParams: []
        fsmArrayParams:
        - useVariable: 1
          name: namesForDestroy
          tooltip: 
          showInInspector: 0
          networkSync: 0
          type: 4
          objectTypeName: UnityEngine.Object
          floatValues: []
          intValues: 
          boolValues: 
          stringValues: []
          vector4Values: []
          objectReferences: []
        fsmEnumParams: []
        fsmFloatParams: []
        fsmIntParams: []
        fsmBoolParams: []
        fsmVector2Params: []
        fsmVector3Params: []
        fsmColorParams: []
        fsmRectParams: []
        fsmQuaternionParams: []
        stringParams: []
        byteData: 0000000001636f756e74657200000000000000000000000001000000000000000000000000010000000000000000000000d7d6d63eb8b7373fcfcece3e00010000000000000001000100000000000000000000000000010000803f000000803f0017b7d138000000000000000000000000000000010000000001000000000100002041000100000000000000000001636f756e7465720000000000000000000000000000010000000000000000000000000100000000010000000000000001000000000000000000000000000000000001000000000000000000000080bbc400010000000000010001000000000001636f756e7465720100000000000000000001636f756e74657200000000016368696c64436f756e74616761696e000000000001636f756e746572000000000000524d2f414d422f436c65617254656c656761000000000000524d2f414d422f436c65617254656c656761000000000000
        arrayParamSizes: 0100000001000000
        arrayParamTypes:
        - HutongGames.PlayMaker.FsmOwnerDefault
        - HutongGames.PlayMaker.FsmString
        customTypeSizes: 
        customTypeNames: []
        paramDataType: 14000000100000001300000013000000130000001c0000001c0000001300000011000000100000001400000019000000110000001100000029000000110000000c000000140000000c0000001200000011000000140000001200000014000000140000001100000011000000140000001c0000000f0000000f0000000f0000000100000001000000140000001c0000000f0000000f0000000f000000070000000100000001000000140000001000000017000000130000001100000013000000120000001c0000001c00000013000000140000001100000011000000110000001100000011000000110000001000000001000000140000001c0000000f0000000f0000000f000000070000000100000001000000140000001100000014000000110000001000000010000000010000001000000010000000170000001700000017000000010000001000000010000000010000001f000000170000000f000000010000001f000000170000000f00000001000000
        paramName:
        - gameObject
        - childIndex
        - store
        - gameObject
        - spawnPoint
        - position
        - rotation
        - storeObject
        - networkInstantiate
        - networkGroup
        - obj
        - color
        - isRecursive
        - everyFrame
        - namesForDestroy
        - LightVersion
        - gameObject
        - 
        - component
        - 
        - Recursive
        - gameObject
        - name
        - gameObject
        - parent
        - resetLocalPosition
        - resetLocalRotation
        - gameObject
        - vector
        - x
        - y
        - z
        - everyFrame
        - lateUpdate
        - gameObject
        - vector
        - x
        - y
        - z
        - space
        - everyFrame
        - lateUpdate
        - gameObject
        - childIndex
        - NoChildren
        - store
        - WaitAnyFrames
        - gameObject
        - tag
        - position
        - rotation
        - storeObject
        - parentObject
        - resetLocalPosition
        - resetLocalRotation
        - getSourceObjectName
        - LocalPosition
        - getSourceObjectRotation
        - useUnloadAssets
        - newObjectCount
        - DontUseFinish
        - gameObject
        - vector
        - x
        - y
        - z
        - space
        - everyFrame
        - lateUpdate
        - gameObject
        - IsActive
        - gameObject
        - IsActive
        - intVariable
        - add
        - everyFrame
        - integer1
        - integer2
        - equal
        - lessThan
        - greaterThan
        - everyFrame
        - intVariable
        - intValue
        - everyFrame
        - eventTarget
        - sendEvent
        - delay
        - everyFrame
        - eventTarget
        - sendEvent
        - delay
        - everyFrame
        paramDataPos: 00000000000000000000000001000000020000000c00000019000000030000002600000028000000010000002d0000003e0000004000000000000000420000000000000002000000010000000000000044000000030000000100000004000000050000004600000048000000060000004a000000570000005c0000006100000066000000670000000700000068000000750000007a0000007f000000840000008800000089000000080000008a000000960000000400000096000000050000000200000098000000a50000000600000009000000b2000000b4000000b6000000b8000000ba000000bc000000be000000c30000000a000000c4000000d1000000d6000000db000000e0000000e4000000e50000000b000000e60000000c000000e8000000ea000000f6000000fb000000fc0000000801000017010000170100001c0100001c0100001d010000290100002e010000000000002f01000041010000460100000100000047010000590100005e010000
        paramByteDataSize: 000000000c0000000000000000000000000000000d0000000d0000000000000002000000050000000000000011000000020000000200000000000000020000000000000000000000000000000000000002000000000000000000000000000000000000000200000002000000000000000d0000000500000005000000050000000100000001000000000000000d000000050000000500000005000000040000000100000001000000000000000c00000000000000000000000200000000000000000000000d0000000d00000000000000000000000200000002000000020000000200000002000000020000000500000001000000000000000d000000050000000500000005000000040000000100000001000000000000000200000000000000020000000c00000005000000010000000c0000000f000000000000000500000000000000010000000c00000005000000010000000000000012000000050000000100000000000000120000000500000001000000
    - name: SetFoodPos
      description: 
      colorIndex: 0
      position:
        serializedVersion: 2
        x: 61.382812
        y: 290.0078
        width: 214
        height: 48
      isBreakpoint: 0
      isSequence: 0
      hideUnused: 0
      transitions:
      - fsmEvent:
          name: RM/AMB/FoodComeToTelega
          isSystemEvent: 0
          isGlobal: 1
        toState: State 1
        linkStyle: 0
        linkConstraint: 0
        colorIndex: 0
      - fsmEvent:
          name: theEnd
          isSystemEvent: 0
          isGlobal: 1
        toState: TotaIncrement
        linkStyle: 0
        linkConstraint: 0
        colorIndex: 0
      actionData:
        actionNames:
        - HutongGames.PlayMaker.Actions.RZ_GetChildNum
        - HutongGames.PlayMaker.Actions.SetGameObject
        - HutongGames.PlayMaker.Actions.IntAdd
        - HutongGames.PlayMaker.Actions.IntCompare
        customNames:
        - 
        - 
        - 
        - 
        actionEnabled: 01010101
        actionIsOpen: 01000000
        actionStartIndex: 0000000005000000080000000b000000
        actionHashCodes: 1429a6054d51cf04603dd90509faa102
        unityObjectParams: []
        fsmGameObjectParams:
        - useVariable: 1
          name: currentPos
          tooltip: 
          showInInspector: 0
          networkSync: 0
          value: {fileID: 0}
        - useVariable: 1
          name: RM/AMB/NeedPosInTelega
          tooltip: 
          showInInspector: 0
          networkSync: 0
          value: {fileID: 0}
        - useVariable: 1
          name: currentPos
          tooltip: 
          showInInspector: 0
          networkSync: 0
          value: {fileID: 0}
        fsmOwnerDefaultParams:
        - ownerOption: 0
          gameObject:
            useVariable: 0
            name: 
            tooltip: 
            showInInspector: 0
            networkSync: 0
            value: {fileID: 0}
        animationCurveParams: []
        functionCallParams: []
        fsmTemplateControlParams: []
        fsmEventTargetParams: []
        fsmPropertyParams: []
        layoutOptionParams: []
        fsmStringParams: []
        fsmObjectParams: []
        fsmVarParams: []
        fsmArrayParams: []
        fsmEnumParams: []
        fsmFloatParams: []
        fsmIntParams: []
        fsmBoolParams: []
        fsmVector2Params: []
        fsmVector3Params: []
        fsmColorParams: []
        fsmRectParams: []
        fsmQuaternionParams: []
        stringParams: []
        byteData: 0000000001636f756e7465720000000000000001636f756e7465720100000000000000000001636f756e74657200000000016368696c64436f756e74746865456e6400
        arrayParamSizes: 
        arrayParamTypes: []
        customTypeSizes: 
        customTypeNames: []
        paramDataType: 1400000010000000170000001300000011000000130000001300000001000000100000001000000001000000100000001000000017000000170000001700000001000000
        paramName:
        - gameObject
        - childIndex
        - NoChildren
        - store
        - WaitAnyFrames
        - variable
        - gameObject
        - everyFrame
        - intVariable
        - add
        - everyFrame
        - integer1
        - integer2
        - equal
        - lessThan
        - greaterThan
        - everyFrame
        paramDataPos: 00000000000000000c000000000000000c00000001000000020000000e0000000f0000001b00000020000000210000002d0000003c0000003c0000003c00000042000000
        paramByteDataSize: 000000000c0000000000000000000000020000000000000000000000010000000c00000005000000010000000c0000000f00000000000000000000000600000001000000
    - name: EndRound
      description: 
      colorIndex: 0
      position:
        serializedVersion: 2
        x: 116.38281
        y: 422.23438
        width: 100
        height: 16
      isBreakpoint: 0
      isSequence: 0
      hideUnused: 0
      transitions: []
      actionData:
        actionNames:
        - HutongGames.PlayMaker.Actions.SendEvent
        customNames:
        - 
        actionEnabled: 01
        actionIsOpen: 01
        actionStartIndex: 00000000
        actionHashCodes: 5e69bb04
        unityObjectParams: []
        fsmGameObjectParams: []
        fsmOwnerDefaultParams: []
        animationCurveParams: []
        functionCallParams: []
        fsmTemplateControlParams: []
        fsmEventTargetParams:
        - target: 1
          excludeSelf:
            useVariable: 0
            name: 
            tooltip: 
            showInInspector: 0
            networkSync: 0
            value: 0
          gameObject:
            ownerOption: 1
            gameObject:
              useVariable: 1
              name: RM/AMB/TelegaControl
              tooltip: 
              showInInspector: 0
              networkSync: 0
              value: {fileID: 0}
          fsmName:
            useVariable: 0
            name: 
            tooltip: 
            showInInspector: 0
            networkSync: 0
            value: 
          sendToChildren:
            useVariable: 0
            name: 
            tooltip: 
            showInInspector: 0
            networkSync: 0
            value: 0
          fsmComponent: {fileID: 0}
        fsmPropertyParams: []
        layoutOptionParams: []
        fsmStringParams: []
        fsmObjectParams: []
        fsmVarParams: []
        fsmArrayParams: []
        fsmEnumParams: []
        fsmFloatParams: []
        fsmIntParams: []
        fsmBoolParams: []
        fsmVector2Params: []
        fsmVector3Params: []
        fsmColorParams: []
        fsmRectParams: []
        fsmQuaternionParams: []
        stringParams: []
        byteData: 524d2f414d422f466f6f64436f6d65546f54656c656761000000000000
        arrayParamSizes: 
        arrayParamTypes: []
        customTypeSizes: 
        customTypeNames: []
        paramDataType: 1f000000170000000f00000001000000
        paramName:
        - eventTarget
        - sendEvent
        - delay
        - everyFrame
        paramDataPos: 0000000000000000170000001c000000
        paramByteDataSize: 00000000170000000500000001000000
    - name: WaitBeforeClear
      description: 
      colorIndex: 0
      position:
        serializedVersion: 2
        x: 292.03906
        y: 197
        width: 154
        height: 32
      isBreakpoint: 0
      isSequence: 0
      hideUnused: 0
      transitions:
      - fsmEvent:
          name: FINISHED
          isSystemEvent: 1
          isGlobal: 1
        toState: DisActive
        linkStyle: 0
        linkConstraint: 0
        colorIndex: 0
      actionData:
        actionNames:
        - HutongGames.PlayMaker.Actions.RZ_WaitFrames
        customNames:
        - 
        actionEnabled: 01
        actionIsOpen: 01
        actionStartIndex: 00000000
        actionHashCodes: 66e6a403
        unityObjectParams: []
        fsmGameObjectParams: []
        fsmOwnerDefaultParams: []
        animationCurveParams: []
        functionCallParams: []
        fsmTemplateControlParams: []
        fsmEventTargetParams: []
        fsmPropertyParams: []
        layoutOptionParams: []
        fsmStringParams: []
        fsmObjectParams: []
        fsmVarParams: []
        fsmArrayParams: []
        fsmEnumParams: []
        fsmFloatParams: []
        fsmIntParams: []
        fsmBoolParams: []
        fsmVector2Params: []
        fsmVector3Params: []
        fsmColorParams: []
        fsmRectParams: []
        fsmQuaternionParams: []
        stringParams: []
        byteData: 030000000046494e4953484544
        arrayParamSizes: 
        arrayParamTypes: []
        customTypeSizes: 
        customTypeNames: []
        paramDataType: 1000000017000000
        paramName:
        - frames
        - finishEvent
        paramDataPos: 0000000005000000
        paramByteDataSize: 0500000008000000
    - name: DisActive
      description: 
      colorIndex: 0
      position:
        serializedVersion: 2
        x: 321
        y: 245
        width: 100
        height: 16
      isBreakpoint: 0
      isSequence: 0
      hideUnused: 0
      transitions: []
      actionData:
        actionNames:
        - HutongGames.PlayMaker.Actions.SendEvent
        - HutongGames.PlayMaker.Actions.SetActiveGO
        customNames:
        - 
        - 
        actionEnabled: 0101
        actionIsOpen: 0100
        actionStartIndex: 0000000004000000
        actionHashCodes: 5e69bb0415264c01
        unityObjectParams: []
        fsmGameObjectParams: []
        fsmOwnerDefaultParams:
        - ownerOption: 0
          gameObject:
            useVariable: 0
            name: 
            tooltip: 
            showInInspector: 0
            networkSync: 0
            value: {fileID: 0}
        animationCurveParams: []
        functionCallParams: []
        fsmTemplateControlParams: []
        fsmEventTargetParams:
        - target: 1
          excludeSelf:
            useVariable: 0
            name: 
            tooltip: 
            showInInspector: 0
            networkSync: 0
            value: 0
          gameObject:
            ownerOption: 1
            gameObject:
              useVariable: 1
              name: needFoods
              tooltip: 
              showInInspector: 0
              networkSync: 0
              value: {fileID: 0}
          fsmName:
            useVariable: 0
            name: 
            tooltip: 
            showInInspector: 0
            networkSync: 0
            value: 
          sendToChildren:
            useVariable: 0
            name: 
            tooltip: 
            showInInspector: 0
            networkSync: 0
            value: 0
          fsmComponent: {fileID: 0}
        fsmPropertyParams: []
        layoutOptionParams: []
        fsmStringParams: []
        fsmObjectParams: []
        fsmVarParams: []
        fsmArrayParams: []
        fsmEnumParams: []
        fsmFloatParams: []
        fsmIntParams: []
        fsmBoolParams: []
        fsmVector2Params: []
        fsmVector3Params: []
        fsmColorParams: []
        fsmRectParams: []
        fsmQuaternionParams: []
        stringParams: []
        byteData: 524d2f414d422f436c65617254656c6567610000000000000000
        arrayParamSizes: 
        arrayParamTypes: []
        customTypeSizes: 
        customTypeNames: []
        paramDataType: 1f000000170000000f000000010000001400000011000000
        paramName:
        - eventTarget
        - sendEvent
        - delay
        - everyFrame
        - gameObject
        - IsActive
        paramDataPos: 000000000000000012000000170000000000000018000000
        paramByteDataSize: 000000001200000005000000010000000000000002000000
    - name: TotaIncrement
      description: 
      colorIndex: 0
      position:
        serializedVersion: 2
        x: 102
        y: 355
        width: 110
        height: 32
      isBreakpoint: 0
      isSequence: 0
      hideUnused: 0
      transitions:
      - fsmEvent:
          name: FINISHED
          isSystemEvent: 1
          isGlobal: 1
        toState: EndRound
        linkStyle: 0
        linkConstraint: 0
        colorIndex: 0
      actionData:
        actionNames:
        - HutongGames.PlayMaker.Actions.IntAdd
        customNames:
        - 
        actionEnabled: 01
        actionIsOpen: 01
        actionStartIndex: 00000000
        actionHashCodes: 603dd905
        unityObjectParams: []
        fsmGameObjectParams: []
        fsmOwnerDefaultParams: []
        animationCurveParams: []
        functionCallParams: []
        fsmTemplateControlParams: []
        fsmEventTargetParams: []
        fsmPropertyParams: []
        layoutOptionParams: []
        fsmStringParams: []
        fsmObjectParams: []
        fsmVarParams: []
        fsmArrayParams: []
        fsmEnumParams: []
        fsmFloatParams: []
        fsmIntParams: []
        fsmBoolParams: []
        fsmVector2Params: []
        fsmVector3Params: []
        fsmColorParams: []
        fsmRectParams: []
        fsmQuaternionParams: []
        stringParams: []
        byteData: 0000000001524d2f414d422f546f74616c436f756e746572010000000000
        arrayParamSizes: 
        arrayParamTypes: []
        customTypeSizes: 
        customTypeNames: []
        paramDataType: 100000001000000001000000
        paramName:
        - intVariable
        - add
        - everyFrame
        paramDataPos: 00000000180000001d000000
        paramByteDataSize: 180000000500000001000000
    - name: State 1
      description: 
      colorIndex: 0
      position:
        serializedVersion: 2
        x: 313
        y: 290
        width: 100
        height: 32
      isBreakpoint: 0
      isSequence: 0
      hideUnused: 0
      transitions:
      - fsmEvent:
          name: FINISHED
          isSystemEvent: 1
          isGlobal: 1
        toState: SetFoodPos
        linkStyle: 0
        linkConstraint: 0
        colorIndex: 0
      actionData:
        actionNames:
        - HutongGames.PlayMaker.Actions.SendEvent
        customNames:
        - 
        actionEnabled: 01
        actionIsOpen: 01
        actionStartIndex: 00000000
        actionHashCodes: 5e69bb04
        unityObjectParams: []
        fsmGameObjectParams: []
        fsmOwnerDefaultParams: []
        animationCurveParams: []
        functionCallParams: []
        fsmTemplateControlParams: []
        fsmEventTargetParams:
        - target: 1
          excludeSelf:
            useVariable: 0
            name: 
            tooltip: 
            showInInspector: 0
            networkSync: 0
            value: 0
          gameObject:
            ownerOption: 1
            gameObject:
              useVariable: 1
              name: tablichka
              tooltip: 
              showInInspector: 0
              networkSync: 0
              value: {fileID: 0}
          fsmName:
            useVariable: 0
            name: 
            tooltip: 
            showInInspector: 0
            networkSync: 0
            value: 
          sendToChildren:
            useVariable: 0
            name: 
            tooltip: 
            showInInspector: 0
            networkSync: 0
            value: 0
          fsmComponent: {fileID: 0}
        fsmPropertyParams: []
        layoutOptionParams: []
        fsmStringParams: []
        fsmObjectParams: []
        fsmVarParams: []
        fsmArrayParams: []
        fsmEnumParams: []
        fsmFloatParams: []
        fsmIntParams: []
        fsmBoolParams: []
        fsmVector2Params: []
        fsmVector3Params: []
        fsmColorParams: []
        fsmRectParams: []
        fsmQuaternionParams: []
        stringParams: []
        byteData: 524d2f414d422f466f6f64436f6d65546f54656c656761000000000000
        arrayParamSizes: 
        arrayParamTypes: []
        customTypeSizes: 
        customTypeNames: []
        paramDataType: 1f000000170000000f00000001000000
        paramName:
        - eventTarget
        - sendEvent
        - delay
        - everyFrame
        paramDataPos: 0000000000000000170000001c000000
        paramByteDataSize: 00000000170000000500000001000000
    events:
    - name: FINISHED
      isSystemEvent: 1
      isGlobal: 1
    - name: RM/AMB/ClearTelega
      isSystemEvent: 0
      isGlobal: 1
    - name: RM/AMB/FoodComeToTelega
      isSystemEvent: 0
      isGlobal: 1
    - name: RM/VOD/FoodeComeToLorry
      isSystemEvent: 0
      isGlobal: 1
    - name: again
      isSystemEvent: 0
      isGlobal: 1
    - name: theEnd
      isSystemEvent: 0
      isGlobal: 1
    globalTransitions:
    - fsmEvent:
        name: RM/AMB/ClearTelega
        isSystemEvent: 0
        isGlobal: 1
      toState: WaitBeforeClear
      linkStyle: 0
      linkConstraint: 0
      colorIndex: 0
    variables:
      floatVariables: []
      intVariables:
      - useVariable: 1
        name: childCount
        tooltip: 
        showInInspector: 0
        networkSync: 0
        value: 0
      - useVariable: 1
        name: counter
        tooltip: 
        showInInspector: 0
        networkSync: 0
        value: 0
      boolVariables: []
      stringVariables: []
      vector2Variables: []
      vector3Variables: []
      colorVariables: []
      rectVariables: []
      quaternionVariables: []
      gameObjectVariables:
      - useVariable: 1
        name: currentPos
        tooltip: 
        showInInspector: 0
        networkSync: 0
        value: {fileID: 0}
      - useVariable: 1
        name: needFoods
        tooltip: 
        showInInspector: 0
        networkSync: 0
        value: {fileID: 0}
      - useVariable: 1
        name: num
        tooltip: 
        showInInspector: 0
        networkSync: 0
        value: {fileID: 0}
      - useVariable: 1
        name: pos
        tooltip: 
        showInInspector: 0
        networkSync: 0
        value: {fileID: 0}
      - useVariable: 1
        name: shadowObj
        tooltip: 
        showInInspector: 0
        networkSync: 0
        value: {fileID: 0}
      - useVariable: 1
        name: tablichka
        tooltip: 
        showInInspector: 0
        networkSync: 0
        value: {fileID: 0}
      objectVariables: []
      materialVariables: []
      textureVariables: []
      arrayVariables:
      - useVariable: 1
        name: namesForDestroy
        tooltip: 
        showInInspector: 0
        networkSync: 0
        type: 4
        objectTypeName: UnityEngine.Object
        floatValues: []
        intValues: 
        boolValues: 
        stringValues: []
        vector4Values: []
        objectReferences: []
      enumVariables: []
      categories:
      - 
      variableCategoryIDs: 000000000000000000000000000000000000000000000000000000000000000000000000
    description: 
    docUrl: 
    showStateLabel: 1
    maxLoopCount: 0
    watermark: 
    password: 
    locked: 0
    manualUpdate: 0
    keepDelayedEventsOnStateExit: 0
    preprocessed: 0
    ExposedEvents: []
    RestartOnEnable: 1
    EnableDebugFlow: 0
    EnableBreakpoints: 1
    editorFlags: 3
    activeStateName: 
    mouseEvents: 0
    handleTriggerEnter2D: 0
    handleTriggerExit2D: 0
    handleTriggerStay2D: 0
    handleCollisionEnter2D: 0
    handleCollisionExit2D: 0
    handleCollisionStay2D: 0
    handleTriggerEnter: 0
    handleTriggerExit: 0
    handleTriggerStay: 0
    handleCollisionEnter: 0
    handleCollisionExit: 0
    handleCollisionStay: 0
    handleControllerColliderHit: 0
    handleOnGUI: 0
    handleFixedUpdate: 0
    handleApplicationEvents: 0
    handleAnimatorMove: 0
    handleAnimatorIK: 0
