%YAML 1.1
%TAG !u! tag:unity3d.com,2011:
--- !u!114 &11400000
MonoBehaviour:
  m_ObjectHideFlags: 0
  m_PrefabParentObject: {fileID: 0}
  m_PrefabInternal: {fileID: 0}
  m_GameObject: {fileID: 0}
  m_Enabled: 1
  m_EditorHideFlags: 0
  m_Script: {fileID: 1219815696, guid: de72a6d2da64d114d95e3c5a01cfaec5, type: 3}
  m_Name: RM_VOD_HeadControl
  m_EditorClassIdentifier: 
  category: General
  fsm:
    dataVersion: 1
    usedInTemplate: {fileID: 11400000}
    name: FSM
    startState: GetParams
    states:
    - name: WaitMD
      description: 
      colorIndex: 0
      position:
        serializedVersion: 2
        x: 73
        y: 157
        width: 127
        height: 32
      isBreakpoint: 0
      isSequence: 0
      hideUnused: 0
      transitions:
      - fsmEvent:
          name: MouseMT/Down
          isSystemEvent: 0
          isGlobal: 1
        toState: Moving
        linkStyle: 0
        linkConstraint: 0
        colorIndex: 0
      actionData:
        actionNames: []
        customNames: []
        actionEnabled: 
        actionIsOpen: 
        actionStartIndex: 
        actionHashCodes: 
        unityObjectParams: []
        fsmGameObjectParams: []
        fsmOwnerDefaultParams: []
        animationCurveParams: []
        functionCallParams: []
        fsmTemplateControlParams: []
        fsmEventTargetParams: []
        fsmPropertyParams: []
        layoutOptionParams: []
        fsmStringParams: []
        fsmObjectParams: []
        fsmVarParams: []
        fsmArrayParams: []
        fsmEnumParams: []
        fsmFloatParams: []
        fsmIntParams: []
        fsmBoolParams: []
        fsmVector2Params: []
        fsmVector3Params: []
        fsmColorParams: []
        fsmRectParams: []
        fsmQuaternionParams: []
        stringParams: []
        byteData: 
        arrayParamSizes: 
        arrayParamTypes: []
        customTypeSizes: 
        customTypeNames: []
        paramDataType: 
        paramName: []
        paramDataPos: 
        paramByteDataSize: 
    - name: Moving
      description: 
      colorIndex: 0
      position:
        serializedVersion: 2
        x: 86.63281
        y: 252.98438
        width: 100
        height: 48
      isBreakpoint: 0
      isSequence: 0
      hideUnused: 0
      transitions:
      - fsmEvent:
          name: FINISHED
          isSystemEvent: 1
          isGlobal: 1
        toState: NotUnderFinger
        linkStyle: 0
        linkConstraint: 0
        colorIndex: 0
      - fsmEvent:
          name: goToLorry
          isSystemEvent: 0
          isGlobal: 1
        toState: GoToLorry
        linkStyle: 0
        linkConstraint: 0
        colorIndex: 0
      actionData:
        actionNames:
        - HutongGames.PlayMaker.Actions.RZ_SetPlayingAnimationTime
        - HutongGames.PlayMaker.Actions.SendEvent
        - HutongGames.PlayMaker.Actions.SendEvent
        - HutongGames.PlayMaker.Actions.SendEvent
        - HutongGames.PlayMaker.Actions.SendEvent
        - HutongGames.PlayMaker.Actions.RZ_ShadowController
        - HutongGames.PlayMaker.Actions.RZ_FollowMouse
        - HutongGames.PlayMaker.Actions.RZ_PlayWithSound
        - HutongGames.PlayMaker.Actions.RZ_GetDistance
        customNames:
        - 
        - 
        - 
        - 
        - 
        - 
        - 
        - 
        - 
        actionEnabled: 010101010101010101
        actionIsOpen: 000000000000000000
        actionStartIndex: 0000000004000000080000000c0000001000000014000000190000002a00000035000000
        actionHashCodes: b7549e045e69bb045e69bb045e69bb045e69bb0479ff37058cfff6023a21710540cbc100
        unityObjectParams: []
        fsmGameObjectParams: []
        fsmOwnerDefaultParams:
        - ownerOption: 1
          gameObject:
            useVariable: 1
            name: parent
            tooltip: 
            showInInspector: 0
            networkSync: 0
            value: {fileID: 0}
        - ownerOption: 0
          gameObject:
            useVariable: 0
            name: 
            tooltip: 
            showInInspector: 0
            networkSync: 0
            value: {fileID: 0}
        - ownerOption: 0
          gameObject:
            useVariable: 0
            name: 
            tooltip: 
            showInInspector: 0
            networkSync: 0
            value: {fileID: 0}
        - ownerOption: 1
          gameObject:
            useVariable: 1
            name: animHead
            tooltip: 
            showInInspector: 0
            networkSync: 0
            value: {fileID: 0}
        - ownerOption: 1
          gameObject:
            useVariable: 1
            name: centerObj
            tooltip: 
            showInInspector: 0
            networkSync: 0
            value: {fileID: 0}
        - ownerOption: 1
          gameObject:
            useVariable: 1
            name: RM/VOD/NeedPosInLorry
            tooltip: 
            showInInspector: 0
            networkSync: 0
            value: {fileID: 0}
        animationCurveParams: []
        functionCallParams: []
        fsmTemplateControlParams: []
        fsmEventTargetParams:
        - target: 1
          excludeSelf:
            useVariable: 0
            name: 
            tooltip: 
            showInInspector: 0
            networkSync: 0
            value: 0
          gameObject:
            ownerOption: 1
            gameObject:
              useVariable: 1
              name: animHead
              tooltip: 
              showInInspector: 0
              networkSync: 0
              value: {fileID: 0}
          fsmName:
            useVariable: 0
            name: 
            tooltip: 
            showInInspector: 0
            networkSync: 0
            value: 
          sendToChildren:
            useVariable: 0
            name: 
            tooltip: 
            showInInspector: 0
            networkSync: 0
            value: 0
          fsmComponent: {fileID: 0}
        - target: 1
          excludeSelf:
            useVariable: 0
            name: 
            tooltip: 
            showInInspector: 0
            networkSync: 0
            value: 0
          gameObject:
            ownerOption: 1
            gameObject:
              useVariable: 1
              name: parent
              tooltip: 
              showInInspector: 0
              networkSync: 0
              value: {fileID: 0}
          fsmName:
            useVariable: 0
            name: 
            tooltip: 
            showInInspector: 0
            networkSync: 0
            value: 
          sendToChildren:
            useVariable: 0
            name: 
            tooltip: 
            showInInspector: 0
            networkSync: 0
            value: 0
          fsmComponent: {fileID: 0}
        - target: 1
          excludeSelf:
            useVariable: 0
            name: 
            tooltip: 
            showInInspector: 0
            networkSync: 0
            value: 0
          gameObject:
            ownerOption: 1
            gameObject:
              useVariable: 1
              name: RM/VOD/NeedPosInLorry
              tooltip: 
              showInInspector: 0
              networkSync: 0
              value: {fileID: 0}
          fsmName:
            useVariable: 0
            name: 
            tooltip: 
            showInInspector: 0
            networkSync: 0
            value: 
          sendToChildren:
            useVariable: 0
            name: 
            tooltip: 
            showInInspector: 0
            networkSync: 0
            value: 0
          fsmComponent: {fileID: 0}
        - target: 1
          excludeSelf:
            useVariable: 0
            name: 
            tooltip: 
            showInInspector: 0
            networkSync: 0
            value: 0
          gameObject:
            ownerOption: 1
            gameObject:
              useVariable: 1
              name: RM/VOD/Hand
              tooltip: 
              showInInspector: 0
              networkSync: 0
              value: {fileID: 0}
          fsmName:
            useVariable: 0
            name: 
            tooltip: 
            showInInspector: 0
            networkSync: 0
            value: 
          sendToChildren:
            useVariable: 0
            name: 
            tooltip: 
            showInInspector: 0
            networkSync: 0
            value: 0
          fsmComponent: {fileID: 0}
        - target: 4
          excludeSelf:
            useVariable: 0
            name: 
            tooltip: 
            showInInspector: 0
            networkSync: 0
            value: 0
          gameObject:
            ownerOption: 0
            gameObject:
              useVariable: 0
              name: 
              tooltip: 
              showInInspector: 0
              networkSync: 0
              value: {fileID: 0}
          fsmName:
            useVariable: 0
            name: 
            tooltip: 
            showInInspector: 0
            networkSync: 0
            value: 
          sendToChildren:
            useVariable: 0
            name: 
            tooltip: 
            showInInspector: 0
            networkSync: 0
            value: 0
          fsmComponent: {fileID: 0}
        fsmPropertyParams: []
        layoutOptionParams: []
        fsmStringParams:
        - useVariable: 0
          name: 
          tooltip: 
          showInInspector: 0
          networkSync: 0
          value: PERS_PodPalcem
        - useVariable: 1
          name: volTag
          tooltip: 
          showInInspector: 0
          networkSync: 0
          value: 
        fsmObjectParams: []
        fsmVarParams: []
        fsmArrayParams: []
        fsmEnumParams: []
        fsmFloatParams: []
        fsmIntParams: []
        fsmBoolParams: []
        fsmVector2Params: []
        fsmVector3Params: []
        fsmColorParams: []
        fsmRectParams: []
        fsmQuaternionParams: []
        stringParams: []
        byteData: 000000000001000000524d2f564f442f5361794d794e616d65000000000000524d2f564f442f466f6f64556e64657246696e6765724e6f77000000000000524d2f564f442f466f6f64556e64657246696e6765724e6f77000000000000524d2f564f442f466f6f64556e64657246696e6765724e6f770000000000009a99193e0000002041000000cdcc8c3f009a99193e0046494e495348454400001643000100000000000100010000000000000000000000000000000000000080bb4500524d2f564f442f466f6f644e6f74556e64657246696e6765724e6f770000803f00cdcccc3e014646322f566f6c756d652f466f6f6446696e676572010000000000000000964300676f546f4c6f72727901000000
        arrayParamSizes: 00000000
        arrayParamTypes:
        - HutongGames.PlayMaker.FsmVector3
        customTypeSizes: 
        customTypeNames: []
        paramDataType: 140000000f00000011000000110000001f000000170000000f000000010000001f000000170000000f000000010000001f000000170000000f000000010000001f000000170000000f00000001000000140000000f0000000f0000001700000011000000140000000f0000000f000000170000000f0000001100000011000000110000001100000011000000110000001c000000110000000c0000000f0000001f0000001700000014000000120000000f0000000f0000001700000017000000110000001100000011000000120000000100000014000000140000000f0000001700000007000000
        paramName:
        - gameObject
        - animTime
        - normalize
        - everyFrame
        - eventTarget
        - sendEvent
        - delay
        - everyFrame
        - eventTarget
        - sendEvent
        - delay
        - everyFrame
        - eventTarget
        - sendEvent
        - delay
        - everyFrame
        - eventTarget
        - sendEvent
        - delay
        - everyFrame
        - GameObject
        - time
        - GoalDistance
        - finishEvent
        - OFF
        - movementGO
        - scaleMultiplier
        - ScaleTime
        - onMouseUp
        - z
        - resetZ
        - StopX
        - StopY
        - ResetScale
        - moveToStart
        - useOtherStartPosition
        - otherStartPositions
        - useIntermediatePositions
        - intermediatePositions
        - speed
        - target
        - FinishMoveToStartEvent
        - gameObject
        - animName
        - Speed
        - audioVolume
        - finishEvent
        - StartedEvent
        - LoopMode
        - Identifier
        - NeedToWaitForEndPrevAnim
        - highLowMedium
        - stopOnExit
        - GOfrom
        - GOto
        - targetDistance
        - Exit
        - GreaterLess
        paramDataPos: 000000000000000005000000070000000000000009000000190000001e000000010000001f000000380000003d000000020000003e000000570000005c000000030000005d000000760000007b000000010000007c00000081000000860000008600000002000000880000008d000000920000009a0000009f000000a1000000a3000000a5000000a7000000a9000000ab000000b800000000000000ba00000004000000bf0000000300000000000000db000000e0000000fa000000fa000000fa000000fc000000fe0000000100000000010000040000000500000001010000060100000f010000
        paramByteDataSize: 0000000005000000020000000200000000000000100000000500000001000000000000001900000005000000010000000000000019000000050000000100000000000000190000000500000001000000000000000500000005000000000000000200000000000000050000000500000008000000050000000200000002000000020000000200000002000000020000000d000000020000000000000005000000000000001c0000000000000000000000050000001a000000000000000000000002000000020000000200000000000000010000000000000000000000050000000900000004000000
    - name: GoToLorry
      description: 
      colorIndex: 0
      position:
        serializedVersion: 2
        x: 86.71094
        y: 325.85156
        width: 100
        height: 32
      isBreakpoint: 0
      isSequence: 0
      hideUnused: 0
      transitions:
      - fsmEvent:
          name: FINISHED
          isSystemEvent: 1
          isGlobal: 1
        toState: CallLorry
        linkStyle: 0
        linkConstraint: 0
        colorIndex: 0
      actionData:
        actionNames:
        - HutongGames.PlayMaker.Actions.RZ_ResetPlayingAnimation
        - HutongGames.PlayMaker.Actions.SendEvent
        - HutongGames.PlayMaker.Actions.RZ_GetChild
        - HutongGames.PlayMaker.Actions.RZ_SetParent
        - HutongGames.PlayMaker.Actions.iTweenMoveTo
        - HutongGames.PlayMaker.Actions.iTweenScaleTo
        - HutongGames.PlayMaker.Actions.RZ_ShadowController
        customNames:
        - 
        - 
        - 
        - 
        - 
        - 
        - 
        actionEnabled: 01010101010101
        actionIsOpen: 00000000000001
        actionStartIndex: 0000000002000000060000000b0000000f0000002800000036000000
        actionHashCodes: f6128c005e69bb04215717045c8554057bce76049cadd20479ff3705
        unityObjectParams: []
        fsmGameObjectParams:
        - useVariable: 1
          name: needPosition
          tooltip: 
          showInInspector: 0
          networkSync: 0
          value: {fileID: 0}
        - useVariable: 1
          name: 
          tooltip: 
          showInInspector: 0
          networkSync: 0
          value: {fileID: 0}
        - useVariable: 1
          name: 
          tooltip: 
          showInInspector: 0
          networkSync: 0
          value: {fileID: 0}
        - useVariable: 1
          name: 
          tooltip: 
          showInInspector: 0
          networkSync: 0
          value: {fileID: 0}
        fsmOwnerDefaultParams:
        - ownerOption: 1
          gameObject:
            useVariable: 1
            name: animHead
            tooltip: 
            showInInspector: 0
            networkSync: 0
            value: {fileID: 0}
        - ownerOption: 1
          gameObject:
            useVariable: 1
            name: RM/VOD/NeedPosInLorry
            tooltip: 
            showInInspector: 0
            networkSync: 0
            value: {fileID: 0}
        - ownerOption: 0
          gameObject:
            useVariable: 0
            name: 
            tooltip: 
            showInInspector: 0
            networkSync: 0
            value: {fileID: 0}
        - ownerOption: 1
          gameObject:
            useVariable: 1
            name: needPosition
            tooltip: 
            showInInspector: 0
            networkSync: 0
            value: {fileID: 0}
        - ownerOption: 0
          gameObject:
            useVariable: 0
            name: 
            tooltip: 
            showInInspector: 0
            networkSync: 0
            value: {fileID: 0}
        - ownerOption: 0
          gameObject:
            useVariable: 0
            name: 
            tooltip: 
            showInInspector: 0
            networkSync: 0
            value: {fileID: 0}
        - ownerOption: 0
          gameObject:
            useVariable: 0
            name: 
            tooltip: 
            showInInspector: 0
            networkSync: 0
            value: {fileID: 0}
        animationCurveParams: []
        functionCallParams: []
        fsmTemplateControlParams: []
        fsmEventTargetParams:
        - target: 1
          excludeSelf:
            useVariable: 0
            name: 
            tooltip: 
            showInInspector: 0
            networkSync: 0
            value: 0
          gameObject:
            ownerOption: 1
            gameObject:
              useVariable: 1
              name: parent
              tooltip: 
              showInInspector: 0
              networkSync: 0
              value: {fileID: 0}
          fsmName:
            useVariable: 0
            name: 
            tooltip: 
            showInInspector: 0
            networkSync: 0
            value: 
          sendToChildren:
            useVariable: 0
            name: 
            tooltip: 
            showInInspector: 0
            networkSync: 0
            value: 0
          fsmComponent: {fileID: 0}
        fsmPropertyParams: []
        layoutOptionParams: []
        fsmStringParams:
        - useVariable: 0
          name: 
          tooltip: 
          showInInspector: 0
          networkSync: 0
          value: SHADOW
        - useVariable: 0
          name: 
          tooltip: 
          showInInspector: 0
          networkSync: 0
          value: Untagged
        - useVariable: 1
          name: 
          tooltip: 
          showInInspector: 0
          networkSync: 0
          value: 
        - useVariable: 1
          name: 
          tooltip: 
          showInInspector: 0
          networkSync: 0
          value: 
        fsmObjectParams: []
        fsmVarParams: []
        fsmArrayParams: []
        fsmEnumParams: []
        fsmFloatParams: []
        fsmIntParams: []
        fsmBoolParams: []
        fsmVector2Params: []
        fsmVector3Params: []
        fsmColorParams: []
        fsmRectParams: []
        fsmQuaternionParams: []
        stringParams: []
        byteData: 524d2f564f442f466f6f64556e64657246696e6765724e6f770000000000000000000000000000000000000000000080bf000000803e00000000000000000000010100000015000000000000000000000000000000000000000000010000000001000000000100000000000100000000000000000000803f0000803f0000803f000000803e0000000000000000000001150000000000000046494e4953484544000000000000000000000000000000000100
        arrayParamSizes: 010000000000000000000000
        arrayParamTypes:
        - HutongGames.PlayMaker.FsmOwnerDefault
        - HutongGames.PlayMaker.FsmGameObject
        - HutongGames.PlayMaker.FsmVector3
        customTypeSizes: 
        customTypeNames: []
        paramDataType: 0c000000140000001f000000170000000f000000010000001400000012000000120000001300000011000000140000001400000011000000110000001400000012000000130000001c0000000f0000000f0000000f00000007000000070000000700000011000000130000001c0000000f00000007000000110000000f0000000c0000000c0000001100000017000000170000001100000011000000110000001400000012000000130000001c0000000f0000000f0000000f00000007000000070000001700000017000000110000001100000011000000140000000f0000000f0000001700000011000000
        paramName:
        - gameObject
        - 
        - eventTarget
        - sendEvent
        - delay
        - everyFrame
        - gameObject
        - childName
        - withTag
        - storeResult
        - everyFrame
        - gameObject
        - parent
        - resetLocalPosition
        - resetLocalRotation
        - gameObject
        - id
        - transformPosition
        - vectorPosition
        - time
        - delay
        - speed
        - space
        - easeType
        - loopType
        - orientToPath
        - lookAtObject
        - lookAtVector
        - lookTime
        - axis
        - moveToPath
        - lookAhead
        - transforms
        - vectors
        - reverse
        - startEvent
        - finishEvent
        - realTime
        - stopOnExit
        - loopDontFinish
        - gameObject
        - id
        - transformScale
        - vectorScale
        - time
        - delay
        - speed
        - easeType
        - loopType
        - startEvent
        - finishEvent
        - realTime
        - stopOnExit
        - loopDontFinish
        - GameObject
        - time
        - GoalDistance
        - finishEvent
        - OFF
        paramDataPos: 00000000000000000000000000000000190000001e000000010000000000000001000000000000001f000000020000000300000021000000230000000400000002000000010000002500000032000000370000003c0000004100000045000000490000004d000000020000004f0000005c00000061000000650000006700000001000000020000006c0000006e0000006e0000006e00000070000000720000000500000003000000030000007400000081000000860000008b00000090000000940000009800000098000000a0000000a2000000a400000006000000a6000000ab000000b0000000b0000000
        paramByteDataSize: 0000000000000000000000001900000005000000010000000000000000000000000000000000000002000000000000000000000002000000020000000000000000000000000000000d00000005000000050000000500000004000000040000000400000002000000000000000d0000000500000004000000020000000500000000000000000000000200000000000000000000000200000002000000020000000000000000000000000000000d000000050000000500000005000000040000000400000000000000080000000200000002000000020000000000000005000000050000000000000002000000
    - name: GetParams
      description: 
      colorIndex: 0
      position:
        serializedVersion: 2
        x: 51
        y: 110.88281
        width: 161
        height: 32
      isBreakpoint: 0
      isSequence: 0
      hideUnused: 0
      transitions:
      - fsmEvent:
          name: RM/VOD/PlantReady
          isSystemEvent: 0
          isGlobal: 1
        toState: WaitMD
        linkStyle: 0
        linkConstraint: 0
        colorIndex: 0
      actionData:
        actionNames:
        - HutongGames.PlayMaker.Actions.GetParent
        - HutongGames.PlayMaker.Actions.GetOwner
        - HutongGames.PlayMaker.Actions.RZ_GetChild
        - HutongGames.PlayMaker.Actions.RZ_GetChild
        - HutongGames.PlayMaker.Actions.RZ_GetTag
        - HutongGames.PlayMaker.Actions.RZ_GetChild
        customNames:
        - 
        - 
        - 
        - 
        - 
        - 
        actionEnabled: 010101010101
        actionIsOpen: 000000000000
        actionStartIndex: 000000000200000003000000080000000d00000010000000
        actionHashCodes: d97b72025c0045052157170421571704599a930521571704
        unityObjectParams: []
        fsmGameObjectParams:
        - useVariable: 1
          name: parent
          tooltip: 
          showInInspector: 0
          networkSync: 0
          value: {fileID: 0}
        - useVariable: 1
          name: this
          tooltip: 
          showInInspector: 0
          networkSync: 0
          value: {fileID: 0}
        - useVariable: 1
          name: centerObj
          tooltip: 
          showInInspector: 0
          networkSync: 0
          value: {fileID: 0}
        - useVariable: 1
          name: animHead
          tooltip: 
          showInInspector: 0
          networkSync: 0
          value: {fileID: 0}
        - useVariable: 1
          name: pers
          tooltip: 
          showInInspector: 0
          networkSync: 0
          value: {fileID: 0}
        fsmOwnerDefaultParams:
        - ownerOption: 0
          gameObject:
            useVariable: 0
            name: 
            tooltip: 
            showInInspector: 0
            networkSync: 0
            value: {fileID: 0}
        - ownerOption: 0
          gameObject:
            useVariable: 0
            name: 
            tooltip: 
            showInInspector: 0
            networkSync: 0
            value: {fileID: 0}
        - ownerOption: 0
          gameObject:
            useVariable: 0
            name: 
            tooltip: 
            showInInspector: 0
            networkSync: 0
            value: {fileID: 0}
        - ownerOption: 1
          gameObject:
            useVariable: 1
            name: animHead
            tooltip: 
            showInInspector: 0
            networkSync: 0
            value: {fileID: 0}
        - ownerOption: 1
          gameObject:
            useVariable: 1
            name: RM/VOD/CarControl
            tooltip: 
            showInInspector: 0
            networkSync: 0
            value: {fileID: 0}
        animationCurveParams: []
        functionCallParams: []
        fsmTemplateControlParams: []
        fsmEventTargetParams: []
        fsmPropertyParams: []
        layoutOptionParams: []
        fsmStringParams:
        - useVariable: 0
          name: 
          tooltip: 
          showInInspector: 0
          networkSync: 0
          value: center
        - useVariable: 0
          name: 
          tooltip: 
          showInInspector: 0
          networkSync: 0
          value: Untagged
        - useVariable: 0
          name: 
          tooltip: 
          showInInspector: 0
          networkSync: 0
          value: HEAD
        - useVariable: 1
          name: 
          tooltip: 
          showInInspector: 0
          networkSync: 0
          value: 
        - useVariable: 1
          name: volTag
          tooltip: 
          showInInspector: 0
          networkSync: 0
          value: 
        - useVariable: 0
          name: 
          tooltip: 
          showInInspector: 0
          networkSync: 0
          value: PERS_CONTROL
        - useVariable: 0
          name: 
          tooltip: 
          showInInspector: 0
          networkSync: 0
          value: Untagged
        fsmObjectParams: []
        fsmVarParams: []
        fsmArrayParams: []
        fsmEnumParams: []
        fsmFloatParams: []
        fsmIntParams: []
        fsmBoolParams: []
        fsmVector2Params: []
        fsmVector3Params: []
        fsmColorParams: []
        fsmRectParams: []
        fsmQuaternionParams: []
        stringParams: []
        byteData: 00000000000000
        arrayParamSizes: 
        arrayParamTypes: []
        customTypeSizes: 
        customTypeNames: []
        paramDataType: 140000001300000013000000140000001200000012000000130000001100000014000000120000001200000013000000110000001400000012000000010000001400000012000000120000001300000011000000
        paramName:
        - gameObject
        - storeResult
        - storeGameObject
        - gameObject
        - childName
        - withTag
        - storeResult
        - everyFrame
        - gameObject
        - childName
        - withTag
        - storeResult
        - everyFrame
        - gameObject
        - storeResult
        - everyFrame
        - gameObject
        - childName
        - withTag
        - storeResult
        - everyFrame
        paramDataPos: 000000000000000001000000010000000000000001000000020000000000000002000000020000000300000003000000020000000300000004000000040000000400000005000000060000000400000005000000
        paramByteDataSize: 000000000000000000000000000000000000000000000000000000000200000000000000000000000000000000000000020000000000000000000000010000000000000000000000000000000000000002000000
    - name: CallLorry
      description: 
      colorIndex: 0
      position:
        serializedVersion: 2
        x: 85.52344
        y: 373.73438
        width: 100
        height: 32
      isBreakpoint: 0
      isSequence: 0
      hideUnused: 0
      transitions:
      - fsmEvent:
          name: FINISHED
          isSystemEvent: 1
          isGlobal: 1
        toState: AllowHand
        linkStyle: 0
        linkConstraint: 0
        colorIndex: 0
      actionData:
        actionNames:
        - HutongGames.PlayMaker.Actions.RZ_SetParent
        - HutongGames.PlayMaker.Actions.SetActiveGO
        - HutongGames.PlayMaker.Actions.IntAdd
        - HutongGames.PlayMaker.Actions.GetParent
        - HutongGames.PlayMaker.Actions.SendEvent
        - HutongGames.PlayMaker.Actions.SendEvent
        - HutongGames.PlayMaker.Actions.SendEvent
        customNames:
        - 
        - 
        - 
        - 
        - 
        - 
        - 
        actionEnabled: 01010101010101
        actionIsOpen: 00010000000001
        actionStartIndex: 000000000400000006000000090000000b0000000f00000013000000
        actionHashCodes: 5c85540515264c01603dd905d97b72025e69bb045e69bb045e69bb04
        unityObjectParams: []
        fsmGameObjectParams:
        - useVariable: 1
          name: posParent
          tooltip: 
          showInInspector: 0
          networkSync: 0
          value: {fileID: 0}
        fsmOwnerDefaultParams:
        - ownerOption: 0
          gameObject:
            useVariable: 0
            name: 
            tooltip: 
            showInInspector: 0
            networkSync: 0
            value: {fileID: 0}
        - ownerOption: 1
          gameObject:
            useVariable: 1
            name: RM/VOD/NeedPosInLorry
            tooltip: 
            showInInspector: 0
            networkSync: 0
            value: {fileID: 0}
        - ownerOption: 1
          gameObject:
            useVariable: 1
            name: needPosition
            tooltip: 
            showInInspector: 0
            networkSync: 0
            value: {fileID: 0}
        - ownerOption: 1
          gameObject:
            useVariable: 1
            name: RM/VOD/NeedPosInLorry
            tooltip: 
            showInInspector: 0
            networkSync: 0
            value: {fileID: 0}
        animationCurveParams: []
        functionCallParams: []
        fsmTemplateControlParams: []
        fsmEventTargetParams:
        - target: 1
          excludeSelf:
            useVariable: 0
            name: 
            tooltip: 
            showInInspector: 0
            networkSync: 0
            value: 0
          gameObject:
            ownerOption: 1
            gameObject:
              useVariable: 1
              name: RM/VOD/NeedPosInLorry
              tooltip: 
              showInInspector: 0
              networkSync: 0
              value: {fileID: 0}
          fsmName:
            useVariable: 0
            name: 
            tooltip: 
            showInInspector: 0
            networkSync: 0
            value: 
          sendToChildren:
            useVariable: 0
            name: 
            tooltip: 
            showInInspector: 0
            networkSync: 0
            value: 1
          fsmComponent: {fileID: 0}
        - target: 1
          excludeSelf:
            useVariable: 0
            name: 
            tooltip: 
            showInInspector: 0
            networkSync: 0
            value: 0
          gameObject:
            ownerOption: 1
            gameObject:
              useVariable: 1
              name: posParent
              tooltip: 
              showInInspector: 0
              networkSync: 0
              value: {fileID: 0}
          fsmName:
            useVariable: 0
            name: 
            tooltip: 
            showInInspector: 0
            networkSync: 0
            value: 
          sendToChildren:
            useVariable: 0
            name: 
            tooltip: 
            showInInspector: 0
            networkSync: 0
            value: 0
          fsmComponent: {fileID: 0}
        - target: 1
          excludeSelf:
            useVariable: 0
            name: 
            tooltip: 
            showInInspector: 0
            networkSync: 0
            value: 0
          gameObject:
            ownerOption: 1
            gameObject:
              useVariable: 1
              name: pers
              tooltip: 
              showInInspector: 0
              networkSync: 0
              value: {fileID: 0}
          fsmName:
            useVariable: 0
            name: 
            tooltip: 
            showInInspector: 0
            networkSync: 0
            value: 
          sendToChildren:
            useVariable: 0
            name: 
            tooltip: 
            showInInspector: 0
            networkSync: 0
            value: 1
          fsmComponent: {fileID: 0}
        fsmPropertyParams: []
        layoutOptionParams: []
        fsmStringParams: []
        fsmObjectParams: []
        fsmVarParams: []
        fsmArrayParams: []
        fsmEnumParams: []
        fsmFloatParams: []
        fsmIntParams: []
        fsmBoolParams: []
        fsmVector2Params: []
        fsmVector3Params: []
        fsmColorParams: []
        fsmRectParams: []
        fsmQuaternionParams: []
        stringParams: []
        byteData: 0000000000000000000001524d2f564f442f546f74616c436f756e7465724f66466f6f64010000000000524d2f564f442f466f6f6465436f6d65546f4c6f727279000000000000524d2f564f442f466f6f6465436f6d65546f4c6f727279000000000000524d2f564f442f466f6f6465436f6d65546f4c6f727279000000000000
        arrayParamSizes: 
        arrayParamTypes: []
        customTypeSizes: 
        customTypeNames: []
        paramDataType: 14000000140000001100000011000000140000001100000010000000100000000100000014000000130000001f000000170000000f000000010000001f000000170000000f000000010000001f000000170000000f00000001000000
        paramName:
        - gameObject
        - parent
        - resetLocalPosition
        - resetLocalRotation
        - gameObject
        - IsActive
        - intVariable
        - add
        - everyFrame
        - gameObject
        - storeResult
        - eventTarget
        - sendEvent
        - delay
        - everyFrame
        - eventTarget
        - sendEvent
        - delay
        - everyFrame
        - eventTarget
        - sendEvent
        - delay
        - everyFrame
        paramDataPos: 0000000001000000000000000200000002000000040000000600000024000000290000000300000000000000000000002a000000410000004600000001000000470000005e0000006300000002000000640000007b00000080000000
        paramByteDataSize: 0000000000000000020000000200000000000000020000001e00000005000000010000000000000000000000000000001700000005000000010000000000000017000000050000000100000000000000170000000500000001000000
    - name: RandWait
      description: 
      colorIndex: 0
      position:
        serializedVersion: 2
        x: 83.88281
        y: 484.1875
        width: 100
        height: 32
      isBreakpoint: 0
      isSequence: 0
      hideUnused: 0
      transitions:
      - fsmEvent:
          name: FINISHED
          isSystemEvent: 1
          isGlobal: 1
        toState: PlayAnim
        linkStyle: 0
        linkConstraint: 0
        colorIndex: 0
      actionData:
        actionNames:
        - HutongGames.PlayMaker.Actions.RZ_RandomWait
        customNames:
        - 
        actionEnabled: 01
        actionIsOpen: 01
        actionStartIndex: 00000000
        actionHashCodes: 0d5f5c01
        unityObjectParams: []
        fsmGameObjectParams: []
        fsmOwnerDefaultParams: []
        animationCurveParams: []
        functionCallParams: []
        fsmTemplateControlParams: []
        fsmEventTargetParams: []
        fsmPropertyParams: []
        layoutOptionParams: []
        fsmStringParams: []
        fsmObjectParams: []
        fsmVarParams: []
        fsmArrayParams: []
        fsmEnumParams: []
        fsmFloatParams: []
        fsmIntParams: []
        fsmBoolParams: []
        fsmVector2Params: []
        fsmVector3Params: []
        fsmColorParams: []
        fsmRectParams: []
        fsmQuaternionParams: []
        stringParams: []
        byteData: 00000040000000a0400046494e495348454400
        arrayParamSizes: 
        arrayParamTypes: []
        customTypeSizes: 
        customTypeNames: []
        paramDataType: 0f0000000f0000001700000001000000
        paramName:
        - fromTime
        - toTime
        - finishEvent
        - realTime
        paramDataPos: 00000000050000000a00000012000000
        paramByteDataSize: 05000000050000000800000001000000
    - name: PlayAnim
      description: 
      colorIndex: 0
      position:
        serializedVersion: 2
        x: 90.07031
        y: 541.6328
        width: 100
        height: 32
      isBreakpoint: 0
      isSequence: 0
      hideUnused: 0
      transitions:
      - fsmEvent:
          name: FINISHED
          isSystemEvent: 1
          isGlobal: 1
        toState: RandWait
        linkStyle: 0
        linkConstraint: 0
        colorIndex: 0
      actionData:
        actionNames:
        - HutongGames.PlayMaker.Actions.SelectRandomString
        - HutongGames.PlayMaker.Actions.RZ_PlayWithSound
        customNames:
        - 
        - 
        actionEnabled: 0101
        actionIsOpen: 0100
        actionStartIndex: 0000000009000000
        actionHashCodes: 016028043a217105
        unityObjectParams: []
        fsmGameObjectParams: []
        fsmOwnerDefaultParams:
        - ownerOption: 1
          gameObject:
            useVariable: 1
            name: animHead
            tooltip: 
            showInInspector: 0
            networkSync: 0
            value: {fileID: 0}
        animationCurveParams: []
        functionCallParams: []
        fsmTemplateControlParams: []
        fsmEventTargetParams: []
        fsmPropertyParams: []
        layoutOptionParams: []
        fsmStringParams:
        - useVariable: 0
          name: 
          tooltip: 
          showInInspector: 0
          networkSync: 0
          value: HEAD_MORGAET
        - useVariable: 0
          name: 
          tooltip: 
          showInInspector: 0
          networkSync: 0
          value: HEAD_RADOST
        - useVariable: 0
          name: 
          tooltip: 
          showInInspector: 0
          networkSync: 0
          value: HEAD_UDIVLENIE
        - useVariable: 1
          name: animName
          tooltip: 
          showInInspector: 0
          networkSync: 0
          value: 
        - useVariable: 1
          name: animName
          tooltip: 
          showInInspector: 0
          networkSync: 0
          value: 
        - useVariable: 0
          name: 
          tooltip: 
          showInInspector: 0
          networkSync: 0
          value: 
        fsmObjectParams: []
        fsmVarParams: []
        fsmArrayParams: []
        fsmEnumParams: []
        fsmFloatParams: []
        fsmIntParams: []
        fsmBoolParams: []
        fsmVector2Params: []
        fsmVector3Params: []
        fsmColorParams: []
        fsmRectParams: []
        fsmQuaternionParams: []
        stringParams: []
        byteData: 0000803f000000803f000000803f000000803f009a99193e014646322f566f6c756d652f466f6f6452616e646f6d46494e495348454400000000000000
        arrayParamSizes: 0300000003000000
        arrayParamTypes:
        - HutongGames.PlayMaker.FsmString
        - HutongGames.PlayMaker.FsmFloat
        customTypeSizes: 
        customTypeNames: []
        paramDataType: 0c0000001200000012000000120000000c0000000f0000000f0000000f0000001200000014000000120000000f0000000f00000017000000170000001100000011000000110000001200000001000000
        paramName:
        - strings
        - 
        - 
        - 
        - weights
        - 
        - 
        - 
        - storeString
        - gameObject
        - animName
        - Speed
        - audioVolume
        - finishEvent
        - StartedEvent
        - LoopMode
        - Identifier
        - NeedToWaitForEndPrevAnim
        - highLowMedium
        - stopOnExit
        paramDataPos: 000000000000000001000000020000000100000000000000050000000a0000000300000000000000040000000f000000140000002e0000003600000036000000380000003a000000050000003c000000
        paramByteDataSize: 0000000000000000000000000000000000000000050000000500000005000000000000000000000000000000050000001a00000008000000000000000200000002000000020000000000000001000000
    - name: NotUnderFinger
      description: 
      colorIndex: 0
      position:
        serializedVersion: 2
        x: 74
        y: 207.52344
        width: 118
        height: 32
      isBreakpoint: 0
      isSequence: 0
      hideUnused: 0
      transitions:
      - fsmEvent:
          name: FINISHED
          isSystemEvent: 1
          isGlobal: 1
        toState: WaitMD
        linkStyle: 0
        linkConstraint: 0
        colorIndex: 0
      actionData:
        actionNames:
        - HutongGames.PlayMaker.Actions.SendEvent
        - HutongGames.PlayMaker.Actions.SendEvent
        - HutongGames.PlayMaker.Actions.RZ_ShadowController
        - HutongGames.PlayMaker.Actions.RZ_ResetPlayingAnimation
        customNames:
        - 
        - 
        - 
        - 
        actionEnabled: 01010101
        actionIsOpen: 00000000
        actionStartIndex: 0000000004000000080000000d000000
        actionHashCodes: 5e69bb045e69bb0479ff3705f6128c00
        unityObjectParams: []
        fsmGameObjectParams: []
        fsmOwnerDefaultParams:
        - ownerOption: 0
          gameObject:
            useVariable: 0
            name: 
            tooltip: 
            showInInspector: 0
            networkSync: 0
            value: {fileID: 0}
        - ownerOption: 1
          gameObject:
            useVariable: 1
            name: animHead
            tooltip: 
            showInInspector: 0
            networkSync: 0
            value: {fileID: 0}
        animationCurveParams: []
        functionCallParams: []
        fsmTemplateControlParams: []
        fsmEventTargetParams:
        - target: 1
          excludeSelf:
            useVariable: 0
            name: 
            tooltip: 
            showInInspector: 0
            networkSync: 0
            value: 0
          gameObject:
            ownerOption: 1
            gameObject:
              useVariable: 1
              name: RM/VOD/NeedPosInLorry
              tooltip: 
              showInInspector: 0
              networkSync: 0
              value: {fileID: 0}
          fsmName:
            useVariable: 0
            name: 
            tooltip: 
            showInInspector: 0
            networkSync: 0
            value: 
          sendToChildren:
            useVariable: 0
            name: 
            tooltip: 
            showInInspector: 0
            networkSync: 0
            value: 0
          fsmComponent: {fileID: 0}
        - target: 1
          excludeSelf:
            useVariable: 0
            name: 
            tooltip: 
            showInInspector: 0
            networkSync: 0
            value: 0
          gameObject:
            ownerOption: 1
            gameObject:
              useVariable: 1
              name: RM/VOD/Hand
              tooltip: 
              showInInspector: 0
              networkSync: 0
              value: {fileID: 0}
          fsmName:
            useVariable: 0
            name: 
            tooltip: 
            showInInspector: 0
            networkSync: 0
            value: 
          sendToChildren:
            useVariable: 0
            name: 
            tooltip: 
            showInInspector: 0
            networkSync: 0
            value: 0
          fsmComponent: {fileID: 0}
        fsmPropertyParams: []
        layoutOptionParams: []
        fsmStringParams: []
        fsmObjectParams: []
        fsmVarParams: []
        fsmArrayParams: []
        fsmEnumParams: []
        fsmFloatParams: []
        fsmIntParams: []
        fsmBoolParams: []
        fsmVector2Params: []
        fsmVector3Params: []
        fsmColorParams: []
        fsmRectParams: []
        fsmQuaternionParams: []
        stringParams: []
        byteData: 524d2f564f442f466f6f644e6f74556e64657246696e6765724e6f77000000000000524d2f564f442f466f6f644e6f74556e64657246696e6765724e6f77000000000000000000000000000000000100
        arrayParamSizes: 01000000
        arrayParamTypes:
        - HutongGames.PlayMaker.FsmOwnerDefault
        customTypeSizes: 
        customTypeNames: []
        paramDataType: 1f000000170000000f000000010000001f000000170000000f00000001000000140000000f0000000f00000017000000110000000c00000014000000
        paramName:
        - eventTarget
        - sendEvent
        - delay
        - everyFrame
        - eventTarget
        - sendEvent
        - delay
        - everyFrame
        - GameObject
        - time
        - GoalDistance
        - finishEvent
        - OFF
        - gameObject
        - 
        paramDataPos: 00000000000000001c0000002100000001000000220000003e000000430000000000000044000000490000004e0000004e0000000000000001000000
        paramByteDataSize: 000000001c0000000500000001000000000000001c000000050000000100000000000000050000000500000000000000020000000000000000000000
    - name: AllowHand
      description: 
      colorIndex: 0
      position:
        serializedVersion: 2
        x: 83.47656
        y: 424.89062
        width: 100
        height: 32
      isBreakpoint: 0
      isSequence: 0
      hideUnused: 0
      transitions:
      - fsmEvent:
          name: FINISHED
          isSystemEvent: 1
          isGlobal: 1
        toState: RandWait
        linkStyle: 0
        linkConstraint: 0
        colorIndex: 0
      actionData:
        actionNames:
        - HutongGames.PlayMaker.Actions.SendEvent
        customNames:
        - 
        actionEnabled: 01
        actionIsOpen: 01
        actionStartIndex: 00000000
        actionHashCodes: 5e69bb04
        unityObjectParams: []
        fsmGameObjectParams: []
        fsmOwnerDefaultParams: []
        animationCurveParams: []
        functionCallParams: []
        fsmTemplateControlParams: []
        fsmEventTargetParams:
        - target: 1
          excludeSelf:
            useVariable: 0
            name: 
            tooltip: 
            showInInspector: 0
            networkSync: 0
            value: 0
          gameObject:
            ownerOption: 1
            gameObject:
              useVariable: 1
              name: RM/VOD/Hand
              tooltip: 
              showInInspector: 0
              networkSync: 0
              value: {fileID: 0}
          fsmName:
            useVariable: 0
            name: 
            tooltip: 
            showInInspector: 0
            networkSync: 0
            value: 
          sendToChildren:
            useVariable: 0
            name: 
            tooltip: 
            showInInspector: 0
            networkSync: 0
            value: 0
          fsmComponent: {fileID: 0}
        fsmPropertyParams: []
        layoutOptionParams: []
        fsmStringParams: []
        fsmObjectParams: []
        fsmVarParams: []
        fsmArrayParams: []
        fsmEnumParams: []
        fsmFloatParams: []
        fsmIntParams: []
        fsmBoolParams: []
        fsmVector2Params: []
        fsmVector3Params: []
        fsmColorParams: []
        fsmRectParams: []
        fsmQuaternionParams: []
        stringParams: []
        byteData: 524d2f564f442f466f6f644e6f74556e64657246696e6765724e6f77000000000000
        arrayParamSizes: 
        arrayParamTypes: []
        customTypeSizes: 
        customTypeNames: []
        paramDataType: 1f000000170000000f00000001000000
        paramName:
        - eventTarget
        - sendEvent
        - delay
        - everyFrame
        paramDataPos: 00000000000000001c00000021000000
        paramByteDataSize: 000000001c0000000500000001000000
    - name: ResetAnim
      description: 
      colorIndex: 0
      position:
        serializedVersion: 2
        x: 262.72656
        y: 449.16406
        width: 181
        height: 32
      isBreakpoint: 0
      isSequence: 0
      hideUnused: 0
      transitions:
      - fsmEvent:
          name: FINISHED
          isSystemEvent: 1
          isGlobal: 1
        toState: SuperRadost
        linkStyle: 0
        linkConstraint: 0
        colorIndex: 0
      actionData:
        actionNames:
        - HutongGames.PlayMaker.Actions.RZ_SetPlayingAnimationTime
        - HutongGames.PlayMaker.Actions.RZ_RandomWait
        customNames:
        - 
        - 
        actionEnabled: 0101
        actionIsOpen: 0000
        actionStartIndex: 0000000004000000
        actionHashCodes: b7549e040d5f5c01
        unityObjectParams: []
        fsmGameObjectParams: []
        fsmOwnerDefaultParams:
        - ownerOption: 1
          gameObject:
            useVariable: 1
            name: animHead
            tooltip: 
            showInInspector: 0
            networkSync: 0
            value: {fileID: 0}
        animationCurveParams: []
        functionCallParams: []
        fsmTemplateControlParams: []
        fsmEventTargetParams: []
        fsmPropertyParams: []
        layoutOptionParams: []
        fsmStringParams: []
        fsmObjectParams: []
        fsmVarParams: []
        fsmArrayParams: []
        fsmEnumParams: []
        fsmFloatParams: []
        fsmIntParams: []
        fsmBoolParams: []
        fsmVector2Params: []
        fsmVector3Params: []
        fsmColorParams: []
        fsmRectParams: []
        fsmQuaternionParams: []
        stringParams: []
        byteData: 000000000001000000cdcccc3d009a99993e0046494e495348454400
        arrayParamSizes: 
        arrayParamTypes: []
        customTypeSizes: 
        customTypeNames: []
        paramDataType: 140000000f00000011000000110000000f0000000f0000001700000001000000
        paramName:
        - gameObject
        - animTime
        - normalize
        - everyFrame
        - fromTime
        - toTime
        - finishEvent
        - realTime
        paramDataPos: 00000000000000000500000007000000090000000e000000130000001b000000
        paramByteDataSize: 0000000005000000020000000200000005000000050000000800000001000000
    - name: SuperRadost
      description: 
      colorIndex: 0
      position:
        serializedVersion: 2
        x: 305.16406
        y: 494.03125
        width: 100
        height: 16
      isBreakpoint: 0
      isSequence: 0
      hideUnused: 0
      transitions: []
      actionData:
        actionNames:
        - HutongGames.PlayMaker.Actions.SelectRandomString
        - HutongGames.PlayMaker.Actions.RZ_PlayWithSound
        customNames:
        - 
        - 
        actionEnabled: 0101
        actionIsOpen: 0001
        actionStartIndex: 0000000007000000
        actionHashCodes: 016028043a217105
        unityObjectParams: []
        fsmGameObjectParams: []
        fsmOwnerDefaultParams:
        - ownerOption: 1
          gameObject:
            useVariable: 1
            name: animHead
            tooltip: 
            showInInspector: 0
            networkSync: 0
            value: {fileID: 0}
        animationCurveParams: []
        functionCallParams: []
        fsmTemplateControlParams: []
        fsmEventTargetParams: []
        fsmPropertyParams: []
        layoutOptionParams: []
        fsmStringParams:
        - useVariable: 0
          name: 
          tooltip: 
          showInInspector: 0
          networkSync: 0
          value: HEAD_SuperRadost
        - useVariable: 0
          name: 
          tooltip: 
          showInInspector: 0
          networkSync: 0
          value: HEAD_URA
        - useVariable: 1
          name: animName
          tooltip: 
          showInInspector: 0
          networkSync: 0
          value: 
        - useVariable: 1
          name: animName
          tooltip: 
          showInInspector: 0
          networkSync: 0
          value: 
        - useVariable: 0
          name: 
          tooltip: 
          showInInspector: 0
          networkSync: 0
          value: 
        fsmObjectParams: []
        fsmVarParams: []
        fsmArrayParams: []
        fsmEnumParams: []
        fsmFloatParams: []
        fsmIntParams: []
        fsmBoolParams: []
        fsmVector2Params: []
        fsmVector3Params: []
        fsmColorParams: []
        fsmRectParams: []
        fsmQuaternionParams: []
        stringParams: []
        byteData: 0000803f000000803f000000803f009a99193e014646322f566f6c756d652f466f6f6452616e646f6d00000000000000
        arrayParamSizes: 0200000002000000
        arrayParamTypes:
        - HutongGames.PlayMaker.FsmString
        - HutongGames.PlayMaker.FsmFloat
        customTypeSizes: 
        customTypeNames: []
        paramDataType: 0c00000012000000120000000c0000000f0000000f0000001200000014000000120000000f0000000f00000017000000170000001100000011000000110000001200000001000000
        paramName:
        - strings
        - 
        - 
        - weights
        - 
        - 
        - storeString
        - gameObject
        - animName
        - Speed
        - audioVolume
        - finishEvent
        - StartedEvent
        - LoopMode
        - Identifier
        - NeedToWaitForEndPrevAnim
        - highLowMedium
        - stopOnExit
        paramDataPos: 0000000000000000010000000100000000000000050000000200000000000000030000000a0000000f0000002900000029000000290000002b0000002d000000040000002f000000
        paramByteDataSize: 000000000000000000000000000000000500000005000000000000000000000000000000050000001a00000000000000000000000200000002000000020000000000000001000000
    events:
    - name: FINISHED
      isSystemEvent: 1
      isGlobal: 1
    - name: MOUSE DOWN
      isSystemEvent: 1
      isGlobal: 1
    - name: MouseMT/Down
      isSystemEvent: 0
      isGlobal: 1
    - name: RM/VOD/FoodDontResist
      isSystemEvent: 0
      isGlobal: 1
    - name: RM/VOD/FoodNotUnderFingerNow
      isSystemEvent: 0
      isGlobal: 1
    - name: RM/VOD/FoodUnderFingerNow
      isSystemEvent: 0
      isGlobal: 1
    - name: RM/VOD/FoodeComeToLorry
      isSystemEvent: 0
      isGlobal: 1
    - name: RM/VOD/PlantReady
      isSystemEvent: 0
      isGlobal: 1
    - name: RM/VOD/SuperRadostRay
      isSystemEvent: 0
      isGlobal: 1
    - name: goToLorry
      isSystemEvent: 0
      isGlobal: 1
    globalTransitions:
    - fsmEvent:
        name: RM/VOD/SuperRadostRay
        isSystemEvent: 0
        isGlobal: 1
      toState: ResetAnim
      linkStyle: 0
      linkConstraint: 0
      colorIndex: 0
    variables:
      floatVariables:
      - useVariable: 1
        name: distance
        tooltip: 
        showInInspector: 0
        networkSync: 0
        value: 0
      intVariables: []
      boolVariables: []
      stringVariables:
      - useVariable: 1
        name: animName
        tooltip: 
        showInInspector: 0
        networkSync: 0
        value: 
      - useVariable: 1
        name: volTag
        tooltip: 
        showInInspector: 0
        networkSync: 0
        value: 
      vector2Variables: []
      vector3Variables:
      - useVariable: 1
        name: currentPos
        tooltip: 
        showInInspector: 0
        networkSync: 0
        value: {x: 0, y: 0, z: 0}
      - useVariable: 1
        name: currentPosForCheck
        tooltip: 
        showInInspector: 0
        networkSync: 0
        value: {x: 0, y: 0, z: 0}
      - useVariable: 1
        name: needPos
        tooltip: 
        showInInspector: 0
        networkSync: 0
        value: {x: 0, y: 0, z: 0}
      - useVariable: 1
        name: needPosForCheck
        tooltip: 
        showInInspector: 0
        networkSync: 0
        value: {x: 0, y: 0, z: 0}
      colorVariables: []
      rectVariables: []
      quaternionVariables: []
      gameObjectVariables:
      - useVariable: 1
        name: animHead
        tooltip: 
        showInInspector: 0
        networkSync: 0
        value: {fileID: 0}
      - useVariable: 1
        name: centerObj
        tooltip: 
        showInInspector: 0
        networkSync: 0
        value: {fileID: 0}
      - useVariable: 1
        name: needPosition
        tooltip: 
        showInInspector: 0
        networkSync: 0
        value: {fileID: 0}
      - useVariable: 1
        name: parent
        tooltip: 
        showInInspector: 0
        networkSync: 0
        value: {fileID: 0}
      - useVariable: 1
        name: pers
        tooltip: 
        showInInspector: 0
        networkSync: 0
        value: {fileID: 0}
      - useVariable: 1
        name: posParent
        tooltip: 
        showInInspector: 0
        networkSync: 0
        value: {fileID: 0}
      - useVariable: 1
        name: this
        tooltip: 
        showInInspector: 0
        networkSync: 0
        value: {fileID: 0}
      objectVariables: []
      materialVariables: []
      textureVariables: []
      arrayVariables: []
      enumVariables: []
      categories:
      - 
      variableCategoryIDs: 0000000000000000000000000000000000000000000000000000000000000000000000000000000000000000000000000000000000000000
    description: 
    docUrl: 
    showStateLabel: 1
    maxLoopCount: 0
    watermark: 
    password: 
    locked: 0
    manualUpdate: 0
    keepDelayedEventsOnStateExit: 0
    preprocessed: 0
    ExposedEvents: []
    RestartOnEnable: 1
    EnableDebugFlow: 0
    EnableBreakpoints: 1
    editorFlags: 3
    activeStateName: 
    mouseEvents: 0
    handleTriggerEnter2D: 0
    handleTriggerExit2D: 0
    handleTriggerStay2D: 0
    handleCollisionEnter2D: 0
    handleCollisionExit2D: 0
    handleCollisionStay2D: 0
    handleTriggerEnter: 0
    handleTriggerExit: 0
    handleTriggerStay: 0
    handleCollisionEnter: 0
    handleCollisionExit: 0
    handleCollisionStay: 0
    handleControllerColliderHit: 0
    handleOnGUI: 0
    handleFixedUpdate: 0
    handleApplicationEvents: 0
    handleAnimatorMove: 0
    handleAnimatorIK: 0
