%YAML 1.1
%TAG !u! tag:unity3d.com,2011:
--- !u!114 &11400000
MonoBehaviour:
  m_ObjectHideFlags: 0
  m_PrefabParentObject: {fileID: 0}
  m_PrefabInternal: {fileID: 0}
  m_GameObject: {fileID: 0}
  m_Enabled: 1
  m_EditorHideFlags: 0
  m_Script: {fileID: 1219815696, guid: de72a6d2da64d114d95e3c5a01cfaec5, type: 3}
  m_Name: RN_PHO_PiecesControl
  m_EditorClassIdentifier: 
  category: General
  fsm:
    dataVersion: 2
    usedInTemplate: {fileID: 11400000}
    name: FSM
    startState: '-'
    states:
    - name: '-'
      description: 
      colorIndex: 0
      position:
        serializedVersion: 2
        x: 383.33594
        y: 114
        width: 100
        height: 16
      isBreakpoint: 0
      isSequence: 0
      hideUnused: 0
      transitions: []
      actionData:
        actionNames:
        - HutongGames.PlayMaker.Actions.SetFloatValue
        - HutongGames.PlayMaker.Actions.FloatOperator
        - HutongGames.PlayMaker.Actions.GetComponent
        customNames:
        - 
        - 
        - 
        actionEnabled: 010101
        actionIsOpen: 000000
        actionStartIndex: 000000000300000008000000
        actionHashCodes: 9845b3050cdb040504d81402
        unityObjectParams: []
        fsmGameObjectParams: []
        fsmOwnerDefaultParams:
        - ownerOption: 0
          gameObject:
            useVariable: 0
            name: 
            tooltip: 
            showInInspector: 0
            networkSync: 0
            value: {fileID: 0}
        animationCurveParams: []
        functionCallParams: []
        fsmTemplateControlParams: []
        fsmEventTargetParams: []
        fsmPropertyParams: []
        layoutOptionParams: []
        fsmStringParams: []
        fsmObjectParams:
        - useVariable: 1
          name: Box
          tooltip: 
          showInInspector: 0
          networkSync: 0
          typeName: UnityEngine.BoxCollider
          value: {fileID: 0}
        fsmVarParams: []
        fsmArrayParams: []
        fsmEnumParams: []
        fsmFloatParams:
        - useVariable: 1
          name: Time
          tooltip: 
          showInInspector: 0
          networkSync: 0
          value: 0.4
        - useVariable: 0
          name: 
          tooltip: 
          showInInspector: 0
          networkSync: 0
          value: 0.3
        - useVariable: 1
          name: Time
          tooltip: 
          showInInspector: 0
          networkSync: 0
          value: 0.4
        - useVariable: 0
          name: 
          tooltip: 
          showInInspector: 0
          networkSync: 0
          value: 0.05
        - useVariable: 1
          name: MoveTime
          tooltip: 
          showInInspector: 0
          networkSync: 0
          value: 0
        fsmIntParams: []
        fsmBoolParams: []
        fsmVector2Params: []
        fsmVector3Params: []
        fsmColorParams: []
        fsmRectParams: []
        fsmQuaternionParams: []
        stringParams: []
        byteData: 00010000000000
        arrayParamSizes: 
        arrayParamTypes: []
        customTypeSizes: 
        customTypeNames: []
        paramDataType: 0f0000000f000000010000000f0000000f000000070000000f00000001000000140000001800000001000000
        paramName:
        - floatVariable
        - floatValue
        - everyFrame
        - float1
        - float2
        - operation
        - storeResult
        - everyFrame
        - gameObject
        - storeComponent
        - everyFrame
        paramDataPos: 0000000001000000000000000200000003000000010000000400000005000000000000000000000006000000
        paramByteDataSize: 0000000000000000010000000000000000000000040000000000000001000000000000000000000001000000
    - name: AlphaControl
      description: 
      colorIndex: 0
      position:
        serializedVersion: 2
        x: 182.67188
        y: 118.546875
        width: 120
        height: 16
      isBreakpoint: 0
      isSequence: 0
      hideUnused: 0
      transitions: []
      actionData:
        actionNames:
        - HutongGames.PlayMaker.Actions.GetParent
        - HutongGames.PlayMaker.Actions.GetFsmFloat
        - HutongGames.PlayMaker.Actions.GetPosition
        - HutongGames.PlayMaker.Actions.FloatOperator
        - HutongGames.PlayMaker.Actions.FloatAbs
        - HutongGames.PlayMaker.Actions.FloatOperator
        - HutongGames.PlayMaker.Actions.FloatAbs
        - HutongGames.PlayMaker.Actions.FloatOperator
        - HutongGames.PlayMaker.Actions.RZ_SetAlpha
        customNames:
        - 
        - 
        - 
        - 
        - 
        - 
        - 
        - 
        - 
        actionEnabled: 010101010101010101
        actionIsOpen: 000000000000000000
        actionStartIndex: 0000000002000000070000000e00000013000000150000001a0000001c00000021000000
        actionHashCodes: d97b7202876045025552ad050cdb040544e7c2040cdb040544e7c2040cdb0405b7549e04
        unityObjectParams: []
        fsmGameObjectParams:
        - useVariable: 1
          name: parent
          tooltip: 
          showInInspector: 0
          networkSync: 0
          value: {fileID: 0}
        fsmOwnerDefaultParams:
        - ownerOption: 0
          gameObject:
            useVariable: 0
            name: 
            tooltip: 
            showInInspector: 0
            networkSync: 0
            value: {fileID: 0}
        - ownerOption: 1
          gameObject:
            useVariable: 1
            name: parent
            tooltip: 
            showInInspector: 0
            networkSync: 0
            value: {fileID: 0}
        - ownerOption: 0
          gameObject:
            useVariable: 0
            name: 
            tooltip: 
            showInInspector: 0
            networkSync: 0
            value: {fileID: 0}
        - ownerOption: 0
          gameObject:
            useVariable: 0
            name: 
            tooltip: 
            showInInspector: 0
            networkSync: 0
            value: {fileID: 0}
        animationCurveParams: []
        functionCallParams: []
        fsmTemplateControlParams: []
        fsmEventTargetParams: []
        fsmPropertyParams: []
        layoutOptionParams: []
        fsmStringParams:
        - useVariable: 0
          name: 
          tooltip: 
          showInInspector: 0
          networkSync: 0
          value: FSM
        - useVariable: 0
          name: 
          tooltip: 
          showInInspector: 0
          networkSync: 0
          value: center
        fsmObjectParams: []
        fsmVarParams: []
        fsmArrayParams: []
        fsmEnumParams: []
        fsmFloatParams:
        - useVariable: 1
          name: center
          tooltip: 
          showInInspector: 0
          networkSync: 0
          value: 0
        - useVariable: 1
          name: Xpos
          tooltip: 
          showInInspector: 0
          networkSync: 0
          value: 0
        - useVariable: 1
          name: 
          tooltip: 
          showInInspector: 0
          networkSync: 0
          value: 0
        - useVariable: 1
          name: 
          tooltip: 
          showInInspector: 0
          networkSync: 0
          value: 0
        - useVariable: 1
          name: Xpos
          tooltip: 
          showInInspector: 0
          networkSync: 0
          value: 0
        - useVariable: 1
          name: center
          tooltip: 
          showInInspector: 0
          networkSync: 0
          value: 0
        - useVariable: 1
          name: distance
          tooltip: 
          showInInspector: 0
          networkSync: 0
          value: 0
        - useVariable: 1
          name: Xpos
          tooltip: 
          showInInspector: 0
          networkSync: 0
          value: 0
        - useVariable: 1
          name: distance
          tooltip: 
          showInInspector: 0
          networkSync: 0
          value: 0
        - useVariable: 1
          name: RN/PHO/Xdistance
          tooltip: 
          showInInspector: 0
          networkSync: 0
          value: 500
        - useVariable: 1
          name: distance
          tooltip: 
          showInInspector: 0
          networkSync: 0
          value: 0
        - useVariable: 1
          name: distance
          tooltip: 
          showInInspector: 0
          networkSync: 0
          value: 0
        - useVariable: 0
          name: 
          tooltip: 
          showInInspector: 0
          networkSync: 0
          value: 1
        - useVariable: 1
          name: distance
          tooltip: 
          showInInspector: 0
          networkSync: 0
          value: 0
        - useVariable: 1
          name: distance
          tooltip: 
          showInInspector: 0
          networkSync: 0
          value: 0
        - useVariable: 1
          name: distance
          tooltip: 
          showInInspector: 0
          networkSync: 0
          value: 0
        fsmIntParams: []
        fsmBoolParams:
        - useVariable: 0
          name: 
          tooltip: 
          showInInspector: 0
          networkSync: 0
          value: 1
        - useVariable: 0
          name: 
          tooltip: 
          showInInspector: 0
          networkSync: 0
          value: 1
        fsmVector2Params: []
        fsmVector3Params:
        - useVariable: 1
          name: 
          tooltip: 
          showInInspector: 0
          networkSync: 0
          value: {x: 0, y: 0, z: 0}
        fsmColorParams: []
        fsmRectParams: []
        fsmQuaternionParams: []
        stringParams: []
        byteData: 0000000000010100000001010300000001010100000001
        arrayParamSizes: 
        arrayParamTypes: []
        customTypeSizes: 
        customTypeNames: []
        paramDataType: 14000000130000001400000012000000120000000f00000001000000140000001c0000000f0000000f0000000f00000007000000010000000f0000000f000000070000000f000000010000000f000000010000000f0000000f000000070000000f000000010000000f000000010000000f0000000f000000070000000f00000001000000140000000f0000001100000011000000
        paramName:
        - gameObject
        - storeResult
        - gameObject
        - fsmName
        - variableName
        - storeValue
        - everyFrame
        - gameObject
        - vector
        - x
        - y
        - z
        - space
        - everyFrame
        - float1
        - float2
        - operation
        - storeResult
        - everyFrame
        - floatVariable
        - everyFrame
        - float1
        - float2
        - operation
        - storeResult
        - everyFrame
        - floatVariable
        - everyFrame
        - float1
        - float2
        - operation
        - storeResult
        - everyFrame
        - owner
        - alpha
        - isRecursive
        - everyFrame
        paramDataPos: 0000000000000000010000000000000001000000000000000000000002000000000000000100000002000000030000000100000005000000040000000500000006000000060000000a000000070000000b00000008000000090000000c0000000a000000100000000b000000110000000c0000000d000000120000000e00000016000000030000000f0000000000000001000000
        paramByteDataSize: 00000000000000000000000000000000000000000000000001000000000000000000000000000000000000000000000004000000010000000000000000000000040000000000000001000000000000000100000000000000000000000400000000000000010000000000000001000000000000000000000004000000000000000100000000000000000000000000000000000000
    - name: StopAlpha
      description: 
      colorIndex: 0
      position:
        serializedVersion: 2
        x: 166.25781
        y: 193.1875
        width: 159
        height: 32
      isBreakpoint: 0
      isSequence: 0
      hideUnused: 0
      transitions:
      - fsmEvent:
          name: OK
          isSystemEvent: 0
          isGlobal: 1
        toState: ExamPos
        linkStyle: 0
        linkConstraint: 0
        colorIndex: 0
      actionData:
        actionNames:
        - HutongGames.PlayMaker.Actions.RZ_FloatRound
        - HutongGames.PlayMaker.Actions.RZ_SetAlpha
        - HutongGames.PlayMaker.Actions.GetPosition
        - HutongGames.PlayMaker.Actions.FloatSubtract
        - HutongGames.PlayMaker.Actions.FloatAbs
        - HutongGames.PlayMaker.Actions.FloatCompare
        customNames:
        - 
        - 
        - 
        - 
        - 
        - 
        actionEnabled: 010101010101
        actionIsOpen: 000000000000
        actionStartIndex: 0000000003000000070000000e0000001200000014000000
        actionHashCodes: 9845b305b7549e045552ad052a6e8a0044e7c2041bcdca04
        unityObjectParams: []
        fsmGameObjectParams: []
        fsmOwnerDefaultParams:
        - ownerOption: 0
          gameObject:
            useVariable: 0
            name: 
            tooltip: 
            showInInspector: 0
            networkSync: 0
            value: {fileID: 0}
        - ownerOption: 0
          gameObject:
            useVariable: 0
            name: 
            tooltip: 
            showInInspector: 0
            networkSync: 0
            value: {fileID: 0}
        animationCurveParams: []
        functionCallParams: []
        fsmTemplateControlParams: []
        fsmEventTargetParams: []
        fsmPropertyParams: []
        layoutOptionParams: []
        fsmStringParams: []
        fsmObjectParams: []
        fsmVarParams: []
        fsmArrayParams: []
        fsmEnumParams: []
        fsmFloatParams:
        - useVariable: 1
          name: distance
          tooltip: 
          showInInspector: 0
          networkSync: 0
          value: 0
        - useVariable: 0
          name: 
          tooltip: 
          showInInspector: 0
          networkSync: 0
          value: 0
        - useVariable: 1
          name: distance
          tooltip: 
          showInInspector: 0
          networkSync: 0
          value: 0
        - useVariable: 1
          name: finishX
          tooltip: 
          showInInspector: 0
          networkSync: 0
          value: 0
        - useVariable: 1
          name: 
          tooltip: 
          showInInspector: 0
          networkSync: 0
          value: 0
        - useVariable: 1
          name: 
          tooltip: 
          showInInspector: 0
          networkSync: 0
          value: 0
        - useVariable: 1
          name: finishX
          tooltip: 
          showInInspector: 0
          networkSync: 0
          value: 0
        - useVariable: 1
          name: center
          tooltip: 
          showInInspector: 0
          networkSync: 0
          value: 0
        - useVariable: 1
          name: finishX
          tooltip: 
          showInInspector: 0
          networkSync: 0
          value: 0
        - useVariable: 1
          name: finishX
          tooltip: 
          showInInspector: 0
          networkSync: 0
          value: 0
        - useVariable: 1
          name: RN/PHO/Xdistance
          tooltip: 
          showInInspector: 0
          networkSync: 0
          value: 500
        - useVariable: 0
          name: 
          tooltip: 
          showInInspector: 0
          networkSync: 0
          value: 1
        fsmIntParams: []
        fsmBoolParams:
        - useVariable: 0
          name: 
          tooltip: 
          showInInspector: 0
          networkSync: 0
          value: 1
        - useVariable: 0
          name: 
          tooltip: 
          showInInspector: 0
          networkSync: 0
          value: 0
        fsmVector2Params: []
        fsmVector3Params:
        - useVariable: 1
          name: 
          tooltip: 
          showInInspector: 0
          networkSync: 0
          value: {x: 0, y: 0, z: 0}
        fsmColorParams: []
        fsmRectParams: []
        fsmQuaternionParams: []
        stringParams:
        - 
        - 
        - OK
        byteData: 00000000000000000000
        arrayParamSizes: 
        arrayParamTypes: []
        customTypeSizes: 
        customTypeNames: []
        paramDataType: 0f0000000f00000001000000140000000f0000001100000011000000140000001c0000000f0000000f0000000f00000007000000010000000f0000000f00000001000000010000000f000000010000000f0000000f0000000f00000017000000170000001700000001000000
        paramName:
        - floatVariable
        - degreeVariable
        - everyFrame
        - owner
        - alpha
        - isRecursive
        - everyFrame
        - gameObject
        - vector
        - x
        - y
        - z
        - space
        - everyFrame
        - floatVariable
        - subtract
        - everyFrame
        - perSecond
        - floatVariable
        - everyFrame
        - float1
        - float2
        - tolerance
        - equal
        - lessThan
        - greaterThan
        - everyFrame
        paramDataPos: 0000000001000000000000000000000002000000000000000100000001000000000000000300000004000000050000000100000005000000060000000700000006000000070000000800000008000000090000000a0000000b00000000000000010000000200000009000000
        paramByteDataSize: 000000000000000001000000000000000000000000000000000000000000000000000000000000000000000000000000040000000100000000000000000000000100000001000000000000000100000000000000000000000000000000000000000000000000000001000000
    - name: RightSide
      description: 
      colorIndex: 0
      position:
        serializedVersion: 2
        x: 65.671875
        y: 247.67188
        width: 100
        height: 16
      isBreakpoint: 0
      isSequence: 0
      hideUnused: 0
      transitions: []
      actionData:
        actionNames:
        - HutongGames.PlayMaker.Actions.FloatOperator
        - HutongGames.PlayMaker.Actions.SetPosition
        customNames:
        - 
        - 
        actionEnabled: 0101
        actionIsOpen: 0101
        actionStartIndex: 0000000005000000
        actionHashCodes: 0cdb0405f6e5be03
        unityObjectParams: []
        fsmGameObjectParams: []
        fsmOwnerDefaultParams:
        - ownerOption: 0
          gameObject:
            useVariable: 0
            name: 
            tooltip: 
            showInInspector: 0
            networkSync: 0
            value: {fileID: 0}
        animationCurveParams: []
        functionCallParams: []
        fsmTemplateControlParams: []
        fsmEventTargetParams: []
        fsmPropertyParams: []
        layoutOptionParams: []
        fsmStringParams: []
        fsmObjectParams: []
        fsmVarParams: []
        fsmArrayParams: []
        fsmEnumParams: []
        fsmFloatParams:
        - useVariable: 1
          name: center
          tooltip: 
          showInInspector: 0
          networkSync: 0
          value: 0
        - useVariable: 1
          name: RN/PHO/Xdistance
          tooltip: 
          showInInspector: 0
          networkSync: 0
          value: 500
        - useVariable: 1
          name: resetX
          tooltip: 
          showInInspector: 0
          networkSync: 0
          value: 0
        - useVariable: 1
          name: resetX
          tooltip: 
          showInInspector: 0
          networkSync: 0
          value: 0
        - useVariable: 1
          name: 
          tooltip: 
          showInInspector: 0
          networkSync: 0
          value: 0
        - useVariable: 1
          name: 
          tooltip: 
          showInInspector: 0
          networkSync: 0
          value: 0
        fsmIntParams: []
        fsmBoolParams: []
        fsmVector2Params: []
        fsmVector3Params:
        - useVariable: 1
          name: 
          tooltip: 
          showInInspector: 0
          networkSync: 0
          value: {x: 0, y: 0, z: 0}
        fsmColorParams: []
        fsmRectParams: []
        fsmQuaternionParams: []
        stringParams: []
        byteData: 0100000000000000000000
        arrayParamSizes: 
        arrayParamTypes: []
        customTypeSizes: 
        customTypeNames: []
        paramDataType: 0f0000000f000000070000000f00000001000000140000001c0000000f0000000f0000000f000000070000000100000001000000
        paramName:
        - float1
        - float2
        - operation
        - storeResult
        - everyFrame
        - gameObject
        - vector
        - x
        - y
        - z
        - space
        - everyFrame
        - lateUpdate
        paramDataPos: 0000000001000000000000000200000004000000000000000000000003000000040000000500000005000000090000000a000000
        paramByteDataSize: 00000000000000000400000000000000010000000000000000000000000000000000000000000000040000000100000001000000
    - name: ExamPos
      description: 
      colorIndex: 0
      position:
        serializedVersion: 2
        x: 194.29688
        y: 235.20312
        width: 100
        height: 48
      isBreakpoint: 0
      isSequence: 0
      hideUnused: 0
      transitions:
      - fsmEvent:
          name: RightSide
          isSystemEvent: 0
          isGlobal: 1
        toState: RightSide
        linkStyle: 0
        linkConstraint: 0
        colorIndex: 0
      - fsmEvent:
          name: LeftSide
          isSystemEvent: 0
          isGlobal: 1
        toState: LeftSide
        linkStyle: 0
        linkConstraint: 0
        colorIndex: 0
      actionData:
        actionNames:
        - HutongGames.PlayMaker.Actions.GetPosition
        - HutongGames.PlayMaker.Actions.FloatCompare
        customNames:
        - 
        - 
        actionEnabled: 0101
        actionIsOpen: 0101
        actionStartIndex: 0000000007000000
        actionHashCodes: 5552ad051bcdca04
        unityObjectParams: []
        fsmGameObjectParams: []
        fsmOwnerDefaultParams:
        - ownerOption: 0
          gameObject:
            useVariable: 0
            name: 
            tooltip: 
            showInInspector: 0
            networkSync: 0
            value: {fileID: 0}
        animationCurveParams: []
        functionCallParams: []
        fsmTemplateControlParams: []
        fsmEventTargetParams: []
        fsmPropertyParams: []
        layoutOptionParams: []
        fsmStringParams: []
        fsmObjectParams: []
        fsmVarParams: []
        fsmArrayParams: []
        fsmEnumParams: []
        fsmFloatParams:
        - useVariable: 1
          name: Xpos
          tooltip: 
          showInInspector: 0
          networkSync: 0
          value: 0
        - useVariable: 1
          name: 
          tooltip: 
          showInInspector: 0
          networkSync: 0
          value: 0
        - useVariable: 1
          name: 
          tooltip: 
          showInInspector: 0
          networkSync: 0
          value: 0
        - useVariable: 1
          name: Xpos
          tooltip: 
          showInInspector: 0
          networkSync: 0
          value: 0
        - useVariable: 1
          name: center
          tooltip: 
          showInInspector: 0
          networkSync: 0
          value: 0
        - useVariable: 0
          name: 
          tooltip: 
          showInInspector: 0
          networkSync: 0
          value: 0
        fsmIntParams: []
        fsmBoolParams: []
        fsmVector2Params: []
        fsmVector3Params:
        - useVariable: 1
          name: 
          tooltip: 
          showInInspector: 0
          networkSync: 0
          value: {x: 0, y: 0, z: 0}
        fsmColorParams: []
        fsmRectParams: []
        fsmQuaternionParams: []
        stringParams:
        - 
        - LeftSide
        - RightSide
        byteData: 000000000000
        arrayParamSizes: 
        arrayParamTypes: []
        customTypeSizes: 
        customTypeNames: []
        paramDataType: 140000001c0000000f0000000f0000000f00000007000000010000000f0000000f0000000f00000017000000170000001700000001000000
        paramName:
        - gameObject
        - vector
        - x
        - y
        - z
        - space
        - everyFrame
        - float1
        - float2
        - tolerance
        - equal
        - lessThan
        - greaterThan
        - everyFrame
        paramDataPos: 0000000000000000000000000100000002000000000000000400000003000000040000000500000000000000010000000200000005000000
        paramByteDataSize: 0000000000000000000000000000000000000000040000000100000000000000000000000000000000000000000000000000000001000000
    - name: LeftSide
      description: 
      colorIndex: 0
      position:
        serializedVersion: 2
        x: 63.046875
        y: 271.96094
        width: 100
        height: 16
      isBreakpoint: 0
      isSequence: 0
      hideUnused: 0
      transitions: []
      actionData:
        actionNames:
        - HutongGames.PlayMaker.Actions.FloatOperator
        - HutongGames.PlayMaker.Actions.SetPosition
        customNames:
        - 
        - 
        actionEnabled: 0101
        actionIsOpen: 0101
        actionStartIndex: 0000000005000000
        actionHashCodes: 0cdb0405f6e5be03
        unityObjectParams: []
        fsmGameObjectParams: []
        fsmOwnerDefaultParams:
        - ownerOption: 0
          gameObject:
            useVariable: 0
            name: 
            tooltip: 
            showInInspector: 0
            networkSync: 0
            value: {fileID: 0}
        animationCurveParams: []
        functionCallParams: []
        fsmTemplateControlParams: []
        fsmEventTargetParams: []
        fsmPropertyParams: []
        layoutOptionParams: []
        fsmStringParams: []
        fsmObjectParams: []
        fsmVarParams: []
        fsmArrayParams: []
        fsmEnumParams: []
        fsmFloatParams:
        - useVariable: 1
          name: center
          tooltip: 
          showInInspector: 0
          networkSync: 0
          value: 0
        - useVariable: 1
          name: RN/PHO/Xdistance
          tooltip: 
          showInInspector: 0
          networkSync: 0
          value: 500
        - useVariable: 1
          name: resetX
          tooltip: 
          showInInspector: 0
          networkSync: 0
          value: 0
        - useVariable: 1
          name: resetX
          tooltip: 
          showInInspector: 0
          networkSync: 0
          value: 0
        - useVariable: 1
          name: 
          tooltip: 
          showInInspector: 0
          networkSync: 0
          value: 0
        - useVariable: 1
          name: 
          tooltip: 
          showInInspector: 0
          networkSync: 0
          value: 0
        fsmIntParams: []
        fsmBoolParams: []
        fsmVector2Params: []
        fsmVector3Params:
        - useVariable: 1
          name: 
          tooltip: 
          showInInspector: 0
          networkSync: 0
          value: {x: 0, y: 0, z: 0}
        fsmColorParams: []
        fsmRectParams: []
        fsmQuaternionParams: []
        stringParams: []
        byteData: 0000000000000000000000
        arrayParamSizes: 
        arrayParamTypes: []
        customTypeSizes: 
        customTypeNames: []
        paramDataType: 0f0000000f000000070000000f00000001000000140000001c0000000f0000000f0000000f000000070000000100000001000000
        paramName:
        - float1
        - float2
        - operation
        - storeResult
        - everyFrame
        - gameObject
        - vector
        - x
        - y
        - z
        - space
        - everyFrame
        - lateUpdate
        paramDataPos: 0000000001000000000000000200000004000000000000000000000003000000040000000500000005000000090000000a000000
        paramByteDataSize: 00000000000000000400000000000000010000000000000000000000000000000000000000000000040000000100000001000000
    - name: ShaffleAlpha
      description: 
      colorIndex: 0
      position:
        serializedVersion: 2
        x: 343.33594
        y: 190.05469
        width: 190
        height: 32
      isBreakpoint: 0
      isSequence: 0
      hideUnused: 0
      transitions:
      - fsmEvent:
          name: OK
          isSystemEvent: 0
          isGlobal: 1
        toState: ShaffleSideControl
        linkStyle: 0
        linkConstraint: 0
        colorIndex: 0
      actionData:
        actionNames:
        - HutongGames.PlayMaker.Actions.GetParent
        - HutongGames.PlayMaker.Actions.GetFsmFloat
        - HutongGames.PlayMaker.Actions.GetPosition
        - HutongGames.PlayMaker.Actions.FloatOperator
        - HutongGames.PlayMaker.Actions.FloatAbs
        - HutongGames.PlayMaker.Actions.FloatOperator
        - HutongGames.PlayMaker.Actions.FloatAbs
        - HutongGames.PlayMaker.Actions.FloatOperator
        - HutongGames.PlayMaker.Actions.RZ_SetAlpha
        - HutongGames.PlayMaker.Actions.GetPosition
        - HutongGames.PlayMaker.Actions.FloatOperator
        - HutongGames.PlayMaker.Actions.FloatCompare
        customNames:
        - 
        - 
        - 
        - 
        - 
        - 
        - 
        - 
        - 
        - 
        - 
        - 
        actionEnabled: 010101010101010101010101
        actionIsOpen: 000000000000000000000000
        actionStartIndex: 0000000002000000070000000e00000013000000150000001a0000001c00000021000000250000002c00000031000000
        actionHashCodes: d97b7202876045025552ad050cdb040544e7c2040cdb040544e7c2040cdb0405b7549e045552ad050cdb04051bcdca04
        unityObjectParams: []
        fsmGameObjectParams:
        - useVariable: 1
          name: parent
          tooltip: 
          showInInspector: 0
          networkSync: 0
          value: {fileID: 0}
        fsmOwnerDefaultParams:
        - ownerOption: 0
          gameObject:
            useVariable: 0
            name: 
            tooltip: 
            showInInspector: 0
            networkSync: 0
            value: {fileID: 0}
        - ownerOption: 1
          gameObject:
            useVariable: 1
            name: parent
            tooltip: 
            showInInspector: 0
            networkSync: 0
            value: {fileID: 0}
        - ownerOption: 0
          gameObject:
            useVariable: 0
            name: 
            tooltip: 
            showInInspector: 0
            networkSync: 0
            value: {fileID: 0}
        - ownerOption: 0
          gameObject:
            useVariable: 0
            name: 
            tooltip: 
            showInInspector: 0
            networkSync: 0
            value: {fileID: 0}
        - ownerOption: 0
          gameObject:
            useVariable: 0
            name: 
            tooltip: 
            showInInspector: 0
            networkSync: 0
            value: {fileID: 0}
        animationCurveParams: []
        functionCallParams: []
        fsmTemplateControlParams: []
        fsmEventTargetParams: []
        fsmPropertyParams: []
        layoutOptionParams: []
        fsmStringParams:
        - useVariable: 0
          name: 
          tooltip: 
          showInInspector: 0
          networkSync: 0
          value: FSM
        - useVariable: 0
          name: 
          tooltip: 
          showInInspector: 0
          networkSync: 0
          value: center
        fsmObjectParams: []
        fsmVarParams: []
        fsmArrayParams: []
        fsmEnumParams: []
        fsmFloatParams:
        - useVariable: 1
          name: center
          tooltip: 
          showInInspector: 0
          networkSync: 0
          value: 0
        - useVariable: 1
          name: Xpos
          tooltip: 
          showInInspector: 0
          networkSync: 0
          value: 0
        - useVariable: 1
          name: 
          tooltip: 
          showInInspector: 0
          networkSync: 0
          value: 0
        - useVariable: 1
          name: 
          tooltip: 
          showInInspector: 0
          networkSync: 0
          value: 0
        - useVariable: 1
          name: Xpos
          tooltip: 
          showInInspector: 0
          networkSync: 0
          value: 0
        - useVariable: 1
          name: center
          tooltip: 
          showInInspector: 0
          networkSync: 0
          value: 0
        - useVariable: 1
          name: distance
          tooltip: 
          showInInspector: 0
          networkSync: 0
          value: 0
        - useVariable: 1
          name: Xpos
          tooltip: 
          showInInspector: 0
          networkSync: 0
          value: 0
        - useVariable: 1
          name: distance
          tooltip: 
          showInInspector: 0
          networkSync: 0
          value: 0
        - useVariable: 1
          name: RN/PHO/Xdistance
          tooltip: 
          showInInspector: 0
          networkSync: 0
          value: 500
        - useVariable: 1
          name: distance
          tooltip: 
          showInInspector: 0
          networkSync: 0
          value: 0
        - useVariable: 1
          name: distance
          tooltip: 
          showInInspector: 0
          networkSync: 0
          value: 0
        - useVariable: 0
          name: 
          tooltip: 
          showInInspector: 0
          networkSync: 0
          value: 1
        - useVariable: 1
          name: distance
          tooltip: 
          showInInspector: 0
          networkSync: 0
          value: 0
        - useVariable: 1
          name: distance
          tooltip: 
          showInInspector: 0
          networkSync: 0
          value: 0
        - useVariable: 1
          name: distance
          tooltip: 
          showInInspector: 0
          networkSync: 0
          value: 0
        - useVariable: 1
          name: finishX
          tooltip: 
          showInInspector: 0
          networkSync: 0
          value: 0
        - useVariable: 1
          name: 
          tooltip: 
          showInInspector: 0
          networkSync: 0
          value: 0
        - useVariable: 1
          name: 
          tooltip: 
          showInInspector: 0
          networkSync: 0
          value: 0
        - useVariable: 1
          name: center
          tooltip: 
          showInInspector: 0
          networkSync: 0
          value: 0
        - useVariable: 0
          name: 
          tooltip: 
          showInInspector: 0
          networkSync: 0
          value: 1000
        - useVariable: 1
          name: resetX
          tooltip: 
          showInInspector: 0
          networkSync: 0
          value: 0
        - useVariable: 1
          name: finishX
          tooltip: 
          showInInspector: 0
          networkSync: 0
          value: 0
        - useVariable: 1
          name: resetX
          tooltip: 
          showInInspector: 0
          networkSync: 0
          value: 0
        - useVariable: 0
          name: 
          tooltip: 
          showInInspector: 0
          networkSync: 0
          value: 1
        fsmIntParams: []
        fsmBoolParams:
        - useVariable: 0
          name: 
          tooltip: 
          showInInspector: 0
          networkSync: 0
          value: 1
        - useVariable: 0
          name: 
          tooltip: 
          showInInspector: 0
          networkSync: 0
          value: 1
        fsmVector2Params: []
        fsmVector3Params:
        - useVariable: 1
          name: 
          tooltip: 
          showInInspector: 0
          networkSync: 0
          value: {x: 0, y: 0, z: 0}
        - useVariable: 1
          name: 
          tooltip: 
          showInInspector: 0
          networkSync: 0
          value: {x: 0, y: 0, z: 0}
        fsmColorParams: []
        fsmRectParams: []
        fsmQuaternionParams: []
        stringParams:
        - OK
        - 
        - OK
        byteData: 00000000000101000000010103000000010101000000010000000001000000000101
        arrayParamSizes: 
        arrayParamTypes: []
        customTypeSizes: 
        customTypeNames: []
        paramDataType: 14000000130000001400000012000000120000000f00000001000000140000001c0000000f0000000f0000000f00000007000000010000000f0000000f000000070000000f000000010000000f000000010000000f0000000f000000070000000f000000010000000f000000010000000f0000000f000000070000000f00000001000000140000000f0000001100000011000000140000001c0000000f0000000f0000000f00000007000000010000000f0000000f000000070000000f000000010000000f0000000f0000000f00000017000000170000001700000001000000
        paramName:
        - gameObject
        - storeResult
        - gameObject
        - fsmName
        - variableName
        - storeValue
        - everyFrame
        - gameObject
        - vector
        - x
        - y
        - z
        - space
        - everyFrame
        - float1
        - float2
        - operation
        - storeResult
        - everyFrame
        - floatVariable
        - everyFrame
        - float1
        - float2
        - operation
        - storeResult
        - everyFrame
        - floatVariable
        - everyFrame
        - float1
        - float2
        - operation
        - storeResult
        - everyFrame
        - owner
        - alpha
        - isRecursive
        - everyFrame
        - gameObject
        - vector
        - x
        - y
        - z
        - space
        - everyFrame
        - float1
        - float2
        - operation
        - storeResult
        - everyFrame
        - float1
        - float2
        - tolerance
        - equal
        - lessThan
        - greaterThan
        - everyFrame
        paramDataPos: 0000000000000000010000000000000001000000000000000000000002000000000000000100000002000000030000000100000005000000040000000500000006000000060000000a000000070000000b00000008000000090000000c0000000a000000100000000b000000110000000c0000000d000000120000000e00000016000000030000000f00000000000000010000000400000001000000100000001100000012000000170000001b00000013000000140000001c000000150000002000000016000000170000001800000000000000010000000200000021000000
        paramByteDataSize: 0000000000000000000000000000000000000000000000000100000000000000000000000000000000000000000000000400000001000000000000000000000004000000000000000100000000000000010000000000000000000000040000000000000001000000000000000100000000000000000000000400000000000000010000000000000000000000000000000000000000000000000000000000000000000000000000000400000001000000000000000000000004000000000000000100000000000000000000000000000000000000000000000000000001000000
    - name: ShaffleResetPos
      description: 
      colorIndex: 0
      position:
        serializedVersion: 2
        x: 377.39062
        y: 282.6875
        width: 128
        height: 32
      isBreakpoint: 0
      isSequence: 0
      hideUnused: 0
      transitions:
      - fsmEvent:
          name: FINISHED
          isSystemEvent: 1
          isGlobal: 1
        toState: ShaffleAlpha
        linkStyle: 0
        linkConstraint: 2
        colorIndex: 0
      actionData:
        actionNames:
        - HutongGames.PlayMaker.Actions.FloatOperator
        - HutongGames.PlayMaker.Actions.SetPosition
        - HutongGames.PlayMaker.Actions.GetPosition
        - HutongGames.PlayMaker.Actions.FloatDivide
        - HutongGames.PlayMaker.Actions.ConvertFloatToInt
        - HutongGames.PlayMaker.Actions.ConvertIntToFloat
        - HutongGames.PlayMaker.Actions.FloatMultiply
        - HutongGames.PlayMaker.Actions.SetPosition
        customNames:
        - 
        - 
        - 
        - 
        - 
        - 
        - 
        - 
        actionEnabled: 0101010101010101
        actionIsOpen: 0000000000000000
        actionStartIndex: 00000000050000000d00000014000000170000001b0000001e00000021000000
        actionHashCodes: 0cdb0405f6e5be035552ad059845b305e4bc69054da300059845b305f6e5be03
        unityObjectParams: []
        fsmGameObjectParams: []
        fsmOwnerDefaultParams:
        - ownerOption: 0
          gameObject:
            useVariable: 0
            name: 
            tooltip: 
            showInInspector: 0
            networkSync: 0
            value: {fileID: 0}
        - ownerOption: 0
          gameObject:
            useVariable: 0
            name: 
            tooltip: 
            showInInspector: 0
            networkSync: 0
            value: {fileID: 0}
        - ownerOption: 0
          gameObject:
            useVariable: 0
            name: 
            tooltip: 
            showInInspector: 0
            networkSync: 0
            value: {fileID: 0}
        animationCurveParams: []
        functionCallParams: []
        fsmTemplateControlParams: []
        fsmEventTargetParams: []
        fsmPropertyParams: []
        layoutOptionParams: []
        fsmStringParams: []
        fsmObjectParams: []
        fsmVarParams: []
        fsmArrayParams: []
        fsmEnumParams: []
        fsmFloatParams:
        - useVariable: 1
          name: center
          tooltip: 
          showInInspector: 0
          networkSync: 0
          value: 0
        - useVariable: 1
          name: RN/PHO/Xdistance
          tooltip: 
          showInInspector: 0
          networkSync: 0
          value: 500
        - useVariable: 1
          name: resetX
          tooltip: 
          showInInspector: 0
          networkSync: 0
          value: 0
        - useVariable: 1
          name: resetX
          tooltip: 
          showInInspector: 0
          networkSync: 0
          value: 0
        - useVariable: 1
          name: 
          tooltip: 
          showInInspector: 0
          networkSync: 0
          value: 0
        - useVariable: 1
          name: 
          tooltip: 
          showInInspector: 0
          networkSync: 0
          value: 0
        - useVariable: 1
          name: resetX
          tooltip: 
          showInInspector: 0
          networkSync: 0
          value: 0
        - useVariable: 1
          name: 
          tooltip: 
          showInInspector: 0
          networkSync: 0
          value: 0
        - useVariable: 1
          name: 
          tooltip: 
          showInInspector: 0
          networkSync: 0
          value: 0
        - useVariable: 1
          name: resetX
          tooltip: 
          showInInspector: 0
          networkSync: 0
          value: 0
        - useVariable: 0
          name: 
          tooltip: 
          showInInspector: 0
          networkSync: 0
          value: 500
        - useVariable: 1
          name: resetX
          tooltip: 
          showInInspector: 0
          networkSync: 0
          value: 0
        - useVariable: 1
          name: resetX
          tooltip: 
          showInInspector: 0
          networkSync: 0
          value: 0
        - useVariable: 1
          name: resetX
          tooltip: 
          showInInspector: 0
          networkSync: 0
          value: 0
        - useVariable: 0
          name: 
          tooltip: 
          showInInspector: 0
          networkSync: 0
          value: 500
        - useVariable: 1
          name: resetX
          tooltip: 
          showInInspector: 0
          networkSync: 0
          value: 0
        - useVariable: 1
          name: 
          tooltip: 
          showInInspector: 0
          networkSync: 0
          value: 0
        - useVariable: 1
          name: 
          tooltip: 
          showInInspector: 0
          networkSync: 0
          value: 0
        fsmIntParams:
        - useVariable: 1
          name: resetXint
          tooltip: 
          showInInspector: 0
          networkSync: 0
          value: 0
        - useVariable: 1
          name: resetXint
          tooltip: 
          showInInspector: 0
          networkSync: 0
          value: 0
        fsmBoolParams: []
        fsmVector2Params: []
        fsmVector3Params:
        - useVariable: 1
          name: 
          tooltip: 
          showInInspector: 0
          networkSync: 0
          value: {x: 0, y: 0, z: 0}
        - useVariable: 1
          name: 
          tooltip: 
          showInInspector: 0
          networkSync: 0
          value: {x: 0, y: 0, z: 0}
        - useVariable: 1
          name: 
          tooltip: 
          showInInspector: 0
          networkSync: 0
          value: {x: 0, y: 0, z: 0}
        fsmColorParams: []
        fsmRectParams: []
        fsmQuaternionParams: []
        stringParams: []
        byteData: 010000000000000000000001000000000002000000000000010000000000
        arrayParamSizes: 
        arrayParamTypes: []
        customTypeSizes: 
        customTypeNames: []
        paramDataType: 0f0000000f000000070000000f00000001000000140000001c0000000f0000000f0000000f000000070000000100000001000000140000001c0000000f0000000f0000000f00000007000000010000000f0000000f000000010000000f000000100000000700000001000000100000000f000000010000000f0000000f00000001000000140000001c0000000f0000000f0000000f000000070000000100000001000000
        paramName:
        - float1
        - float2
        - operation
        - storeResult
        - everyFrame
        - gameObject
        - vector
        - x
        - y
        - z
        - space
        - everyFrame
        - lateUpdate
        - gameObject
        - vector
        - x
        - y
        - z
        - space
        - everyFrame
        - floatVariable
        - divideBy
        - everyFrame
        - floatVariable
        - intVariable
        - rounding
        - everyFrame
        - intVariable
        - floatVariable
        - everyFrame
        - floatVariable
        - multiplyBy
        - everyFrame
        - gameObject
        - vector
        - x
        - y
        - z
        - space
        - everyFrame
        - lateUpdate
        paramDataPos: 0000000001000000000000000200000004000000000000000000000003000000040000000500000005000000090000000a00000001000000010000000600000007000000080000000b0000000f000000090000000a000000100000000b000000000000001100000015000000010000000c000000160000000d0000000e0000001700000002000000020000000f0000001000000011000000180000001c0000001d000000
        paramByteDataSize: 0000000000000000040000000000000001000000000000000000000000000000000000000000000004000000010000000100000000000000000000000000000000000000000000000400000001000000000000000000000001000000000000000000000004000000010000000000000000000000010000000000000000000000010000000000000000000000000000000000000000000000040000000100000001000000
    - name: ShaffleSideControl
      description: 
      colorIndex: 0
      position:
        serializedVersion: 2
        x: 366.60156
        y: 234.75781
        width: 144
        height: 32
      isBreakpoint: 0
      isSequence: 0
      hideUnused: 0
      transitions:
      - fsmEvent:
          name: RightSide
          isSystemEvent: 0
          isGlobal: 1
        toState: ShaffleResetPos
        linkStyle: 0
        linkConstraint: 0
        colorIndex: 0
      actionData:
        actionNames:
        - HutongGames.PlayMaker.Actions.GetPosition
        - HutongGames.PlayMaker.Actions.FloatCompare
        customNames:
        - 
        - 
        actionEnabled: 0101
        actionIsOpen: 0101
        actionStartIndex: 0000000007000000
        actionHashCodes: 5552ad051bcdca04
        unityObjectParams: []
        fsmGameObjectParams: []
        fsmOwnerDefaultParams:
        - ownerOption: 0
          gameObject:
            useVariable: 0
            name: 
            tooltip: 
            showInInspector: 0
            networkSync: 0
            value: {fileID: 0}
        animationCurveParams: []
        functionCallParams: []
        fsmTemplateControlParams: []
        fsmEventTargetParams: []
        fsmPropertyParams: []
        layoutOptionParams: []
        fsmStringParams: []
        fsmObjectParams: []
        fsmVarParams: []
        fsmArrayParams: []
        fsmEnumParams: []
        fsmFloatParams:
        - useVariable: 1
          name: Xpos
          tooltip: 
          showInInspector: 0
          networkSync: 0
          value: 0
        - useVariable: 1
          name: 
          tooltip: 
          showInInspector: 0
          networkSync: 0
          value: 0
        - useVariable: 1
          name: 
          tooltip: 
          showInInspector: 0
          networkSync: 0
          value: 0
        - useVariable: 1
          name: Xpos
          tooltip: 
          showInInspector: 0
          networkSync: 0
          value: 0
        - useVariable: 1
          name: center
          tooltip: 
          showInInspector: 0
          networkSync: 0
          value: 0
        - useVariable: 0
          name: 
          tooltip: 
          showInInspector: 0
          networkSync: 0
          value: 0
        fsmIntParams: []
        fsmBoolParams: []
        fsmVector2Params: []
        fsmVector3Params:
        - useVariable: 1
          name: 
          tooltip: 
          showInInspector: 0
          networkSync: 0
          value: {x: 0, y: 0, z: 0}
        fsmColorParams: []
        fsmRectParams: []
        fsmQuaternionParams: []
        stringParams:
        - 
        - 
        - RightSide
        byteData: 000000000000
        arrayParamSizes: 
        arrayParamTypes: []
        customTypeSizes: 
        customTypeNames: []
        paramDataType: 140000001c0000000f0000000f0000000f00000007000000010000000f0000000f0000000f00000017000000170000001700000001000000
        paramName:
        - gameObject
        - vector
        - x
        - y
        - z
        - space
        - everyFrame
        - float1
        - float2
        - tolerance
        - equal
        - lessThan
        - greaterThan
        - everyFrame
        paramDataPos: 0000000000000000000000000100000002000000000000000400000003000000040000000500000000000000010000000200000005000000
        paramByteDataSize: 0000000000000000000000000000000000000000040000000100000000000000000000000000000000000000000000000000000001000000
    events:
    - name: FINISHED
      isSystemEvent: 1
      isGlobal: 1
    - name: LeftSide
      isSystemEvent: 0
      isGlobal: 1
    - name: OK
      isSystemEvent: 0
      isGlobal: 1
    - name: RN/PHO/Move
      isSystemEvent: 0
      isGlobal: 1
    - name: RN/PHO/StartPieceWork
      isSystemEvent: 0
      isGlobal: 1
    - name: RN/PHO/StopTween
      isSystemEvent: 0
      isGlobal: 1
    - name: RightSide
      isSystemEvent: 0
      isGlobal: 1
    globalTransitions:
    - fsmEvent:
        name: RN/PHO/StartPieceWork
        isSystemEvent: 0
        isGlobal: 1
      toState: ShaffleAlpha
      linkStyle: 0
      linkConstraint: 0
      colorIndex: 0
    - fsmEvent:
        name: RN/PHO/Move
        isSystemEvent: 0
        isGlobal: 1
      toState: AlphaControl
      linkStyle: 0
      linkConstraint: 0
      colorIndex: 0
    - fsmEvent:
        name: RN/PHO/StopTween
        isSystemEvent: 0
        isGlobal: 1
      toState: StopAlpha
      linkStyle: 0
      linkConstraint: 0
      colorIndex: 0
    variables:
      floatVariables:
      - useVariable: 1
        name: MoveTime
        tooltip: 
        showInInspector: 0
        networkSync: 0
        value: 0
      - useVariable: 1
        name: Time
        tooltip: 
        showInInspector: 0
        networkSync: 0
        value: 0.4
      - useVariable: 1
        name: Xpos
        tooltip: 
        showInInspector: 0
        networkSync: 0
        value: 0
      - useVariable: 1
        name: center
        tooltip: 
        showInInspector: 0
        networkSync: 0
        value: 0
      - useVariable: 1
        name: distance
        tooltip: 
        showInInspector: 0
        networkSync: 0
        value: 0
      - useVariable: 1
        name: distanceForReset
        tooltip: 
        showInInspector: 0
        networkSync: 0
        value: 0
      - useVariable: 1
        name: finishX
        tooltip: 
        showInInspector: 0
        networkSync: 0
        value: 0
      - useVariable: 1
        name: resetX
        tooltip: 
        showInInspector: 0
        networkSync: 0
        value: 0
      intVariables:
      - useVariable: 1
        name: resetXint
        tooltip: 
        showInInspector: 0
        networkSync: 0
        value: 0
      boolVariables: []
      stringVariables: []
      vector2Variables: []
      vector3Variables: []
      colorVariables: []
      rectVariables: []
      quaternionVariables: []
      gameObjectVariables:
      - useVariable: 1
        name: parent
        tooltip: 
        showInInspector: 0
        networkSync: 0
        value: {fileID: 0}
      objectVariables:
      - useVariable: 1
        name: Box
        tooltip: 
        showInInspector: 0
        networkSync: 0
        typeName: UnityEngine.BoxCollider
        value: {fileID: 0}
      materialVariables: []
      textureVariables: []
      arrayVariables: []
      enumVariables: []
      categories:
      - 
      variableCategoryIDs: 0000000000000000000000000000000000000000000000000000000000000000000000000000000000000000
    description: 
    docUrl: 
    showStateLabel: 1
    maxLoopCount: 0
    watermark: 
    password: 
    locked: 0
    manualUpdate: 0
    keepDelayedEventsOnStateExit: 0
    preprocessed: 0
    ExposedEvents: []
    RestartOnEnable: 1
    EnableDebugFlow: 0
    EnableBreakpoints: 1
    editorFlags: 3
    activeStateName: 
    mouseEvents: 0
    handleTriggerEnter2D: 0
    handleTriggerExit2D: 0
    handleTriggerStay2D: 0
    handleCollisionEnter2D: 0
    handleCollisionExit2D: 0
    handleCollisionStay2D: 0
    handleTriggerEnter: 0
    handleTriggerExit: 0
    handleTriggerStay: 0
    handleCollisionEnter: 0
    handleCollisionExit: 0
    handleCollisionStay: 0
    handleControllerColliderHit: 0
    handleOnGUI: 0
    handleFixedUpdate: 0
    handleApplicationEvents: 0
    handleAnimatorMove: 0
    handleAnimatorIK: 0
