%YAML 1.1
%TAG !u! tag:unity3d.com,2011:
--- !u!114 &11400000
MonoBehaviour:
  m_ObjectHideFlags: 0
  m_PrefabParentObject: {fileID: 0}
  m_PrefabInternal: {fileID: 0}
  m_GameObject: {fileID: 0}
  m_Enabled: 1
  m_EditorHideFlags: 0
  m_Script: {fileID: 1219815696, guid: de72a6d2da64d114d95e3c5a01cfaec5, type: 3}
  m_Name: RN_PIC_FoodMove
  m_EditorClassIdentifier: 
  category: General
  fsm:
    dataVersion: 1
    usedInTemplate: {fileID: 11400000}
    name: FSM
    startState: WaitMouseDown
    states:
    - name: WaitMouseDown
      description: 
      colorIndex: 0
      position:
        serializedVersion: 2
        x: 58.328125
        y: 113.078125
        width: 131
        height: 32
      isBreakpoint: 0
      isSequence: 0
      hideUnused: 0
      transitions:
      - fsmEvent:
          name: MOUSE DOWN
          isSystemEvent: 1
          isGlobal: 1
        toState: GetParams
        linkStyle: 0
        linkConstraint: 0
        colorIndex: 0
      actionData:
        actionNames:
        - HutongGames.PlayMaker.Actions.RZ_GetParentNumNum
        customNames:
        - 
        actionEnabled: 01
        actionIsOpen: 00
        actionStartIndex: 00000000
        actionHashCodes: 280cdd05
        unityObjectParams: []
        fsmGameObjectParams:
        - useVariable: 1
          name: Food
          tooltip: 
          showInInspector: 0
          networkSync: 0
          value: {fileID: 0}
        fsmOwnerDefaultParams:
        - ownerOption: 0
          gameObject:
            useVariable: 0
            name: 
            tooltip: 
            showInInspector: 0
            networkSync: 0
            value: {fileID: 0}
        animationCurveParams: []
        functionCallParams: []
        fsmTemplateControlParams: []
        fsmEventTargetParams: []
        fsmPropertyParams: []
        layoutOptionParams: []
        fsmStringParams: []
        fsmObjectParams: []
        fsmVarParams: []
        fsmArrayParams: []
        fsmEnumParams: []
        fsmFloatParams: []
        fsmIntParams: []
        fsmBoolParams: []
        fsmVector2Params: []
        fsmVector3Params: []
        fsmColorParams: []
        fsmRectParams: []
        fsmQuaternionParams: []
        stringParams: []
        byteData: 0200000000
        arrayParamSizes: 
        arrayParamTypes: []
        customTypeSizes: 
        customTypeNames: []
        paramDataType: 140000001000000013000000
        paramName:
        - gameObject
        - parentLevel
        - storeResult
        paramDataPos: 000000000000000000000000
        paramByteDataSize: 000000000500000000000000
    - name: GetParams
      description: 
      colorIndex: 0
      position:
        serializedVersion: 2
        x: 72.9375
        y: 155.67188
        width: 100
        height: 48
      isBreakpoint: 0
      isSequence: 0
      hideUnused: 0
      transitions:
      - fsmEvent:
          name: FINISHED
          isSystemEvent: 1
          isGlobal: 1
        toState: MouseDrag
        linkStyle: 0
        linkConstraint: 0
        colorIndex: 0
      - fsmEvent:
          name: Repeat
          isSystemEvent: 0
          isGlobal: 1
        toState: WaitMouseDown
        linkStyle: 0
        linkConstraint: 0
        colorIndex: 0
      actionData:
        actionNames:
        - HutongGames.PlayMaker.Actions.SendEvent
        - HutongGames.PlayMaker.Actions.GetPosition
        - HutongGames.PlayMaker.Actions.FloatCompare
        - HutongGames.PlayMaker.Actions.GetParent
        - HutongGames.PlayMaker.Actions.SetParent
        - HutongGames.PlayMaker.Actions.SendEvent
        - HutongGames.PlayMaker.Actions.GetComponent
        - HutongGames.PlayMaker.Actions.GetComponent
        - HutongGames.PlayMaker.Actions.GetComponent
        - HutongGames.PlayMaker.Actions.SetProperty
        - HutongGames.PlayMaker.Actions.SetProperty
        - HutongGames.PlayMaker.Actions.SetProperty
        - HutongGames.PlayMaker.Actions.SendEvent
        - HutongGames.PlayMaker.Actions.RZ_PlaySound
        - HutongGames.PlayMaker.Actions.RZ_SendEventToParent
        customNames:
        - 
        - 
        - 
        - 
        - 
        - 
        - 
        - 
        - 
        - 
        - 
        - 
        - 
        - 
        - 
        actionEnabled: 010101010101010101010101010101
        actionIsOpen: 000000000000000000000000000000
        actionStartIndex: 00000000040000000b0000001200000014000000180000001c0000001f000000220000002500000027000000290000002b0000002f00000035000000
        actionHashCodes: 5e69bb045552ad051bcdca04d97b7202ea32a1055e69bb0404d8140204d8140204d814025ac852045ac852045ac852045e69bb044652a70428a20a04
        unityObjectParams: []
        fsmGameObjectParams:
        - useVariable: 1
          name: PersAnim
          tooltip: 
          showInInspector: 0
          networkSync: 0
          value: {fileID: 0}
        - useVariable: 1
          name: RN/PIC/UnderFinger
          tooltip: 
          showInInspector: 0
          networkSync: 0
          value: {fileID: 0}
        fsmOwnerDefaultParams:
        - ownerOption: 1
          gameObject:
            useVariable: 1
            name: Food
            tooltip: 
            showInInspector: 0
            networkSync: 0
            value: {fileID: 0}
        - ownerOption: 0
          gameObject:
            useVariable: 0
            name: 
            tooltip: 
            showInInspector: 0
            networkSync: 0
            value: {fileID: 0}
        - ownerOption: 1
          gameObject:
            useVariable: 1
            name: Food
            tooltip: 
            showInInspector: 0
            networkSync: 0
            value: {fileID: 0}
        - ownerOption: 0
          gameObject:
            useVariable: 1
            name: Golova
            tooltip: 
            showInInspector: 0
            networkSync: 0
            value: {fileID: 0}
        - ownerOption: 1
          gameObject:
            useVariable: 1
            name: Food
            tooltip: 
            showInInspector: 0
            networkSync: 0
            value: {fileID: 0}
        - ownerOption: 1
          gameObject:
            useVariable: 1
            name: Food
            tooltip: 
            showInInspector: 0
            networkSync: 0
            value: {fileID: 0}
        - ownerOption: 0
          gameObject:
            useVariable: 0
            name: 
            tooltip: 
            showInInspector: 0
            networkSync: 0
            value: {fileID: 0}
        - ownerOption: 0
          gameObject:
            useVariable: 0
            name: 
            tooltip: 
            showInInspector: 0
            networkSync: 0
            value: {fileID: 0}
        animationCurveParams: []
        functionCallParams: []
        fsmTemplateControlParams: []
        fsmEventTargetParams:
        - target: 4
          excludeSelf:
            useVariable: 0
            name: 
            tooltip: 
            showInInspector: 0
            networkSync: 0
            value: 0
          gameObject:
            ownerOption: 0
            gameObject:
              useVariable: 0
              name: 
              tooltip: 
              showInInspector: 0
              networkSync: 0
              value: {fileID: 0}
          fsmName:
            useVariable: 0
            name: 
            tooltip: 
            showInInspector: 0
            networkSync: 0
            value: 
          sendToChildren:
            useVariable: 0
            name: 
            tooltip: 
            showInInspector: 0
            networkSync: 0
            value: 0
          fsmComponent: {fileID: 0}
        - target: 2
          excludeSelf:
            useVariable: 0
            name: 
            tooltip: 
            showInInspector: 0
            networkSync: 0
            value: 0
          gameObject:
            ownerOption: 0
            gameObject:
              useVariable: 0
              name: 
              tooltip: 
              showInInspector: 0
              networkSync: 0
              value: {fileID: 0}
          fsmName:
            useVariable: 0
            name: 
            tooltip: 
            showInInspector: 0
            networkSync: 0
            value: FSM1
          sendToChildren:
            useVariable: 0
            name: 
            tooltip: 
            showInInspector: 0
            networkSync: 0
            value: 0
          fsmComponent: {fileID: 0}
        - target: 4
          excludeSelf:
            useVariable: 0
            name: 
            tooltip: 
            showInInspector: 0
            networkSync: 0
            value: 0
          gameObject:
            ownerOption: 0
            gameObject:
              useVariable: 0
              name: 
              tooltip: 
              showInInspector: 0
              networkSync: 0
              value: {fileID: 0}
          fsmName:
            useVariable: 0
            name: 
            tooltip: 
            showInInspector: 0
            networkSync: 0
            value: 
          sendToChildren:
            useVariable: 0
            name: 
            tooltip: 
            showInInspector: 0
            networkSync: 0
            value: 0
          fsmComponent: {fileID: 0}
        fsmPropertyParams:
        - TargetObject:
            useVariable: 1
            name: Collider
            tooltip: 
            showInInspector: 0
            networkSync: 0
            typeName: UnityEngine.Collider2D
            value: {fileID: 0}
          TargetTypeName: UnityEngine.Collider2D
          PropertyName: isTrigger
          BoolParameter:
            useVariable: 0
            name: 
            tooltip: 
            showInInspector: 0
            networkSync: 0
            value: 1
          FloatParameter:
            useVariable: 0
            name: 
            tooltip: 
            showInInspector: 0
            networkSync: 0
            value: 0
          IntParameter:
            useVariable: 0
            name: 
            tooltip: 
            showInInspector: 0
            networkSync: 0
            value: 0
          GameObjectParameter:
            useVariable: 0
            name: 
            tooltip: 
            showInInspector: 0
            networkSync: 0
            value: {fileID: 0}
          StringParameter:
            useVariable: 0
            name: 
            tooltip: 
            showInInspector: 0
            networkSync: 0
            value: 
          Vector2Parameter:
            useVariable: 0
            name: 
            tooltip: 
            showInInspector: 0
            networkSync: 0
            value: {x: 0, y: 0}
          Vector3Parameter:
            useVariable: 0
            name: 
            tooltip: 
            showInInspector: 0
            networkSync: 0
            value: {x: 0, y: 0, z: 0}
          RectParamater:
            useVariable: 0
            name: 
            tooltip: 
            showInInspector: 0
            networkSync: 0
            value:
              serializedVersion: 2
              x: 0
              y: 0
              width: 0
              height: 0
          QuaternionParameter:
            useVariable: 0
            name: 
            tooltip: 
            showInInspector: 0
            networkSync: 0
            value: {x: 0, y: 0, z: 0, w: 0}
          ObjectParameter:
            useVariable: 0
            name: 
            tooltip: 
            showInInspector: 0
            networkSync: 0
            typeName: System.Boolean
            value: {fileID: 0}
          MaterialParameter:
            useVariable: 0
            name: 
            tooltip: 
            showInInspector: 0
            networkSync: 0
            typeName: 
            value: {fileID: 0}
          TextureParameter:
            useVariable: 0
            name: 
            tooltip: 
            showInInspector: 0
            networkSync: 0
            typeName: 
            value: {fileID: 0}
          ColorParameter:
            useVariable: 0
            name: 
            tooltip: 
            showInInspector: 0
            networkSync: 0
            value: {r: 0, g: 0, b: 0, a: 1}
          EnumParameter:
            useVariable: 0
            name: 
            tooltip: 
            showInInspector: 0
            networkSync: 0
            enumName: HutongGames.PlayMaker.None
            intValue: 0
          ArrayParameter:
            useVariable: 0
            name: 
            tooltip: 
            showInInspector: 0
            networkSync: 0
            type: -1
            objectTypeName: UnityEngine.Object
            floatValues: []
            intValues: 
            boolValues: 
            stringValues: []
            vector4Values: []
            objectReferences: []
          setProperty: 1
        - TargetObject:
            useVariable: 1
            name: Forse
            tooltip: 
            showInInspector: 0
            networkSync: 0
            typeName: UnityEngine.ConstantForce2D
            value: {fileID: 0}
          TargetTypeName: UnityEngine.ConstantForce2D
          PropertyName: enabled
          BoolParameter:
            useVariable: 0
            name: 
            tooltip: 
            showInInspector: 0
            networkSync: 0
            value: 0
          FloatParameter:
            useVariable: 0
            name: 
            tooltip: 
            showInInspector: 0
            networkSync: 0
            value: 0
          IntParameter:
            useVariable: 0
            name: 
            tooltip: 
            showInInspector: 0
            networkSync: 0
            value: 0
          GameObjectParameter:
            useVariable: 0
            name: 
            tooltip: 
            showInInspector: 0
            networkSync: 0
            value: {fileID: 0}
          StringParameter:
            useVariable: 0
            name: 
            tooltip: 
            showInInspector: 0
            networkSync: 0
            value: 
          Vector2Parameter:
            useVariable: 0
            name: 
            tooltip: 
            showInInspector: 0
            networkSync: 0
            value: {x: 0, y: 0}
          Vector3Parameter:
            useVariable: 0
            name: 
            tooltip: 
            showInInspector: 0
            networkSync: 0
            value: {x: 0, y: 0, z: 0}
          RectParamater:
            useVariable: 0
            name: 
            tooltip: 
            showInInspector: 0
            networkSync: 0
            value:
              serializedVersion: 2
              x: 0
              y: 0
              width: 0
              height: 0
          QuaternionParameter:
            useVariable: 0
            name: 
            tooltip: 
            showInInspector: 0
            networkSync: 0
            value: {x: 0, y: 0, z: 0, w: 0}
          ObjectParameter:
            useVariable: 0
            name: 
            tooltip: 
            showInInspector: 0
            networkSync: 0
            typeName: System.Boolean
            value: {fileID: 0}
          MaterialParameter:
            useVariable: 0
            name: 
            tooltip: 
            showInInspector: 0
            networkSync: 0
            typeName: 
            value: {fileID: 0}
          TextureParameter:
            useVariable: 0
            name: 
            tooltip: 
            showInInspector: 0
            networkSync: 0
            typeName: 
            value: {fileID: 0}
          ColorParameter:
            useVariable: 0
            name: 
            tooltip: 
            showInInspector: 0
            networkSync: 0
            value: {r: 0, g: 0, b: 0, a: 1}
          EnumParameter:
            useVariable: 0
            name: 
            tooltip: 
            showInInspector: 0
            networkSync: 0
            enumName: HutongGames.PlayMaker.None
            intValue: 0
          ArrayParameter:
            useVariable: 0
            name: 
            tooltip: 
            showInInspector: 0
            networkSync: 0
            type: -1
            objectTypeName: UnityEngine.Object
            floatValues: []
            intValues: 
            boolValues: 
            stringValues: []
            vector4Values: []
            objectReferences: []
          setProperty: 1
        - TargetObject:
            useVariable: 1
            name: Rig
            tooltip: 
            showInInspector: 0
            networkSync: 0
            typeName: UnityEngine.Rigidbody2D
            value: {fileID: 0}
          TargetTypeName: UnityEngine.Rigidbody2D
          PropertyName: constraints
          BoolParameter:
            useVariable: 0
            name: 
            tooltip: 
            showInInspector: 0
            networkSync: 0
            value: 0
          FloatParameter:
            useVariable: 0
            name: 
            tooltip: 
            showInInspector: 0
            networkSync: 0
            value: 0
          IntParameter:
            useVariable: 0
            name: 
            tooltip: 
            showInInspector: 0
            networkSync: 0
            value: 0
          GameObjectParameter:
            useVariable: 0
            name: 
            tooltip: 
            showInInspector: 0
            networkSync: 0
            value: {fileID: 0}
          StringParameter:
            useVariable: 0
            name: 
            tooltip: 
            showInInspector: 0
            networkSync: 0
            value: 
          Vector2Parameter:
            useVariable: 0
            name: 
            tooltip: 
            showInInspector: 0
            networkSync: 0
            value: {x: 0, y: 0}
          Vector3Parameter:
            useVariable: 0
            name: 
            tooltip: 
            showInInspector: 0
            networkSync: 0
            value: {x: 0, y: 0, z: 0}
          RectParamater:
            useVariable: 0
            name: 
            tooltip: 
            showInInspector: 0
            networkSync: 0
            value:
              serializedVersion: 2
              x: 0
              y: 0
              width: 0
              height: 0
          QuaternionParameter:
            useVariable: 0
            name: 
            tooltip: 
            showInInspector: 0
            networkSync: 0
            value: {x: 0, y: 0, z: 0, w: 0}
          ObjectParameter:
            useVariable: 0
            name: 
            tooltip: 
            showInInspector: 0
            networkSync: 0
            typeName: UnityEngine.RigidbodyConstraints2D
            value: {fileID: 0}
          MaterialParameter:
            useVariable: 0
            name: 
            tooltip: 
            showInInspector: 0
            networkSync: 0
            typeName: 
            value: {fileID: 0}
          TextureParameter:
            useVariable: 0
            name: 
            tooltip: 
            showInInspector: 0
            networkSync: 0
            typeName: 
            value: {fileID: 0}
          ColorParameter:
            useVariable: 0
            name: 
            tooltip: 
            showInInspector: 0
            networkSync: 0
            value: {r: 0, g: 0, b: 0, a: 1}
          EnumParameter:
            useVariable: 0
            name: 
            tooltip: 
            showInInspector: 0
            networkSync: 0
            enumName: UnityEngine.RigidbodyConstraints2D
            intValue: 4
          ArrayParameter:
            useVariable: 0
            name: 
            tooltip: 
            showInInspector: 0
            networkSync: 0
            type: -1
            objectTypeName: UnityEngine.Object
            floatValues: []
            intValues: 
            boolValues: 
            stringValues: []
            vector4Values: []
            objectReferences: []
          setProperty: 1
        layoutOptionParams: []
        fsmStringParams: []
        fsmObjectParams:
        - useVariable: 1
          name: Collider
          tooltip: 
          showInInspector: 0
          networkSync: 0
          typeName: UnityEngine.Collider2D
          value: {fileID: 0}
        - useVariable: 1
          name: Forse
          tooltip: 
          showInInspector: 0
          networkSync: 0
          typeName: UnityEngine.ConstantForce2D
          value: {fileID: 0}
        - useVariable: 1
          name: Rig
          tooltip: 
          showInInspector: 0
          networkSync: 0
          typeName: UnityEngine.Rigidbody2D
          value: {fileID: 0}
        - useVariable: 0
          name: 
          tooltip: 
          showInInspector: 0
          networkSync: 0
          typeName: UnityEngine.AudioClip
          value: {fileID: 8300000, guid: 2664e410a84aa47d98c476fa4a12362f, type: 3}
        fsmVarParams: []
        fsmArrayParams: []
        fsmEnumParams: []
        fsmFloatParams: []
        fsmIntParams: []
        fsmBoolParams: []
        fsmVector2Params: []
        fsmVector3Params: []
        fsmColorParams: []
        fsmRectParams: []
        fsmQuaternionParams: []
        stringParams: []
        byteData: 524e2f5049432f53746f7046696e67657200000000000000000000000000000000000001466f6f64506f73000000000158706f73000000000100000000010000000000000000000158706f730000fac30000000000005265706561740000000000546f74616c2f506c6179466f6f644e616d65000000000000000000000000524e2f5049432f4c6f6f6b4e616d65730000000000000000803f000000803f0000000000524e2f5049432f466f6f64556e64657246696e67657201000000000000
        arrayParamSizes: 
        arrayParamTypes: []
        customTypeSizes: 
        customTypeNames: []
        paramDataType: 1f000000170000000f00000001000000140000001c0000000f0000000f0000000f00000007000000010000000f0000000f0000000f000000170000001700000017000000010000001400000013000000140000001300000011000000110000001f000000170000000f000000010000001400000018000000010000001400000018000000010000001400000018000000010000002400000001000000240000000100000024000000010000001f000000170000000f0000000100000014000000180000000f0000000f000000110000001100000014000000170000001000000011000000
        paramName:
        - eventTarget
        - sendEvent
        - delay
        - everyFrame
        - gameObject
        - vector
        - x
        - y
        - z
        - space
        - everyFrame
        - float1
        - float2
        - tolerance
        - equal
        - lessThan
        - greaterThan
        - everyFrame
        - gameObject
        - storeResult
        - gameObject
        - parent
        - resetLocalPosition
        - resetLocalRotation
        - eventTarget
        - sendEvent
        - delay
        - everyFrame
        - gameObject
        - storeComponent
        - everyFrame
        - gameObject
        - storeComponent
        - everyFrame
        - gameObject
        - storeComponent
        - everyFrame
        - targetProperty
        - everyFrame
        - targetProperty
        - everyFrame
        - targetProperty
        - everyFrame
        - eventTarget
        - sendEvent
        - delay
        - everyFrame
        - gameObject
        - clip
        - volume
        - speed
        - loop
        - waitForEnd
        - gameObject
        - sendEvent
        - parentLevel
        - recursive
        paramDataPos: 0000000000000000110000001600000000000000170000002b00000034000000390000003e00000042000000430000004c0000005100000056000000560000005c0000005c000000010000000000000002000000010000005d0000005f0000000100000061000000730000007800000003000000000000007900000004000000010000007a00000005000000020000007b000000000000007c000000010000007d000000020000007e000000020000007f0000008f000000940000000600000003000000950000009a0000009f000000a100000007000000a3000000b9000000be000000
        paramByteDataSize: 000000001100000005000000010000000000000014000000090000000500000005000000040000000100000009000000050000000500000000000000060000000000000001000000000000000000000000000000000000000200000002000000000000001200000005000000010000000000000000000000010000000000000000000000010000000000000000000000010000000000000001000000000000000100000000000000010000000000000010000000050000000100000000000000000000000500000005000000020000000200000000000000160000000500000002000000
    - name: MouseDrag
      description: 
      colorIndex: 0
      position:
        serializedVersion: 2
        x: 76.015625
        y: 214.625
        width: 100
        height: 32
      isBreakpoint: 0
      isSequence: 0
      hideUnused: 0
      transitions:
      - fsmEvent:
          name: MOUSE UP
          isSystemEvent: 1
          isGlobal: 1
        toState: MoveDown
        linkStyle: 0
        linkConstraint: 0
        colorIndex: 0
      actionData:
        actionNames:
        - HutongGames.PlayMaker.Actions.iTweenRotateTo
        - HutongGames.PlayMaker.Actions.RZ_FollowMouse
        customNames:
        - 
        - 
        actionEnabled: 0101
        actionIsOpen: 0000
        actionStartIndex: 000000000f000000
        actionHashCodes: 741578038cfff602
        unityObjectParams: []
        fsmGameObjectParams:
        - useVariable: 1
          name: 
          tooltip: 
          showInInspector: 0
          networkSync: 0
          value: {fileID: 0}
        fsmOwnerDefaultParams:
        - ownerOption: 1
          gameObject:
            useVariable: 1
            name: Food
            tooltip: 
            showInInspector: 0
            networkSync: 0
            value: {fileID: 0}
        - ownerOption: 1
          gameObject:
            useVariable: 1
            name: Food
            tooltip: 
            showInInspector: 0
            networkSync: 0
            value: {fileID: 0}
        animationCurveParams: []
        functionCallParams: []
        fsmTemplateControlParams: []
        fsmEventTargetParams:
        - target: 0
          excludeSelf:
            useVariable: 0
            name: 
            tooltip: 
            showInInspector: 0
            networkSync: 0
            value: 0
          gameObject:
            ownerOption: 0
            gameObject:
              useVariable: 0
              name: 
              tooltip: 
              showInInspector: 0
              networkSync: 0
              value: {fileID: 0}
          fsmName:
            useVariable: 0
            name: 
            tooltip: 
            showInInspector: 0
            networkSync: 0
            value: 
          sendToChildren:
            useVariable: 0
            name: 
            tooltip: 
            showInInspector: 0
            networkSync: 0
            value: 0
          fsmComponent: {fileID: 0}
        fsmPropertyParams: []
        layoutOptionParams: []
        fsmStringParams:
        - useVariable: 1
          name: 
          tooltip: 
          showInInspector: 0
          networkSync: 0
          value: 
        fsmObjectParams: []
        fsmVarParams: []
        fsmArrayParams: []
        fsmEnumParams: []
        fsmFloatParams: []
        fsmIntParams: []
        fsmBoolParams: []
        fsmVector2Params: []
        fsmVector3Params: []
        fsmColorParams: []
        fsmRectParams: []
        fsmQuaternionParams: []
        stringParams: []
        byteData: 00000000000000000000000000cdcccc3d00000000000000000000011500000000000000000000000000000000000000c03f0000000000004d4f55534520555000002042000000000000000100000000000000000000000000000000000000000080bb4400
        arrayParamSizes: 00000000
        arrayParamTypes:
        - HutongGames.PlayMaker.FsmVector3
        customTypeSizes: 
        customTypeNames: []
        paramDataType: 1400000012000000130000001c0000000f0000000f0000000f0000000700000007000000070000001700000017000000110000001100000011000000140000000f0000000f000000170000000f0000001100000011000000110000001100000011000000110000001c000000110000000c0000000f0000001f00000017000000
        paramName:
        - gameObject
        - id
        - transformRotation
        - vectorRotation
        - time
        - delay
        - speed
        - easeType
        - loopType
        - space
        - startEvent
        - finishEvent
        - realTime
        - stopOnExit
        - loopDontFinish
        - movementGO
        - scaleMultiplier
        - ScaleTime
        - onMouseUp
        - z
        - resetZ
        - StopX
        - StopY
        - ResetScale
        - moveToStart
        - useOtherStartPosition
        - otherStartPositions
        - useIntermediatePositions
        - intermediatePositions
        - speed
        - target
        - FinishMoveToStartEvent
        paramDataPos: 000000000000000000000000000000000d00000012000000170000001c00000020000000240000002800000028000000280000002a0000002c000000010000002e0000003300000038000000400000004500000047000000490000004b0000004d0000004f000000510000005e00000000000000600000000000000065000000
        paramByteDataSize: 0000000000000000000000000d000000050000000500000005000000040000000400000004000000000000000000000002000000020000000200000000000000050000000500000008000000050000000200000002000000020000000200000002000000020000000d0000000200000000000000050000000000000000000000
    - name: MoveDown
      description: 
      colorIndex: 0
      position:
        serializedVersion: 2
        x: 76.85156
        y: 258.79688
        width: 100
        height: 32
      isBreakpoint: 0
      isSequence: 0
      hideUnused: 0
      transitions:
      - fsmEvent:
          name: FINISHED
          isSystemEvent: 1
          isGlobal: 1
        toState: Sleep....
        linkStyle: 0
        linkConstraint: 0
        colorIndex: 0
      actionData:
        actionNames:
        - HutongGames.PlayMaker.Actions.RZ_PlaySound
        - HutongGames.PlayMaker.Actions.SetParent
        - HutongGames.PlayMaker.Actions.SendEvent
        - HutongGames.PlayMaker.Actions.SendEvent
        - HutongGames.PlayMaker.Actions.RZ_SendEventToParent
        - HutongGames.PlayMaker.Actions.GetPosition
        - HutongGames.PlayMaker.Actions.SetVector3XYZ
        - HutongGames.PlayMaker.Actions.iTweenMoveTo
        customNames:
        - 
        - 
        - 
        - 
        - 
        - 
        - 
        - 
        actionEnabled: 0101010001010101
        actionIsOpen: 0000000000000000
        actionStartIndex: 00000000060000000a0000000e00000012000000160000001d00000023000000
        actionHashCodes: 4652a704ea32a1055e69bb045e69bb0428a20a045552ad05dfd72a047bce7604
        unityObjectParams: []
        fsmGameObjectParams:
        - useVariable: 0
          name: 
          tooltip: 
          showInInspector: 0
          networkSync: 0
          value: {fileID: 0}
        - useVariable: 1
          name: 
          tooltip: 
          showInInspector: 0
          networkSync: 0
          value: {fileID: 0}
        - useVariable: 1
          name: 
          tooltip: 
          showInInspector: 0
          networkSync: 0
          value: {fileID: 0}
        fsmOwnerDefaultParams:
        - ownerOption: 0
          gameObject:
            useVariable: 0
            name: 
            tooltip: 
            showInInspector: 0
            networkSync: 0
            value: {fileID: 0}
        - ownerOption: 1
          gameObject:
            useVariable: 1
            name: Food
            tooltip: 
            showInInspector: 0
            networkSync: 0
            value: {fileID: 0}
        - ownerOption: 0
          gameObject:
            useVariable: 0
            name: 
            tooltip: 
            showInInspector: 0
            networkSync: 0
            value: {fileID: 0}
        - ownerOption: 1
          gameObject:
            useVariable: 1
            name: Food
            tooltip: 
            showInInspector: 0
            networkSync: 0
            value: {fileID: 0}
        - ownerOption: 1
          gameObject:
            useVariable: 1
            name: Food
            tooltip: 
            showInInspector: 0
            networkSync: 0
            value: {fileID: 0}
        animationCurveParams: []
        functionCallParams: []
        fsmTemplateControlParams: []
        fsmEventTargetParams:
        - target: 4
          excludeSelf:
            useVariable: 0
            name: 
            tooltip: 
            showInInspector: 0
            networkSync: 0
            value: 0
          gameObject:
            ownerOption: 0
            gameObject:
              useVariable: 0
              name: 
              tooltip: 
              showInInspector: 0
              networkSync: 0
              value: {fileID: 0}
          fsmName:
            useVariable: 0
            name: 
            tooltip: 
            showInInspector: 0
            networkSync: 0
            value: 
          sendToChildren:
            useVariable: 0
            name: 
            tooltip: 
            showInInspector: 0
            networkSync: 0
            value: 0
          fsmComponent: {fileID: 0}
        - target: 1
          excludeSelf:
            useVariable: 0
            name: 
            tooltip: 
            showInInspector: 0
            networkSync: 0
            value: 0
          gameObject:
            ownerOption: 1
            gameObject:
              useVariable: 1
              name: PersAnim
              tooltip: 
              showInInspector: 0
              networkSync: 0
              value: {fileID: 0}
          fsmName:
            useVariable: 0
            name: 
            tooltip: 
            showInInspector: 0
            networkSync: 0
            value: 
          sendToChildren:
            useVariable: 0
            name: 
            tooltip: 
            showInInspector: 0
            networkSync: 0
            value: 0
          fsmComponent: {fileID: 0}
        fsmPropertyParams: []
        layoutOptionParams: []
        fsmStringParams:
        - useVariable: 1
          name: 
          tooltip: 
          showInInspector: 0
          networkSync: 0
          value: 
        fsmObjectParams:
        - useVariable: 0
          name: 
          tooltip: 
          showInInspector: 0
          networkSync: 0
          typeName: UnityEngine.AudioClip
          value: {fileID: 8300000, guid: 7f7dabdbd54a6b04d9395c8950944c29, type: 3}
        fsmVarParams: []
        fsmArrayParams: []
        fsmEnumParams: []
        fsmFloatParams: []
        fsmIntParams: []
        fsmBoolParams: []
        fsmVector2Params: []
        fsmVector3Params: []
        fsmColorParams: []
        fsmRectParams: []
        fsmQuaternionParams: []
        stringParams: []
        byteData: cdcccc3e000000803f000000000000000000524e2f5049432f53746f70000000000000524e2f5049432f53746f704c6f6f70416e696d000000000000524e2f5049432f53746f704c6f6f70416e696d0100000000000000000000000000000000000001466f6f64506f73000000000100000000010000000001000000000000000000000000000000000001526573506f7300000000000000000000000001466f6f64506f730000000001008089c40000000000010000000000000000000000000001526573506f73000000000100000000000080bb440000000000150000000000000000000000000000000000000000000100000000010000000001000000000001000046494e4953484544000000000000
        arrayParamSizes: 0000000000000000
        arrayParamTypes:
        - HutongGames.PlayMaker.FsmGameObject
        - HutongGames.PlayMaker.FsmVector3
        customTypeSizes: 
        customTypeNames: []
        paramDataType: 14000000180000000f0000000f0000001100000011000000140000001300000011000000110000001f000000170000000f000000010000001f000000170000000f0000000100000014000000170000001000000011000000140000001c0000000f0000000f0000000f00000007000000010000001c0000001c0000000f0000000f0000000f000000010000001400000012000000130000001c0000000f0000000f0000000f00000007000000070000000700000011000000130000001c0000000f00000007000000110000000f0000000c0000000c000000110000001700000017000000110000001100000011000000
        paramName:
        - gameObject
        - clip
        - volume
        - speed
        - loop
        - waitForEnd
        - gameObject
        - parent
        - resetLocalPosition
        - resetLocalRotation
        - eventTarget
        - sendEvent
        - delay
        - everyFrame
        - eventTarget
        - sendEvent
        - delay
        - everyFrame
        - gameObject
        - sendEvent
        - parentLevel
        - recursive
        - gameObject
        - vector
        - x
        - y
        - z
        - space
        - everyFrame
        - vector3Variable
        - vector3Value
        - x
        - y
        - z
        - everyFrame
        - gameObject
        - id
        - transformPosition
        - vectorPosition
        - time
        - delay
        - speed
        - space
        - easeType
        - loopType
        - orientToPath
        - lookAtObject
        - lookAtVector
        - lookTime
        - axis
        - moveToPath
        - lookAhead
        - transforms
        - vectors
        - reverse
        - startEvent
        - finishEvent
        - realTime
        - stopOnExit
        - loopDontFinish
        paramDataPos: 000000000000000000000000050000000a0000000c00000001000000000000000e0000001000000000000000120000001d000000220000000100000023000000360000003b000000020000003c0000004f0000005400000003000000560000006a0000006f00000074000000790000007d0000007e00000091000000a5000000aa000000af000000b4000000040000000000000001000000b5000000c8000000cd000000d2000000d7000000db000000df000000e300000002000000e5000000f2000000f7000000fb000000fd00000000000000010000000201000004010000040100000c0100000e01000010010000
        paramByteDataSize: 00000000000000000500000005000000020000000200000000000000000000000200000002000000000000000b00000005000000010000000000000013000000050000000100000000000000130000000500000002000000000000001400000005000000050000000500000004000000010000001300000014000000050000000500000005000000010000000000000000000000000000001300000005000000050000000500000004000000040000000400000002000000000000000d000000050000000400000002000000050000000000000000000000020000000000000008000000020000000200000002000000
    - name: Sleep....
      description: 
      colorIndex: 0
      position:
        serializedVersion: 2
        x: 78.58594
        y: 301.26562
        width: 100
        height: 16
      isBreakpoint: 0
      isSequence: 0
      hideUnused: 0
      transitions: []
      actionData:
        actionNames:
        - HutongGames.PlayMaker.Actions.SetProperty
        - HutongGames.PlayMaker.Actions.SetProperty
        - HutongGames.PlayMaker.Actions.SetProperty
        - HutongGames.PlayMaker.Actions.SetScale
        - HutongGames.PlayMaker.Actions.FindGameObject
        - HutongGames.PlayMaker.Actions.SetRotation
        - HutongGames.PlayMaker.Actions.SetParent
        - HutongGames.PlayMaker.Actions.SetActiveGO
        customNames:
        - 
        - 
        - 
        - 
        - 
        - 
        - 
        - 
        actionEnabled: 0101010101010101
        actionIsOpen: 0000000000000000
        actionStartIndex: 000000000200000004000000060000000d00000010000000190000001d000000
        actionHashCodes: 5ac852045ac852045ac85204afff1105786b3902979e4104ea32a10515264c01
        unityObjectParams: []
        fsmGameObjectParams:
        - useVariable: 1
          name: SleepParent
          tooltip: 
          showInInspector: 0
          networkSync: 0
          value: {fileID: 0}
        - useVariable: 1
          name: SleepParent
          tooltip: 
          showInInspector: 0
          networkSync: 0
          value: {fileID: 0}
        fsmOwnerDefaultParams:
        - ownerOption: 1
          gameObject:
            useVariable: 1
            name: Food
            tooltip: 
            showInInspector: 0
            networkSync: 0
            value: {fileID: 0}
        - ownerOption: 1
          gameObject:
            useVariable: 1
            name: Food
            tooltip: 
            showInInspector: 0
            networkSync: 0
            value: {fileID: 0}
        - ownerOption: 1
          gameObject:
            useVariable: 1
            name: Food
            tooltip: 
            showInInspector: 0
            networkSync: 0
            value: {fileID: 0}
        - ownerOption: 1
          gameObject:
            useVariable: 1
            name: Food
            tooltip: 
            showInInspector: 0
            networkSync: 0
            value: {fileID: 0}
        animationCurveParams: []
        functionCallParams: []
        fsmTemplateControlParams: []
        fsmEventTargetParams: []
        fsmPropertyParams:
        - TargetObject:
            useVariable: 1
            name: Collider
            tooltip: 
            showInInspector: 0
            networkSync: 0
            typeName: UnityEngine.Collider2D
            value: {fileID: 0}
          TargetTypeName: UnityEngine.Collider2D
          PropertyName: isTrigger
          BoolParameter:
            useVariable: 0
            name: 
            tooltip: 
            showInInspector: 0
            networkSync: 0
            value: 0
          FloatParameter:
            useVariable: 0
            name: 
            tooltip: 
            showInInspector: 0
            networkSync: 0
            value: 0
          IntParameter:
            useVariable: 0
            name: 
            tooltip: 
            showInInspector: 0
            networkSync: 0
            value: 0
          GameObjectParameter:
            useVariable: 0
            name: 
            tooltip: 
            showInInspector: 0
            networkSync: 0
            value: {fileID: 0}
          StringParameter:
            useVariable: 0
            name: 
            tooltip: 
            showInInspector: 0
            networkSync: 0
            value: 
          Vector2Parameter:
            useVariable: 0
            name: 
            tooltip: 
            showInInspector: 0
            networkSync: 0
            value: {x: 0, y: 0}
          Vector3Parameter:
            useVariable: 0
            name: 
            tooltip: 
            showInInspector: 0
            networkSync: 0
            value: {x: 0, y: 0, z: 0}
          RectParamater:
            useVariable: 0
            name: 
            tooltip: 
            showInInspector: 0
            networkSync: 0
            value:
              serializedVersion: 2
              x: 0
              y: 0
              width: 0
              height: 0
          QuaternionParameter:
            useVariable: 0
            name: 
            tooltip: 
            showInInspector: 0
            networkSync: 0
            value: {x: 0, y: 0, z: 0, w: 0}
          ObjectParameter:
            useVariable: 0
            name: 
            tooltip: 
            showInInspector: 0
            networkSync: 0
            typeName: System.Boolean
            value: {fileID: 0}
          MaterialParameter:
            useVariable: 0
            name: 
            tooltip: 
            showInInspector: 0
            networkSync: 0
            typeName: 
            value: {fileID: 0}
          TextureParameter:
            useVariable: 0
            name: 
            tooltip: 
            showInInspector: 0
            networkSync: 0
            typeName: 
            value: {fileID: 0}
          ColorParameter:
            useVariable: 0
            name: 
            tooltip: 
            showInInspector: 0
            networkSync: 0
            value: {r: 0, g: 0, b: 0, a: 1}
          EnumParameter:
            useVariable: 0
            name: 
            tooltip: 
            showInInspector: 0
            networkSync: 0
            enumName: HutongGames.PlayMaker.None
            intValue: 0
          ArrayParameter:
            useVariable: 0
            name: 
            tooltip: 
            showInInspector: 0
            networkSync: 0
            type: -1
            objectTypeName: UnityEngine.Object
            floatValues: []
            intValues: 
            boolValues: 
            stringValues: []
            vector4Values: []
            objectReferences: []
          setProperty: 1
        - TargetObject:
            useVariable: 1
            name: Forse
            tooltip: 
            showInInspector: 0
            networkSync: 0
            typeName: UnityEngine.ConstantForce2D
            value: {fileID: 0}
          TargetTypeName: UnityEngine.ConstantForce2D
          PropertyName: enabled
          BoolParameter:
            useVariable: 0
            name: 
            tooltip: 
            showInInspector: 0
            networkSync: 0
            value: 1
          FloatParameter:
            useVariable: 0
            name: 
            tooltip: 
            showInInspector: 0
            networkSync: 0
            value: 0
          IntParameter:
            useVariable: 0
            name: 
            tooltip: 
            showInInspector: 0
            networkSync: 0
            value: 0
          GameObjectParameter:
            useVariable: 0
            name: 
            tooltip: 
            showInInspector: 0
            networkSync: 0
            value: {fileID: 0}
          StringParameter:
            useVariable: 0
            name: 
            tooltip: 
            showInInspector: 0
            networkSync: 0
            value: 
          Vector2Parameter:
            useVariable: 0
            name: 
            tooltip: 
            showInInspector: 0
            networkSync: 0
            value: {x: 0, y: 0}
          Vector3Parameter:
            useVariable: 0
            name: 
            tooltip: 
            showInInspector: 0
            networkSync: 0
            value: {x: 0, y: 0, z: 0}
          RectParamater:
            useVariable: 0
            name: 
            tooltip: 
            showInInspector: 0
            networkSync: 0
            value:
              serializedVersion: 2
              x: 0
              y: 0
              width: 0
              height: 0
          QuaternionParameter:
            useVariable: 0
            name: 
            tooltip: 
            showInInspector: 0
            networkSync: 0
            value: {x: 0, y: 0, z: 0, w: 0}
          ObjectParameter:
            useVariable: 0
            name: 
            tooltip: 
            showInInspector: 0
            networkSync: 0
            typeName: System.Boolean
            value: {fileID: 0}
          MaterialParameter:
            useVariable: 0
            name: 
            tooltip: 
            showInInspector: 0
            networkSync: 0
            typeName: 
            value: {fileID: 0}
          TextureParameter:
            useVariable: 0
            name: 
            tooltip: 
            showInInspector: 0
            networkSync: 0
            typeName: 
            value: {fileID: 0}
          ColorParameter:
            useVariable: 0
            name: 
            tooltip: 
            showInInspector: 0
            networkSync: 0
            value: {r: 0, g: 0, b: 0, a: 1}
          EnumParameter:
            useVariable: 0
            name: 
            tooltip: 
            showInInspector: 0
            networkSync: 0
            enumName: HutongGames.PlayMaker.None
            intValue: 0
          ArrayParameter:
            useVariable: 0
            name: 
            tooltip: 
            showInInspector: 0
            networkSync: 0
            type: -1
            objectTypeName: UnityEngine.Object
            floatValues: []
            intValues: 
            boolValues: 
            stringValues: []
            vector4Values: []
            objectReferences: []
          setProperty: 1
        - TargetObject:
            useVariable: 1
            name: Rig
            tooltip: 
            showInInspector: 0
            networkSync: 0
            typeName: UnityEngine.Rigidbody2D
            value: {fileID: 0}
          TargetTypeName: UnityEngine.Rigidbody2D
          PropertyName: constraints
          BoolParameter:
            useVariable: 0
            name: 
            tooltip: 
            showInInspector: 0
            networkSync: 0
            value: 0
          FloatParameter:
            useVariable: 0
            name: 
            tooltip: 
            showInInspector: 0
            networkSync: 0
            value: 0
          IntParameter:
            useVariable: 0
            name: 
            tooltip: 
            showInInspector: 0
            networkSync: 0
            value: 0
          GameObjectParameter:
            useVariable: 0
            name: 
            tooltip: 
            showInInspector: 0
            networkSync: 0
            value: {fileID: 0}
          StringParameter:
            useVariable: 0
            name: 
            tooltip: 
            showInInspector: 0
            networkSync: 0
            value: 
          Vector2Parameter:
            useVariable: 0
            name: 
            tooltip: 
            showInInspector: 0
            networkSync: 0
            value: {x: 0, y: 0}
          Vector3Parameter:
            useVariable: 0
            name: 
            tooltip: 
            showInInspector: 0
            networkSync: 0
            value: {x: 0, y: 0, z: 0}
          RectParamater:
            useVariable: 0
            name: 
            tooltip: 
            showInInspector: 0
            networkSync: 0
            value:
              serializedVersion: 2
              x: 0
              y: 0
              width: 0
              height: 0
          QuaternionParameter:
            useVariable: 0
            name: 
            tooltip: 
            showInInspector: 0
            networkSync: 0
            value: {x: 0, y: 0, z: 0, w: 0}
          ObjectParameter:
            useVariable: 0
            name: 
            tooltip: 
            showInInspector: 0
            networkSync: 0
            typeName: UnityEngine.RigidbodyConstraints2D
            value: {fileID: 0}
          MaterialParameter:
            useVariable: 0
            name: 
            tooltip: 
            showInInspector: 0
            networkSync: 0
            typeName: 
            value: {fileID: 0}
          TextureParameter:
            useVariable: 0
            name: 
            tooltip: 
            showInInspector: 0
            networkSync: 0
            typeName: 
            value: {fileID: 0}
          ColorParameter:
            useVariable: 0
            name: 
            tooltip: 
            showInInspector: 0
            networkSync: 0
            value: {r: 0, g: 0, b: 0, a: 1}
          EnumParameter:
            useVariable: 0
            name: 
            tooltip: 
            showInInspector: 0
            networkSync: 0
            enumName: UnityEngine.RigidbodyConstraints2D
            intValue: 0
          ArrayParameter:
            useVariable: 0
            name: 
            tooltip: 
            showInInspector: 0
            networkSync: 0
            type: -1
            objectTypeName: UnityEngine.Object
            floatValues: []
            intValues: 
            boolValues: 
            stringValues: []
            vector4Values: []
            objectReferences: []
          setProperty: 1
        layoutOptionParams: []
        fsmStringParams:
        - useVariable: 0
          name: 
          tooltip: 
          showInInspector: 0
          networkSync: 0
          value: FOOD_IN_AQUEDUCT(Sleep)
        - useVariable: 0
          name: 
          tooltip: 
          showInInspector: 0
          networkSync: 0
          value: Untagged
        fsmObjectParams: []
        fsmVarParams: []
        fsmArrayParams: []
        fsmEnumParams: []
        fsmFloatParams: []
        fsmIntParams: []
        fsmBoolParams: []
        fsmVector2Params: []
        fsmVector3Params: []
        fsmColorParams: []
        fsmRectParams: []
        fsmQuaternionParams: []
        stringParams: []
        byteData: 00000000000000000000000000000001cdcccc3e00cdcccc3e00cdcccc3d000000000000000000000000000000000000000100000000000000000000000001000000000000000000000000000000000000000000010001000000
        arrayParamSizes: 
        arrayParamTypes: []
        customTypeSizes: 
        customTypeNames: []
        paramDataType: 240000000100000024000000010000002400000001000000140000001c0000000f0000000f0000000f000000010000000100000012000000120000001300000014000000230000001c0000000f0000000f0000000f000000070000000100000001000000140000001300000011000000110000001400000011000000
        paramName:
        - targetProperty
        - everyFrame
        - targetProperty
        - everyFrame
        - targetProperty
        - everyFrame
        - gameObject
        - vector
        - x
        - y
        - z
        - everyFrame
        - lateUpdate
        - objectName
        - withTag
        - store
        - gameObject
        - quaternion
        - vector
        - xAngle
        - yAngle
        - zAngle
        - space
        - everyFrame
        - lateUpdate
        - gameObject
        - parent
        - resetLocalPosition
        - resetLocalRotation
        - gameObject
        - IsActive
        paramDataPos: 000000000000000001000000010000000200000002000000000000000300000010000000150000001a0000001f000000200000000000000001000000000000000100000021000000320000003f00000044000000490000004e0000005200000053000000020000000100000054000000560000000300000058000000
        paramByteDataSize: 000000000100000000000000010000000000000001000000000000000d000000050000000500000005000000010000000100000000000000000000000000000000000000110000000d000000050000000500000005000000040000000100000001000000000000000000000002000000020000000000000002000000
    - name: Move
      description: 
      colorIndex: 0
      position:
        serializedVersion: 2
        x: 257
        y: 178
        width: 156
        height: 32
      isBreakpoint: 0
      isSequence: 0
      hideUnused: 0
      transitions:
      - fsmEvent:
          name: FINISHED
          isSystemEvent: 1
          isGlobal: 1
        toState: DestoyComponents
        linkStyle: 0
        linkConstraint: 0
        colorIndex: 0
      actionData:
        actionNames:
        - HutongGames.PlayMaker.Actions.SendEvent
        - HutongGames.PlayMaker.Actions.SendEvent
        - HutongGames.PlayMaker.Actions.RZ_SendEventToParent
        - HutongGames.PlayMaker.Actions.SetParent
        - HutongGames.PlayMaker.Actions.GetPosition
        - HutongGames.PlayMaker.Actions.iTweenScaleTo
        - HutongGames.PlayMaker.Actions.RZ_MoveByCurve
        customNames:
        - 
        - 
        - 
        - 
        - 
        - 
        - 
        actionEnabled: 01010101010101
        actionIsOpen: 00000000000000
        actionStartIndex: 0000000004000000080000000c000000100000001700000025000000
        actionHashCodes: 5e69bb045e69bb0428a20a04ea32a1055552ad059cadd20413cfe403
        unityObjectParams: []
        fsmGameObjectParams:
        - useVariable: 1
          name: KuzovPlace
          tooltip: 
          showInInspector: 0
          networkSync: 0
          value: {fileID: 0}
        - useVariable: 1
          name: 
          tooltip: 
          showInInspector: 0
          networkSync: 0
          value: {fileID: 0}
        fsmOwnerDefaultParams:
        - ownerOption: 0
          gameObject:
            useVariable: 0
            name: 
            tooltip: 
            showInInspector: 0
            networkSync: 0
            value: {fileID: 0}
        - ownerOption: 1
          gameObject:
            useVariable: 1
            name: Food
            tooltip: 
            showInInspector: 0
            networkSync: 0
            value: {fileID: 0}
        - ownerOption: 1
          gameObject:
            useVariable: 1
            name: KuzovPlace
            tooltip: 
            showInInspector: 0
            networkSync: 0
            value: {fileID: 0}
        - ownerOption: 1
          gameObject:
            useVariable: 1
            name: Food
            tooltip: 
            showInInspector: 0
            networkSync: 0
            value: {fileID: 0}
        - ownerOption: 1
          gameObject:
            useVariable: 1
            name: Food
            tooltip: 
            showInInspector: 0
            networkSync: 0
            value: {fileID: 0}
        animationCurveParams: []
        functionCallParams: []
        fsmTemplateControlParams: []
        fsmEventTargetParams:
        - target: 4
          excludeSelf:
            useVariable: 0
            name: 
            tooltip: 
            showInInspector: 0
            networkSync: 0
            value: 0
          gameObject:
            ownerOption: 0
            gameObject:
              useVariable: 0
              name: 
              tooltip: 
              showInInspector: 0
              networkSync: 0
              value: {fileID: 0}
          fsmName:
            useVariable: 0
            name: 
            tooltip: 
            showInInspector: 0
            networkSync: 0
            value: 
          sendToChildren:
            useVariable: 0
            name: 
            tooltip: 
            showInInspector: 0
            networkSync: 0
            value: 0
          fsmComponent: {fileID: 0}
        - target: 4
          excludeSelf:
            useVariable: 0
            name: 
            tooltip: 
            showInInspector: 0
            networkSync: 0
            value: 0
          gameObject:
            ownerOption: 0
            gameObject:
              useVariable: 0
              name: 
              tooltip: 
              showInInspector: 0
              networkSync: 0
              value: {fileID: 0}
          fsmName:
            useVariable: 0
            name: 
            tooltip: 
            showInInspector: 0
            networkSync: 0
            value: 
          sendToChildren:
            useVariable: 0
            name: 
            tooltip: 
            showInInspector: 0
            networkSync: 0
            value: 0
          fsmComponent: {fileID: 0}
        fsmPropertyParams: []
        layoutOptionParams: []
        fsmStringParams:
        - useVariable: 1
          name: 
          tooltip: 
          showInInspector: 0
          networkSync: 0
          value: 
        fsmObjectParams: []
        fsmVarParams: []
        fsmArrayParams: []
        fsmEnumParams: []
        fsmFloatParams: []
        fsmIntParams: []
        fsmBoolParams: []
        fsmVector2Params: []
        fsmVector3Params: []
        fsmColorParams: []
        fsmRectParams: []
        fsmQuaternionParams: []
        stringParams: []
        byteData: 524e2f5049432f53746f7046696e676572000000000000524e2f5049432f53746f70000000000000524e2f5049432f53746f704c6f6f70416e696d0100000000000000000000000000000000000000000000014b757a6f76506c616365506f7300000000010000000001000000000100000000000000803f0000803fcdcccc3d00cdcccc3d00000000000000000000011500000000000000000000000000000000000000000000000000014b757a6f76506c616365506f730000fa4500000000000046494e49534845440000164300
        arrayParamSizes: 
        arrayParamTypes: []
        customTypeSizes: 
        customTypeNames: []
        paramDataType: 1f000000170000000f000000010000001f000000170000000f000000010000001400000017000000100000001100000014000000130000001100000011000000140000001c0000000f0000000f0000000f00000007000000010000001400000012000000130000001c0000000f0000000f0000000f00000007000000070000001700000017000000110000001100000011000000140000001c0000000f0000000f000000170000000f000000
        paramName:
        - eventTarget
        - sendEvent
        - delay
        - everyFrame
        - eventTarget
        - sendEvent
        - delay
        - everyFrame
        - gameObject
        - sendEvent
        - parentLevel
        - recursive
        - gameObject
        - parent
        - resetLocalPosition
        - resetLocalRotation
        - gameObject
        - vector
        - x
        - y
        - z
        - space
        - everyFrame
        - gameObject
        - id
        - transformScale
        - vectorScale
        - time
        - delay
        - speed
        - easeType
        - loopType
        - startEvent
        - finishEvent
        - realTime
        - stopOnExit
        - loopDontFinish
        - gameObject
        - TargetPosition
        - Gravity
        - storeTime
        - FinishEvent
        - Height
        paramDataPos: 000000000000000011000000160000000100000017000000220000002700000000000000280000003b0000004000000001000000000000004200000044000000020000004600000060000000650000006a0000006f000000730000000300000000000000010000007400000081000000860000008b00000090000000940000009800000098000000980000009a0000009c000000040000009e000000b8000000bd000000c2000000ca000000
        paramByteDataSize: 00000000110000000500000001000000000000000b00000005000000010000000000000013000000050000000200000000000000000000000200000002000000000000001a00000005000000050000000500000004000000010000000000000000000000000000000d00000005000000050000000500000004000000040000000000000000000000020000000200000002000000000000001a00000005000000050000000800000005000000
    - name: DestoyComponents
      description: 
      colorIndex: 0
      position:
        serializedVersion: 2
        x: 261
        y: 220
        width: 147
        height: 16
      isBreakpoint: 0
      isSequence: 0
      hideUnused: 0
      transitions: []
      actionData:
        actionNames:
        - HutongGames.PlayMaker.Actions.RZ_PlaySound
        - HutongGames.PlayMaker.Actions.SetRotation
        - HutongGames.PlayMaker.Actions.RZ_GoodBadSound
        - HutongGames.PlayMaker.Actions.RZ_DestroyComponents
        - HutongGames.PlayMaker.Actions.RZ_DestroyComponents
        customNames:
        - 
        - 
        - 
        - 
        - 
        actionEnabled: 0101010101
        actionIsOpen: 0000000000
        actionStartIndex: 00000000060000000f000000150000001d000000
        actionHashCodes: 4652a704979e4104256c4c04f4ad4101f4ad4101
        unityObjectParams: []
        fsmGameObjectParams: []
        fsmOwnerDefaultParams:
        - ownerOption: 0
          gameObject:
            useVariable: 0
            name: 
            tooltip: 
            showInInspector: 0
            networkSync: 0
            value: {fileID: 0}
        - ownerOption: 1
          gameObject:
            useVariable: 1
            name: Food
            tooltip: 
            showInInspector: 0
            networkSync: 0
            value: {fileID: 0}
        - ownerOption: 1
          gameObject:
            useVariable: 1
            name: Food
            tooltip: 
            showInInspector: 0
            networkSync: 0
            value: {fileID: 0}
        - ownerOption: 0
          gameObject:
            useVariable: 1
            name: Food
            tooltip: 
            showInInspector: 0
            networkSync: 0
            value: {fileID: 0}
        animationCurveParams: []
        functionCallParams: []
        fsmTemplateControlParams: []
        fsmEventTargetParams: []
        fsmPropertyParams: []
        layoutOptionParams: []
        fsmStringParams:
        - useVariable: 1
          name: FF2/GameLang
          tooltip: 
          showInInspector: 0
          networkSync: 0
          value: 
        - useVariable: 0
          name: 
          tooltip: 
          showInInspector: 0
          networkSync: 0
          value: Collider
        - useVariable: 0
          name: 
          tooltip: 
          showInInspector: 0
          networkSync: 0
          value: ConstantForce2D
        - useVariable: 0
          name: 
          tooltip: 
          showInInspector: 0
          networkSync: 0
          value: Rigidbody2D
        - useVariable: 0
          name: 
          tooltip: 
          showInInspector: 0
          networkSync: 0
          value: PlayMakerFSM
        fsmObjectParams:
        - useVariable: 0
          name: 
          tooltip: 
          showInInspector: 0
          networkSync: 0
          typeName: UnityEngine.AudioClip
          value: {fileID: 8300000, guid: 2ef98e88d2fc19c4c9742acbe23a566f, type: 3}
        fsmVarParams: []
        fsmArrayParams: []
        fsmEnumParams: []
        fsmFloatParams: []
        fsmIntParams: []
        fsmBoolParams: []
        fsmVector2Params: []
        fsmVector3Params: []
        fsmColorParams: []
        fsmRectParams: []
        fsmQuaternionParams: []
        stringParams: []
        byteData: 0000803f000000803f0000000000000000000000000000000000000000000100000000000000000000000001000000000000000000000000000000000000000000000000000000803f000000803f0000000000010000000000
        arrayParamSizes: 01000000030000000100000001000000
        arrayParamTypes:
        - HutongGames.PlayMaker.FsmOwnerDefault
        - HutongGames.PlayMaker.FsmString
        - HutongGames.PlayMaker.FsmOwnerDefault
        - HutongGames.PlayMaker.FsmString
        customTypeSizes: 
        customTypeNames: []
        paramDataType: 14000000180000000f0000000f000000110000001100000014000000230000001c0000000f0000000f0000000f0000000700000001000000010000000700000012000000170000000f0000000f00000011000000110000000c000000140000000c00000012000000120000001200000011000000110000000c000000140000000c0000001200000011000000
        paramName:
        - gameObject
        - clip
        - volume
        - speed
        - loop
        - waitForEnd
        - gameObject
        - quaternion
        - vector
        - xAngle
        - yAngle
        - zAngle
        - space
        - everyFrame
        - lateUpdate
        - GoodOrBadValue
        - Language
        - finishEvent
        - volume
        - speed
        - ClearGoodBadSounds
        - LightVersion
        - gameObject
        - 
        - component
        - 
        - 
        - 
        - Recursive
        - LightVersion
        - gameObject
        - 
        - component
        - 
        - Recursive
        paramDataPos: 000000000000000000000000050000000a0000000c000000010000000e0000001f0000002c00000031000000360000003b0000003f00000040000000410000000000000045000000450000004a0000004f0000005100000000000000020000000100000001000000020000000300000053000000550000000200000003000000030000000400000057000000
        paramByteDataSize: 00000000000000000500000005000000020000000200000000000000110000000d0000000500000005000000050000000400000001000000010000000400000000000000000000000500000005000000020000000200000000000000000000000000000000000000000000000000000002000000020000000000000000000000000000000000000002000000
    events:
    - name: FINISHED
      isSystemEvent: 1
      isGlobal: 1
    - name: MOUSE DOWN
      isSystemEvent: 1
      isGlobal: 1
    - name: MOUSE DRAG
      isSystemEvent: 1
      isGlobal: 1
    - name: MOUSE UP
      isSystemEvent: 1
      isGlobal: 1
    - name: ItsGood
      isSystemEvent: 0
      isGlobal: 1
    - name: MouseMT/Down
      isSystemEvent: 0
      isGlobal: 1
    - name: RN/PIC/BadLorry
      isSystemEvent: 0
      isGlobal: 1
    - name: RN/PIC/FoodUnderFinger
      isSystemEvent: 0
      isGlobal: 1
    - name: RN/PIC/LookNames
      isSystemEvent: 0
      isGlobal: 1
    - name: RN/PIC/MoveToHell
      isSystemEvent: 0
      isGlobal: 1
    - name: RN/PIC/PersRad
      isSystemEvent: 0
      isGlobal: 1
    - name: RN/PIC/PersZloy
      isSystemEvent: 0
      isGlobal: 1
    - name: RN/PIC/Stop
      isSystemEvent: 0
      isGlobal: 1
    - name: RN/PIC/StopLoopAnim
      isSystemEvent: 0
      isGlobal: 1
    - name: Repeat
      isSystemEvent: 0
      isGlobal: 1
    - name: Total/PlayFoodName
      isSystemEvent: 0
      isGlobal: 1
    globalTransitions:
    - fsmEvent:
        name: RN/PIC/MoveToHell
        isSystemEvent: 0
        isGlobal: 1
      toState: Move
      linkStyle: 0
      linkConstraint: 0
      colorIndex: 0
    variables:
      floatVariables:
      - useVariable: 1
        name: Xpos
        tooltip: 
        showInInspector: 0
        networkSync: 0
        value: 0
      intVariables: []
      boolVariables: []
      stringVariables: []
      vector2Variables: []
      vector3Variables:
      - useVariable: 1
        name: FoodPos
        tooltip: 
        showInInspector: 0
        networkSync: 0
        value: {x: 0, y: 0, z: 0}
      - useVariable: 1
        name: KuzovPlacePos
        tooltip: 
        showInInspector: 0
        networkSync: 0
        value: {x: 0, y: 0, z: 0}
      - useVariable: 1
        name: ResPos
        tooltip: 
        showInInspector: 0
        networkSync: 0
        value: {x: 0, y: 0, z: 0}
      colorVariables: []
      rectVariables: []
      quaternionVariables: []
      gameObjectVariables:
      - useVariable: 1
        name: Food
        tooltip: 
        showInInspector: 0
        networkSync: 0
        value: {fileID: 0}
      - useVariable: 1
        name: Golova
        tooltip: 
        showInInspector: 0
        networkSync: 0
        value: {fileID: 0}
      - useVariable: 1
        name: KuzovPlace
        tooltip: 
        showInInspector: 0
        networkSync: 0
        value: {fileID: 0}
      - useVariable: 1
        name: PersAnim
        tooltip: 
        showInInspector: 0
        networkSync: 0
        value: {fileID: 0}
      - useVariable: 1
        name: SleepParent
        tooltip: 
        showInInspector: 0
        networkSync: 0
        value: {fileID: 0}
      objectVariables:
      - useVariable: 1
        name: Collider
        tooltip: 
        showInInspector: 0
        networkSync: 0
        typeName: UnityEngine.Collider2D
        value: {fileID: 0}
      - useVariable: 1
        name: Forse
        tooltip: 
        showInInspector: 0
        networkSync: 0
        typeName: UnityEngine.ConstantForce2D
        value: {fileID: 0}
      - useVariable: 1
        name: Rig
        tooltip: 
        showInInspector: 0
        networkSync: 0
        typeName: UnityEngine.Rigidbody2D
        value: {fileID: 0}
      materialVariables: []
      textureVariables: []
      arrayVariables: []
      enumVariables: []
      categories:
      - 
      variableCategoryIDs: 000000000000000000000000000000000000000000000000000000000000000000000000000000000000000000000000
    description: 
    docUrl: 
    showStateLabel: 1
    maxLoopCount: 0
    watermark: 
    password: 
    locked: 0
    manualUpdate: 0
    keepDelayedEventsOnStateExit: 0
    preprocessed: 0
    ExposedEvents: []
    RestartOnEnable: 1
    EnableDebugFlow: 0
    EnableBreakpoints: 1
    editorFlags: 3
    activeStateName: 
    mouseEvents: 1
    handleTriggerEnter2D: 0
    handleTriggerExit2D: 0
    handleTriggerStay2D: 0
    handleCollisionEnter2D: 0
    handleCollisionExit2D: 0
    handleCollisionStay2D: 0
    handleTriggerEnter: 0
    handleTriggerExit: 0
    handleTriggerStay: 0
    handleCollisionEnter: 0
    handleCollisionExit: 0
    handleCollisionStay: 0
    handleControllerColliderHit: 0
    handleOnGUI: 0
    handleFixedUpdate: 0
    handleApplicationEvents: 0
    handleAnimatorMove: 0
    handleAnimatorIK: 0
