%YAML 1.1
%TAG !u! tag:unity3d.com,2011:
--- !u!114 &11400000
MonoBehaviour:
  m_ObjectHideFlags: 0
  m_PrefabParentObject: {fileID: 0}
  m_PrefabInternal: {fileID: 0}
  m_GameObject: {fileID: 0}
  m_Enabled: 1
  m_EditorHideFlags: 0
  m_Script: {fileID: 1219815696, guid: de72a6d2da64d114d95e3c5a01cfaec5, type: 3}
  m_Name: RN_PAR_BoxControl
  m_EditorClassIdentifier: 
  category: General
  fsm:
    dataVersion: 2
    usedInTemplate: {fileID: 11400000}
    name: FSM
    startState: '-'
    states:
    - name: '-'
      description: 
      colorIndex: 0
      position:
        serializedVersion: 2
        x: 59.257812
        y: 114.08594
        width: 176
        height: 32
      isBreakpoint: 0
      isSequence: 0
      hideUnused: 0
      transitions:
      - fsmEvent:
          name: RN/PAR/StartBoxWork
          isSystemEvent: 0
          isGlobal: 1
        toState: WaitFrame
        linkStyle: 0
        linkConstraint: 0
        colorIndex: 0
      actionData:
        actionNames: []
        customNames: []
        actionEnabled: 
        actionIsOpen: 
        actionStartIndex: 
        actionHashCodes: 
        unityObjectParams: []
        fsmGameObjectParams: []
        fsmOwnerDefaultParams: []
        animationCurveParams: []
        functionCallParams: []
        fsmTemplateControlParams: []
        fsmEventTargetParams: []
        fsmPropertyParams: []
        layoutOptionParams: []
        fsmStringParams: []
        fsmObjectParams: []
        fsmVarParams: []
        fsmArrayParams: []
        fsmEnumParams: []
        fsmFloatParams: []
        fsmIntParams: []
        fsmBoolParams: []
        fsmVector2Params: []
        fsmVector3Params: []
        fsmColorParams: []
        fsmRectParams: []
        fsmQuaternionParams: []
        stringParams: []
        byteData: 
        arrayParamSizes: 
        arrayParamTypes: []
        customTypeSizes: 
        customTypeNames: []
        paramDataType: 
        paramName: []
        paramDataPos: 
        paramByteDataSize: 
    - name: GetFood
      description: 
      colorIndex: 0
      position:
        serializedVersion: 2
        x: 62.421875
        y: 195.05469
        width: 176
        height: 32
      isBreakpoint: 0
      isSequence: 0
      hideUnused: 0
      transitions:
      - fsmEvent:
          name: RN/PAR/StartBoxWork
          isSystemEvent: 0
          isGlobal: 1
        toState: ResetParent
        linkStyle: 0
        linkConstraint: 0
        colorIndex: 0
      actionData:
        actionNames:
        - HutongGames.PlayMaker.Actions.RZ_GetRandomChild
        - HutongGames.PlayMaker.Actions.RZ_GetName
        - HutongGames.PlayMaker.Actions.RZ_SetParent
        - HutongGames.PlayMaker.Actions.SetPosition
        - HutongGames.PlayMaker.Actions.RN_PAR_BoxControl
        - HutongGames.PlayMaker.Actions.SetActiveGO
        - HutongGames.PlayMaker.Actions.GetParent
        - HutongGames.PlayMaker.Actions.RZ_GetChildNum
        - HutongGames.PlayMaker.Actions.GetChildNumNum
        customNames:
        - 
        - 
        - 
        - 
        - 
        - 
        - 
        - 
        - 
        actionEnabled: 010101010101010101
        actionIsOpen: 000000000000000000
        actionStartIndex: 0000000003000000060000000a000000120000001400000016000000180000001d000000
        actionHashCodes: c92b2105599a93055c855405f6e5be03ac6ed40215264c01d97b72021429a605369e5405
        unityObjectParams: []
        fsmGameObjectParams:
        - useVariable: 1
          name: Food
          tooltip: 
          showInInspector: 0
          networkSync: 0
          value: {fileID: 0}
        - useVariable: 1
          name: Food
          tooltip: 
          showInInspector: 0
          networkSync: 0
          value: {fileID: 0}
        - useVariable: 1
          name: AllBox
          tooltip: 
          showInInspector: 0
          networkSync: 0
          value: {fileID: 0}
        - useVariable: 1
          name: BoxAnim
          tooltip: 
          showInInspector: 0
          networkSync: 0
          value: {fileID: 0}
        - useVariable: 1
          name: Korobok
          tooltip: 
          showInInspector: 0
          networkSync: 0
          value: {fileID: 0}
        fsmOwnerDefaultParams:
        - ownerOption: 1
          gameObject:
            useVariable: 1
            name: RN/PAR/FoodFolder
            tooltip: 
            showInInspector: 0
            networkSync: 0
            value: {fileID: 0}
        - ownerOption: 1
          gameObject:
            useVariable: 1
            name: Food
            tooltip: 
            showInInspector: 0
            networkSync: 0
            value: {fileID: 0}
        - ownerOption: 1
          gameObject:
            useVariable: 1
            name: Food
            tooltip: 
            showInInspector: 0
            networkSync: 0
            value: {fileID: 0}
        - ownerOption: 0
          gameObject:
            useVariable: 1
            name: 
            tooltip: 
            showInInspector: 0
            networkSync: 0
            value: {fileID: 0}
        - ownerOption: 1
          gameObject:
            useVariable: 1
            name: Food
            tooltip: 
            showInInspector: 0
            networkSync: 0
            value: {fileID: 0}
        - ownerOption: 1
          gameObject:
            useVariable: 1
            name: Food
            tooltip: 
            showInInspector: 0
            networkSync: 0
            value: {fileID: 0}
        - ownerOption: 0
          gameObject:
            useVariable: 0
            name: 
            tooltip: 
            showInInspector: 0
            networkSync: 0
            value: {fileID: 0}
        - ownerOption: 1
          gameObject:
            useVariable: 1
            name: AllBox
            tooltip: 
            showInInspector: 0
            networkSync: 0
            value: {fileID: 0}
        - ownerOption: 1
          gameObject:
            useVariable: 1
            name: AllBox
            tooltip: 
            showInInspector: 0
            networkSync: 0
            value: {fileID: 0}
        animationCurveParams: []
        functionCallParams: []
        fsmTemplateControlParams: []
        fsmEventTargetParams: []
        fsmPropertyParams: []
        layoutOptionParams: []
        fsmStringParams:
        - useVariable: 1
          name: Name
          tooltip: 
          showInInspector: 0
          networkSync: 0
          value: 
        fsmObjectParams: []
        fsmVarParams: []
        fsmArrayParams: []
        fsmEnumParams: []
        fsmFloatParams:
        - useVariable: 1
          name: 
          tooltip: 
          showInInspector: 0
          networkSync: 0
          value: 0
        - useVariable: 1
          name: 
          tooltip: 
          showInInspector: 0
          networkSync: 0
          value: 0
        - useVariable: 0
          name: 
          tooltip: 
          showInInspector: 0
          networkSync: 0
          value: 10
        - useVariable: 0
          name: 
          tooltip: 
          showInInspector: 0
          networkSync: 0
          value: 250
        fsmIntParams:
        - useVariable: 0
          name: 
          tooltip: 
          showInInspector: 0
          networkSync: 0
          value: 0
        - useVariable: 0
          name: 
          tooltip: 
          showInInspector: 0
          networkSync: 0
          value: 0
        - useVariable: 0
          name: 
          tooltip: 
          showInInspector: 0
          networkSync: 0
          value: 0
        - useVariable: 0
          name: 
          tooltip: 
          showInInspector: 0
          networkSync: 0
          value: 1
        fsmBoolParams:
        - useVariable: 0
          name: 
          tooltip: 
          showInInspector: 0
          networkSync: 0
          value: 0
        - useVariable: 0
          name: 
          tooltip: 
          showInInspector: 0
          networkSync: 0
          value: 1
        - useVariable: 0
          name: 
          tooltip: 
          showInInspector: 0
          networkSync: 0
          value: 1
        - useVariable: 0
          name: 
          tooltip: 
          showInInspector: 0
          networkSync: 0
          value: 1
        - useVariable: 0
          name: 
          tooltip: 
          showInInspector: 0
          networkSync: 0
          value: 0
        fsmVector2Params: []
        fsmVector3Params:
        - useVariable: 1
          name: 
          tooltip: 
          showInInspector: 0
          networkSync: 0
          value: {x: 0, y: 0, z: 0}
        fsmColorParams: []
        fsmRectParams: []
        fsmQuaternionParams: []
        stringParams:
        - 
        byteData: 00010000000000
        arrayParamSizes: 03000000
        arrayParamTypes:
        - HutongGames.PlayMaker.FsmInt
        customTypeSizes: 
        customTypeNames: []
        paramDataType: 14000000110000001300000014000000120000000100000014000000140000001100000011000000140000001c0000000f0000000f0000000f000000070000000100000001000000130000000f000000140000001100000014000000130000001400000010000000170000001300000011000000140000000c00000010000000100000001000000013000000
        paramName:
        - gameObject
        - noRepeat
        - storeResult
        - gameObject
        - storeName
        - everyFrame
        - gameObject
        - parent
        - resetLocalPosition
        - resetLocalRotation
        - gameObject
        - vector
        - x
        - y
        - z
        - space
        - everyFrame
        - lateUpdate
        - food
        - index
        - gameObject
        - IsActive
        - gameObject
        - storeResult
        - gameObject
        - childIndex
        - NoChildren
        - store
        - WaitAnyFrames
        - gameObject
        - childIndexes
        - 
        - 
        - 
        - store
        paramDataPos: 0000000000000000000000000100000000000000000000000200000003000000010000000200000004000000000000000000000001000000020000000100000005000000060000000100000003000000050000000300000006000000020000000700000000000000000000000300000004000000080000000000000001000000020000000300000004000000
        paramByteDataSize: 0000000000000000000000000000000000000000010000000000000000000000000000000000000000000000000000000000000000000000000000000400000001000000010000000000000000000000000000000000000000000000000000000000000000000000000000000000000000000000000000000000000000000000000000000000000000000000
    - name: WaitFrame
      description: 
      colorIndex: 0
      position:
        serializedVersion: 2
        x: 96.25781
        y: 155.91406
        width: 100
        height: 32
      isBreakpoint: 0
      isSequence: 0
      hideUnused: 0
      transitions:
      - fsmEvent:
          name: FINISHED
          isSystemEvent: 1
          isGlobal: 1
        toState: GetFood
        linkStyle: 0
        linkConstraint: 0
        colorIndex: 0
      actionData:
        actionNames:
        - HutongGames.PlayMaker.Actions.RZ_WaitFrames
        customNames:
        - 
        actionEnabled: 01
        actionIsOpen: 01
        actionStartIndex: 00000000
        actionHashCodes: 66e6a403
        unityObjectParams: []
        fsmGameObjectParams: []
        fsmOwnerDefaultParams: []
        animationCurveParams: []
        functionCallParams: []
        fsmTemplateControlParams: []
        fsmEventTargetParams: []
        fsmPropertyParams: []
        layoutOptionParams: []
        fsmStringParams: []
        fsmObjectParams: []
        fsmVarParams: []
        fsmArrayParams: []
        fsmEnumParams: []
        fsmFloatParams: []
        fsmIntParams:
        - useVariable: 0
          name: 
          tooltip: 
          showInInspector: 0
          networkSync: 0
          value: 1
        fsmBoolParams: []
        fsmVector2Params: []
        fsmVector3Params: []
        fsmColorParams: []
        fsmRectParams: []
        fsmQuaternionParams: []
        stringParams:
        - FINISHED
        byteData: 
        arrayParamSizes: 
        arrayParamTypes: []
        customTypeSizes: 
        customTypeNames: []
        paramDataType: 1000000017000000
        paramName:
        - frames
        - finishEvent
        paramDataPos: 0000000000000000
        paramByteDataSize: 0000000000000000
    - name: OpenBox
      description: 
      colorIndex: 0
      position:
        serializedVersion: 2
        x: 92.66406
        y: 333.2578
        width: 100
        height: 32
      isBreakpoint: 0
      isSequence: 0
      hideUnused: 0
      transitions:
      - fsmEvent:
          name: FINISHED
          isSystemEvent: 1
          isGlobal: 1
        toState: ExamSituation
        linkStyle: 0
        linkConstraint: 0
        colorIndex: 0
      actionData:
        actionNames:
        - HutongGames.PlayMaker.Actions.RZ_PlayClipByName
        - HutongGames.PlayMaker.Actions.RZ_LOCK_SCREEN
        - HutongGames.PlayMaker.Actions.RN_PAR_Animation
        - HutongGames.PlayMaker.Actions.SendEvent
        - HutongGames.PlayMaker.Actions.SendEvent
        - HutongGames.PlayMaker.Actions.RZ_ResetPlayingAnimation
        - HutongGames.PlayMaker.Actions.RZ_SetParent
        - HutongGames.PlayMaker.Actions.RZ_PlayWithSound
        customNames:
        - 
        - 
        - 
        - Send Event
        - Send Event
        - 
        - 
        - 
        actionEnabled: 0101010101010101
        actionIsOpen: 0000000000000000
        actionStartIndex: 000000000400000005000000070000000b0000000f0000001100000015000000
        actionHashCodes: 23dd6a02e02f0103d5af33025e69bb045e69bb04f6128c005c8554053a217105
        unityObjectParams: []
        fsmGameObjectParams:
        - useVariable: 1
          name: BoxAnim
          tooltip: 
          showInInspector: 0
          networkSync: 0
          value: {fileID: 0}
        fsmOwnerDefaultParams:
        - ownerOption: 1
          gameObject:
            useVariable: 1
            name: BoxAnim
            tooltip: 
            showInInspector: 0
            networkSync: 0
            value: {fileID: 0}
        - ownerOption: 0
          gameObject:
            useVariable: 1
            name: Food
            tooltip: 
            showInInspector: 0
            networkSync: 0
            value: {fileID: 0}
        - ownerOption: 1
          gameObject:
            useVariable: 1
            name: AllBox
            tooltip: 
            showInInspector: 0
            networkSync: 0
            value: {fileID: 0}
        - ownerOption: 1
          gameObject:
            useVariable: 1
            name: BoxAnim
            tooltip: 
            showInInspector: 0
            networkSync: 0
            value: {fileID: 0}
        animationCurveParams: []
        functionCallParams: []
        fsmTemplateControlParams: []
        fsmEventTargetParams:
        - target: 1
          excludeSelf:
            useVariable: 0
            name: 
            tooltip: 
            showInInspector: 0
            networkSync: 0
            value: 0
          gameObject:
            ownerOption: 1
            gameObject:
              useVariable: 1
              name: BoxAnim
              tooltip: 
              showInInspector: 0
              networkSync: 0
              value: {fileID: 0}
          fsmName:
            useVariable: 0
            name: 
            tooltip: 
            showInInspector: 0
            networkSync: 0
            value: 
          sendToChildren:
            useVariable: 0
            name: 
            tooltip: 
            showInInspector: 0
            networkSync: 0
            value: 0
          fsmComponent: {fileID: 0}
        - target: 1
          excludeSelf:
            useVariable: 0
            name: 
            tooltip: 
            showInInspector: 0
            networkSync: 0
            value: 0
          gameObject:
            ownerOption: 1
            gameObject:
              useVariable: 1
              name: RN/PAR/Hand
              tooltip: 
              showInInspector: 0
              networkSync: 0
              value: {fileID: 0}
          fsmName:
            useVariable: 0
            name: 
            tooltip: 
            showInInspector: 0
            networkSync: 0
            value: 
          sendToChildren:
            useVariable: 0
            name: 
            tooltip: 
            showInInspector: 0
            networkSync: 0
            value: 0
          fsmComponent: {fileID: 0}
        fsmPropertyParams: []
        layoutOptionParams: []
        fsmStringParams:
        - useVariable: 0
          name: 
          tooltip: 
          showInInspector: 0
          networkSync: 0
          value: _SYSTEM_SingleClick
        - useVariable: 1
          name: AnimName
          tooltip: 
          showInInspector: 0
          networkSync: 0
          value: 
        - useVariable: 1
          name: AnimName
          tooltip: 
          showInInspector: 0
          networkSync: 0
          value: 
        - useVariable: 0
          name: 
          tooltip: 
          showInInspector: 0
          networkSync: 0
          value: 
        fsmObjectParams: []
        fsmVarParams: []
        fsmArrayParams: []
        fsmEnumParams: []
        fsmFloatParams:
        - useVariable: 0
          name: 
          tooltip: 
          showInInspector: 0
          networkSync: 0
          value: 0.2
        - useVariable: 0
          name: 
          tooltip: 
          showInInspector: 0
          networkSync: 0
          value: 1
        - useVariable: 0
          name: 
          tooltip: 
          showInInspector: 0
          networkSync: 0
          value: 0
        - useVariable: 0
          name: 
          tooltip: 
          showInInspector: 0
          networkSync: 0
          value: 0
        - useVariable: 0
          name: 
          tooltip: 
          showInInspector: 0
          networkSync: 0
          value: 1
        - useVariable: 0
          name: 
          tooltip: 
          showInInspector: 0
          networkSync: 0
          value: 1
        fsmIntParams: []
        fsmBoolParams:
        - useVariable: 0
          name: 
          tooltip: 
          showInInspector: 0
          networkSync: 0
          value: 0
        - useVariable: 0
          name: 
          tooltip: 
          showInInspector: 0
          networkSync: 0
          value: 1
        - useVariable: 0
          name: 
          tooltip: 
          showInInspector: 0
          networkSync: 0
          value: 0
        - useVariable: 0
          name: 
          tooltip: 
          showInInspector: 0
          networkSync: 0
          value: 0
        - useVariable: 0
          name: 
          tooltip: 
          showInInspector: 0
          networkSync: 0
          value: 0
        fsmVector2Params: []
        fsmVector3Params: []
        fsmColorParams: []
        fsmRectParams: []
        fsmQuaternionParams: []
        stringParams:
        - 
        - RN/MOUSE_DOWN
        - RN/MOUSE_DOWN
        - FINISHED
        - 
        byteData: 00000000000000
        arrayParamSizes: 01000000
        arrayParamTypes:
        - HutongGames.PlayMaker.FsmOwnerDefault
        customTypeSizes: 
        customTypeNames: []
        paramDataType: 12000000170000000f0000000f0000000700000013000000120000001f000000170000000f000000010000001f000000170000000f000000010000000c000000140000001400000014000000110000001100000014000000120000000f0000000f00000017000000170000001100000011000000110000001200000001000000
        paramName:
        - clipName
        - finishEvent
        - volume
        - speed
        - Status
        - gameObject
        - animName
        - eventTarget
        - sendEvent
        - delay
        - everyFrame
        - eventTarget
        - sendEvent
        - delay
        - everyFrame
        - gameObject
        - 
        - gameObject
        - parent
        - resetLocalPosition
        - resetLocalRotation
        - gameObject
        - animName
        - Speed
        - audioVolume
        - finishEvent
        - StartedEvent
        - LoopMode
        - Identifier
        - NeedToWaitForEndPrevAnim
        - highLowMedium
        - stopOnExit
        paramDataPos: 0000000000000000000000000100000000000000000000000100000000000000010000000200000004000000010000000200000003000000050000000000000000000000010000000200000000000000010000000300000002000000040000000500000003000000040000000200000003000000040000000300000006000000
        paramByteDataSize: 0000000000000000000000000000000004000000000000000000000000000000000000000000000001000000000000000000000000000000010000000000000000000000000000000000000000000000000000000000000000000000000000000000000000000000000000000000000000000000000000000000000001000000
    - name: ExamSituation
      description: 
      colorIndex: 0
      position:
        serializedVersion: 2
        x: 54.453125
        y: 371.35938
        width: 175
        height: 64
      isBreakpoint: 0
      isSequence: 0
      hideUnused: 0
      transitions:
      - fsmEvent:
          name: OK
          isSystemEvent: 0
          isGlobal: 1
        toState: ExamFoodNames
        linkStyle: 0
        linkConstraint: 1
        colorIndex: 0
      - fsmEvent:
          name: RN/PAR/WrongChoice
          isSystemEvent: 0
          isGlobal: 1
        toState: CloseBox
        linkStyle: 0
        linkConstraint: 1
        colorIndex: 0
      - fsmEvent:
          name: RN/PAR/CorrectChoice
          isSystemEvent: 0
          isGlobal: 1
        toState: HARAKIRY!!!
        linkStyle: 0
        linkConstraint: 0
        colorIndex: 0
      actionData:
        actionNames:
        - HutongGames.PlayMaker.Actions.SendEvent
        - HutongGames.PlayMaker.Actions.BoolTest
        - HutongGames.PlayMaker.Actions.SetBoolValue
        - HutongGames.PlayMaker.Actions.RZ_LOCK_SCREEN
        - HutongGames.PlayMaker.Actions.ArraySet
        customNames:
        - Send Event
        - 
        - 
        - 
        - 
        actionEnabled: 0101010101
        actionIsOpen: 0000000000
        actionStartIndex: 0000000004000000080000000b0000000c000000
        actionHashCodes: 5e69bb04a4c8bf0027fbe103e02f01036ba59301
        unityObjectParams: []
        fsmGameObjectParams: []
        fsmOwnerDefaultParams: []
        animationCurveParams: []
        functionCallParams: []
        fsmTemplateControlParams: []
        fsmEventTargetParams:
        - target: 1
          excludeSelf:
            useVariable: 0
            name: 
            tooltip: 
            showInInspector: 0
            networkSync: 0
            value: 0
          gameObject:
            ownerOption: 1
            gameObject:
              useVariable: 1
              name: RN/PAR/Hand
              tooltip: 
              showInInspector: 0
              networkSync: 0
              value: {fileID: 0}
          fsmName:
            useVariable: 0
            name: 
            tooltip: 
            showInInspector: 0
            networkSync: 0
            value: 
          sendToChildren:
            useVariable: 0
            name: 
            tooltip: 
            showInInspector: 0
            networkSync: 0
            value: 0
          fsmComponent: {fileID: 0}
        fsmPropertyParams: []
        layoutOptionParams: []
        fsmStringParams: []
        fsmObjectParams: []
        fsmVarParams:
        - variableName: Name
          objectType: UnityEngine.Object
          useVariable: 1
          type: 4
          floatValue: 0
          intValue: 0
          boolValue: 0
          stringValue: 
          vector4Value: {x: 0, y: 0, z: 0, w: 0}
          objectReference: {fileID: 0}
          arrayValue:
            useVariable: 0
            name: 
            tooltip: 
            showInInspector: 0
            networkSync: 0
            type: -1
            objectTypeName: 
            floatValues: []
            intValues: 
            boolValues: 
            stringValues: []
            vector4Values: []
            objectReferences: []
        fsmArrayParams:
        - useVariable: 1
          name: RN/PAR/FoodNames
          tooltip: 
          showInInspector: 0
          networkSync: 0
          type: 4
          objectTypeName: UnityEngine.Object
          floatValues: []
          intValues: 
          boolValues: 
          stringValues:
          - 
          - 
          vector4Values: []
          objectReferences: []
        fsmEnumParams: []
        fsmFloatParams:
        - useVariable: 0
          name: 
          tooltip: 
          showInInspector: 0
          networkSync: 0
          value: 0
        fsmIntParams:
        - useVariable: 0
          name: 
          tooltip: 
          showInInspector: 0
          networkSync: 0
          value: 0
        fsmBoolParams:
        - useVariable: 1
          name: RN/PAR/SecondBox
          tooltip: 
          showInInspector: 0
          networkSync: 0
          value: 0
        - useVariable: 1
          name: RN/PAR/SecondBox
          tooltip: 
          showInInspector: 0
          networkSync: 0
          value: 0
        - useVariable: 0
          name: 
          tooltip: 
          showInInspector: 0
          networkSync: 0
          value: 1
        fsmVector2Params: []
        fsmVector3Params: []
        fsmColorParams: []
        fsmRectParams: []
        fsmQuaternionParams: []
        stringParams:
        - RN/MOUSE_UP
        - OK
        - 
        - 
        byteData: 0000000100000000
        arrayParamSizes: 
        arrayParamTypes: []
        customTypeSizes: 
        customTypeNames: []
        paramDataType: 1f000000170000000f0000000100000011000000170000001700000001000000110000001100000001000000070000002900000010000000270000000100000017000000
        paramName:
        - eventTarget
        - sendEvent
        - delay
        - everyFrame
        - boolVariable
        - isTrue
        - isFalse
        - everyFrame
        - boolVariable
        - boolValue
        - everyFrame
        - Status
        - array
        - index
        - value
        - everyFrame
        - indexOutOfRange
        paramDataPos: 0000000000000000000000000000000000000000010000000200000001000000010000000200000002000000030000000000000000000000000000000700000003000000
        paramByteDataSize: 0000000000000000000000000100000000000000000000000000000001000000000000000000000001000000040000000000000000000000000000000100000000000000
    - name: ExamFoodNames
      description: 
      colorIndex: 0
      position:
        serializedVersion: 2
        x: 67.65625
        y: 446.08594
        width: 133
        height: 48
      isBreakpoint: 0
      isSequence: 0
      hideUnused: 0
      transitions:
      - fsmEvent:
          name: OK
          isSystemEvent: 0
          isGlobal: 1
        toState: Reset
        linkStyle: 0
        linkConstraint: 0
        colorIndex: 0
      - fsmEvent:
          name: FINISHED
          isSystemEvent: 1
          isGlobal: 1
        toState: CloseBox
        linkStyle: 0
        linkConstraint: 1
        colorIndex: 0
      actionData:
        actionNames:
        - HutongGames.PlayMaker.Actions.ArrayContains
        - HutongGames.PlayMaker.Actions.SendEvent
        customNames:
        - 
        - Send Event
        actionEnabled: 0101
        actionIsOpen: 0000
        actionStartIndex: 0000000006000000
        actionHashCodes: 75f9ba055e69bb04
        unityObjectParams: []
        fsmGameObjectParams: []
        fsmOwnerDefaultParams: []
        animationCurveParams: []
        functionCallParams: []
        fsmTemplateControlParams: []
        fsmEventTargetParams:
        - target: 4
          excludeSelf:
            useVariable: 0
            name: 
            tooltip: 
            showInInspector: 0
            networkSync: 0
            value: 0
          gameObject:
            ownerOption: 0
            gameObject:
              useVariable: 0
              name: 
              tooltip: 
              showInInspector: 0
              networkSync: 0
              value: {fileID: 0}
          fsmName:
            useVariable: 0
            name: 
            tooltip: 
            showInInspector: 0
            networkSync: 0
            value: 
          sendToChildren:
            useVariable: 0
            name: 
            tooltip: 
            showInInspector: 0
            networkSync: 0
            value: 0
          fsmComponent: {fileID: 0}
        fsmPropertyParams: []
        layoutOptionParams: []
        fsmStringParams: []
        fsmObjectParams: []
        fsmVarParams:
        - variableName: Name
          objectType: UnityEngine.Object
          useVariable: 1
          type: 4
          floatValue: 0
          intValue: 0
          boolValue: 0
          stringValue: 
          vector4Value: {x: 0, y: 0, z: 0, w: 0}
          objectReference: {fileID: 0}
          arrayValue:
            useVariable: 0
            name: 
            tooltip: 
            showInInspector: 0
            networkSync: 0
            type: -1
            objectTypeName: 
            floatValues: []
            intValues: 
            boolValues: 
            stringValues: []
            vector4Values: []
            objectReferences: []
        fsmArrayParams:
        - useVariable: 1
          name: RN/PAR/FoodNames
          tooltip: 
          showInInspector: 0
          networkSync: 0
          type: 4
          objectTypeName: UnityEngine.Object
          floatValues: []
          intValues: 
          boolValues: 
          stringValues:
          - 
          - 
          vector4Values: []
          objectReferences: []
        fsmEnumParams: []
        fsmFloatParams:
        - useVariable: 0
          name: 
          tooltip: 
          showInInspector: 0
          networkSync: 0
          value: 0
        fsmIntParams:
        - useVariable: 1
          name: 
          tooltip: 
          showInInspector: 0
          networkSync: 0
          value: 0
        fsmBoolParams:
        - useVariable: 1
          name: 
          tooltip: 
          showInInspector: 0
          networkSync: 0
          value: 0
        fsmVector2Params: []
        fsmVector3Params: []
        fsmColorParams: []
        fsmRectParams: []
        fsmQuaternionParams: []
        stringParams:
        - OK
        - 
        - RN/PAR/WrongChoice
        byteData: 00
        arrayParamSizes: 
        arrayParamTypes: []
        customTypeSizes: 
        customTypeNames: []
        paramDataType: 2900000027000000100000001100000017000000170000001f000000170000000f00000001000000
        paramName:
        - array
        - value
        - index
        - isContained
        - isContainedEvent
        - isNotContainedEvent
        - eventTarget
        - sendEvent
        - delay
        - everyFrame
        paramDataPos: 00000000000000000000000000000000000000000100000000000000020000000000000000000000
        paramByteDataSize: 00000000000000000000000000000000000000000000000000000000000000000000000001000000
    - name: Reset
      description: 
      colorIndex: 0
      position:
        serializedVersion: 2
        x: 281.78906
        y: 462.6875
        width: 100
        height: 16
      isBreakpoint: 0
      isSequence: 0
      hideUnused: 0
      transitions: []
      actionData:
        actionNames:
        - HutongGames.PlayMaker.Actions.RZ_PlayClipByName
        - HutongGames.PlayMaker.Actions.SendEvent
        - HutongGames.PlayMaker.Actions.RZ_LOCK_SCREEN
        - HutongGames.PlayMaker.Actions.SetBoolValue
        - HutongGames.PlayMaker.Actions.GetChildNumNum
        - HutongGames.PlayMaker.Actions.GetChildNumNum
        - HutongGames.PlayMaker.Actions.GetComponent
        - HutongGames.PlayMaker.Actions.SetProperty
        - HutongGames.PlayMaker.Actions.SendEvent
        - HutongGames.PlayMaker.Actions.SetTag
        - HutongGames.PlayMaker.Actions.RZ_DestroyComponents
        customNames:
        - 
        - Send Event
        - 
        - 
        - 
        - 
        - 
        - 
        - Send Event
        - 
        - 
        actionEnabled: 0101010101010101010101
        actionIsOpen: 0000000000000000000000
        actionStartIndex: 000000000400000008000000090000000c00000011000000170000001a0000001c0000002000000022000000
        actionHashCodes: 23dd6a025e69bb04e02f010327fbe103369e5405369e540504d814025ac852045e69bb049bd6f801f4ad4101
        unityObjectParams: []
        fsmGameObjectParams:
        - useVariable: 1
          name: FoodPers
          tooltip: 
          showInInspector: 0
          networkSync: 0
          value: {fileID: 0}
        - useVariable: 1
          name: Golova
          tooltip: 
          showInInspector: 0
          networkSync: 0
          value: {fileID: 0}
        fsmOwnerDefaultParams:
        - ownerOption: 0
          gameObject:
            useVariable: 0
            name: 
            tooltip: 
            showInInspector: 0
            networkSync: 0
            value: {fileID: 0}
        - ownerOption: 0
          gameObject:
            useVariable: 0
            name: 
            tooltip: 
            showInInspector: 0
            networkSync: 0
            value: {fileID: 0}
        - ownerOption: 1
          gameObject:
            useVariable: 1
            name: Golova
            tooltip: 
            showInInspector: 0
            networkSync: 0
            value: {fileID: 0}
        - ownerOption: 1
          gameObject:
            useVariable: 1
            name: AllBox
            tooltip: 
            showInInspector: 0
            networkSync: 0
            value: {fileID: 0}
        - ownerOption: 0
          gameObject:
            useVariable: 0
            name: 
            tooltip: 
            showInInspector: 0
            networkSync: 0
            value: {fileID: 0}
        animationCurveParams: []
        functionCallParams: []
        fsmTemplateControlParams: []
        fsmEventTargetParams:
        - target: 4
          excludeSelf:
            useVariable: 0
            name: 
            tooltip: 
            showInInspector: 0
            networkSync: 0
            value: 0
          gameObject:
            ownerOption: 0
            gameObject:
              useVariable: 0
              name: 
              tooltip: 
              showInInspector: 0
              networkSync: 0
              value: {fileID: 0}
          fsmName:
            useVariable: 0
            name: 
            tooltip: 
            showInInspector: 0
            networkSync: 0
            value: 
          sendToChildren:
            useVariable: 0
            name: 
            tooltip: 
            showInInspector: 0
            networkSync: 0
            value: 0
          fsmComponent: {fileID: 0}
        - target: 1
          excludeSelf:
            useVariable: 0
            name: 
            tooltip: 
            showInInspector: 0
            networkSync: 0
            value: 0
          gameObject:
            ownerOption: 1
            gameObject:
              useVariable: 1
              name: FoodPers
              tooltip: 
              showInInspector: 0
              networkSync: 0
              value: {fileID: 0}
          fsmName:
            useVariable: 0
            name: 
            tooltip: 
            showInInspector: 0
            networkSync: 0
            value: 
          sendToChildren:
            useVariable: 0
            name: 
            tooltip: 
            showInInspector: 0
            networkSync: 0
            value: 0
          fsmComponent: {fileID: 0}
        fsmPropertyParams:
        - TargetObject:
            useVariable: 1
            name: Collider
            tooltip: 
            showInInspector: 0
            networkSync: 0
            typeName: UnityEngine.BoxCollider
            value: {fileID: 0}
          TargetTypeName: UnityEngine.BoxCollider
          PropertyName: enabled
          BoolParameter:
            useVariable: 0
            name: 
            tooltip: 
            showInInspector: 0
            networkSync: 0
            value: 1
          FloatParameter:
            useVariable: 0
            name: 
            tooltip: 
            showInInspector: 0
            networkSync: 0
            value: 0
          IntParameter:
            useVariable: 0
            name: 
            tooltip: 
            showInInspector: 0
            networkSync: 0
            value: 0
          GameObjectParameter:
            useVariable: 0
            name: 
            tooltip: 
            showInInspector: 0
            networkSync: 0
            value: {fileID: 0}
          StringParameter:
            useVariable: 0
            name: 
            tooltip: 
            showInInspector: 0
            networkSync: 0
            value: 
          Vector2Parameter:
            useVariable: 0
            name: 
            tooltip: 
            showInInspector: 0
            networkSync: 0
            value: {x: 0, y: 0}
          Vector3Parameter:
            useVariable: 0
            name: 
            tooltip: 
            showInInspector: 0
            networkSync: 0
            value: {x: 0, y: 0, z: 0}
          RectParamater:
            useVariable: 0
            name: 
            tooltip: 
            showInInspector: 0
            networkSync: 0
            value:
              serializedVersion: 2
              x: 0
              y: 0
              width: 0
              height: 0
          QuaternionParameter:
            useVariable: 0
            name: 
            tooltip: 
            showInInspector: 0
            networkSync: 0
            value: {x: 0, y: 0, z: 0, w: 0}
          ObjectParameter:
            useVariable: 0
            name: 
            tooltip: 
            showInInspector: 0
            networkSync: 0
            typeName: System.Boolean
            value: {fileID: 0}
          MaterialParameter:
            useVariable: 0
            name: 
            tooltip: 
            showInInspector: 0
            networkSync: 0
            typeName: 
            value: {fileID: 0}
          TextureParameter:
            useVariable: 0
            name: 
            tooltip: 
            showInInspector: 0
            networkSync: 0
            typeName: 
            value: {fileID: 0}
          ColorParameter:
            useVariable: 0
            name: 
            tooltip: 
            showInInspector: 0
            networkSync: 0
            value: {r: 0, g: 0, b: 0, a: 1}
          EnumParameter:
            useVariable: 0
            name: 
            tooltip: 
            showInInspector: 0
            networkSync: 0
            enumName: HutongGames.PlayMaker.None
            intValue: 0
          ArrayParameter:
            useVariable: 0
            name: 
            tooltip: 
            showInInspector: 0
            networkSync: 0
            type: -1
            objectTypeName: UnityEngine.Object
            floatValues: []
            intValues: 
            boolValues: 
            stringValues: []
            vector4Values: []
            objectReferences: []
          setProperty: 1
        layoutOptionParams: []
        fsmStringParams:
        - useVariable: 0
          name: 
          tooltip: 
          showInInspector: 0
          networkSync: 0
          value: _SYSTEM_SOVPADENIE
        - useVariable: 0
          name: 
          tooltip: 
          showInInspector: 0
          networkSync: 0
          value: Player
        - useVariable: 0
          name: 
          tooltip: 
          showInInspector: 0
          networkSync: 0
          value: PlayMakerFSM
        - useVariable: 0
          name: 
          tooltip: 
          showInInspector: 0
          networkSync: 0
          value: BoxCollider
        fsmObjectParams:
        - useVariable: 1
          name: Collider
          tooltip: 
          showInInspector: 0
          networkSync: 0
          typeName: UnityEngine.BoxCollider
          value: {fileID: 0}
        fsmVarParams: []
        fsmArrayParams: []
        fsmEnumParams: []
        fsmFloatParams:
        - useVariable: 0
          name: 
          tooltip: 
          showInInspector: 0
          networkSync: 0
          value: 1
        - useVariable: 0
          name: 
          tooltip: 
          showInInspector: 0
          networkSync: 0
          value: 1
        - useVariable: 0
          name: 
          tooltip: 
          showInInspector: 0
          networkSync: 0
          value: 0
        - useVariable: 0
          name: 
          tooltip: 
          showInInspector: 0
          networkSync: 0
          value: 0
        fsmIntParams:
        - useVariable: 0
          name: 
          tooltip: 
          showInInspector: 0
          networkSync: 0
          value: 0
        - useVariable: 0
          name: 
          tooltip: 
          showInInspector: 0
          networkSync: 0
          value: 0
        - useVariable: 0
          name: 
          tooltip: 
          showInInspector: 0
          networkSync: 0
          value: 0
        - useVariable: 0
          name: 
          tooltip: 
          showInInspector: 0
          networkSync: 0
          value: 0
        - useVariable: 0
          name: 
          tooltip: 
          showInInspector: 0
          networkSync: 0
          value: 0
        fsmBoolParams:
        - useVariable: 1
          name: RN/PAR/SecondBox
          tooltip: 
          showInInspector: 0
          networkSync: 0
          value: 0
        - useVariable: 0
          name: 
          tooltip: 
          showInInspector: 0
          networkSync: 0
          value: 0
        - useVariable: 0
          name: 
          tooltip: 
          showInInspector: 0
          networkSync: 0
          value: 0
        - useVariable: 0
          name: 
          tooltip: 
          showInInspector: 0
          networkSync: 0
          value: 0
        fsmVector2Params: []
        fsmVector3Params: []
        fsmColorParams: []
        fsmRectParams: []
        fsmQuaternionParams: []
        stringParams:
        - 
        - RN/PAR/CorrectChoice
        - RN/PAR/FoodAnim
        byteData: 000100000000000000
        arrayParamSizes: 02000000030000000100000002000000
        arrayParamTypes:
        - HutongGames.PlayMaker.FsmInt
        - HutongGames.PlayMaker.FsmInt
        - HutongGames.PlayMaker.FsmOwnerDefault
        - HutongGames.PlayMaker.FsmString
        customTypeSizes: 
        customTypeNames: []
        paramDataType: 12000000170000000f0000000f0000001f000000170000000f0000000100000007000000110000001100000001000000140000000c000000100000001000000013000000140000000c0000001000000010000000100000001300000014000000180000000100000024000000010000001f000000170000000f000000010000001400000012000000110000000c000000140000000c000000120000001200000011000000
        paramName:
        - clipName
        - finishEvent
        - volume
        - speed
        - eventTarget
        - sendEvent
        - delay
        - everyFrame
        - Status
        - boolVariable
        - boolValue
        - everyFrame
        - gameObject
        - childIndexes
        - 
        - 
        - store
        - gameObject
        - childIndexes
        - 
        - 
        - 
        - store
        - gameObject
        - storeComponent
        - everyFrame
        - targetProperty
        - everyFrame
        - eventTarget
        - sendEvent
        - delay
        - everyFrame
        - gameObject
        - tag
        - LightVersion
        - gameObject
        - 
        - component
        - 
        - 
        - Recursive
        paramDataPos: 0000000000000000000000000100000000000000010000000200000000000000010000000000000001000000050000000000000000000000000000000100000000000000010000000100000002000000030000000400000001000000020000000000000006000000000000000700000001000000020000000300000008000000030000000100000002000000020000000400000003000000020000000300000003000000
        paramByteDataSize: 0000000000000000000000000000000000000000000000000000000001000000040000000000000000000000010000000000000000000000000000000000000000000000000000000000000000000000000000000000000000000000000000000000000001000000000000000100000000000000000000000000000001000000000000000000000000000000000000000000000000000000000000000000000000000000
    - name: CloseBox
      description: 
      colorIndex: 0
      position:
        serializedVersion: 2
        x: 85.71094
        y: 510.8828
        width: 100
        height: 32
      isBreakpoint: 0
      isSequence: 0
      hideUnused: 0
      transitions:
      - fsmEvent:
          name: FINISHED
          isSystemEvent: 1
          isGlobal: 1
        toState: EvPlayRandAnim
        linkStyle: 0
        linkConstraint: 1
        colorIndex: 0
      actionData:
        actionNames:
        - HutongGames.PlayMaker.Actions.RZ_ResetPlayingAnimation
        - HutongGames.PlayMaker.Actions.SetAnimationTime
        - HutongGames.PlayMaker.Actions.RZ_PlayClipByName
        - HutongGames.PlayMaker.Actions.RZ_PlayWithSound
        customNames:
        - 
        - 
        - 
        - 
        actionEnabled: 01010101
        actionIsOpen: 00000000
        actionStartIndex: 0000000002000000070000000b000000
        actionHashCodes: f6128c000baad00523dd6a023a217105
        unityObjectParams: []
        fsmGameObjectParams: []
        fsmOwnerDefaultParams:
        - ownerOption: 1
          gameObject:
            useVariable: 1
            name: BoxAnim
            tooltip: 
            showInInspector: 0
            networkSync: 0
            value: {fileID: 0}
        - ownerOption: 1
          gameObject:
            useVariable: 1
            name: BoxAnim
            tooltip: 
            showInInspector: 0
            networkSync: 0
            value: {fileID: 0}
        - ownerOption: 1
          gameObject:
            useVariable: 1
            name: BoxAnim
            tooltip: 
            showInInspector: 0
            networkSync: 0
            value: {fileID: 0}
        animationCurveParams: []
        functionCallParams: []
        fsmTemplateControlParams: []
        fsmEventTargetParams: []
        fsmPropertyParams: []
        layoutOptionParams: []
        fsmStringParams:
        - useVariable: 1
          name: AnimName
          tooltip: 
          showInInspector: 0
          networkSync: 0
          value: 
        - useVariable: 0
          name: 
          tooltip: 
          showInInspector: 0
          networkSync: 0
          value: EDA_POYAVLENIE
        - useVariable: 1
          name: AnimName
          tooltip: 
          showInInspector: 0
          networkSync: 0
          value: 
        - useVariable: 0
          name: 
          tooltip: 
          showInInspector: 0
          networkSync: 0
          value: 
        fsmObjectParams: []
        fsmVarParams: []
        fsmArrayParams: []
        fsmEnumParams: []
        fsmFloatParams:
        - useVariable: 0
          name: 
          tooltip: 
          showInInspector: 0
          networkSync: 0
          value: 1
        - useVariable: 0
          name: 
          tooltip: 
          showInInspector: 0
          networkSync: 0
          value: 0.2
        - useVariable: 0
          name: 
          tooltip: 
          showInInspector: 0
          networkSync: 0
          value: 1
        - useVariable: 0
          name: 
          tooltip: 
          showInInspector: 0
          networkSync: 0
          value: -1
        - useVariable: 0
          name: 
          tooltip: 
          showInInspector: 0
          networkSync: 0
          value: 1
        fsmIntParams: []
        fsmBoolParams:
        - useVariable: 0
          name: 
          tooltip: 
          showInInspector: 0
          networkSync: 0
          value: 0
        - useVariable: 0
          name: 
          tooltip: 
          showInInspector: 0
          networkSync: 0
          value: 0
        - useVariable: 0
          name: 
          tooltip: 
          showInInspector: 0
          networkSync: 0
          value: 0
        fsmVector2Params: []
        fsmVector3Params: []
        fsmColorParams: []
        fsmRectParams: []
        fsmQuaternionParams: []
        stringParams:
        - 
        - FINISHED
        - 
        byteData: 010000
        arrayParamSizes: 01000000
        arrayParamTypes:
        - HutongGames.PlayMaker.FsmOwnerDefault
        customTypeSizes: 
        customTypeNames: []
        paramDataType: 0c0000001400000014000000120000000f000000010000000100000012000000170000000f0000000f00000014000000120000000f0000000f00000017000000170000001100000011000000110000001200000001000000
        paramName:
        - gameObject
        - 
        - gameObject
        - animName
        - time
        - normalized
        - everyFrame
        - clipName
        - finishEvent
        - volume
        - speed
        - gameObject
        - animName
        - Speed
        - audioVolume
        - finishEvent
        - StartedEvent
        - LoopMode
        - Identifier
        - NeedToWaitForEndPrevAnim
        - highLowMedium
        - stopOnExit
        paramDataPos: 00000000000000000100000000000000000000000000000001000000010000000000000001000000020000000200000002000000030000000400000001000000020000000000000001000000020000000300000002000000
        paramByteDataSize: 00000000000000000000000000000000000000000100000001000000000000000000000000000000000000000000000000000000000000000000000000000000000000000000000000000000000000000000000001000000
    - name: WaitMouse
      description: 
      colorIndex: 0
      position:
        serializedVersion: 2
        x: 82.00781
        y: 293.20312
        width: 127
        height: 32
      isBreakpoint: 0
      isSequence: 0
      hideUnused: 0
      transitions:
      - fsmEvent:
          name: MouseMT/Down
          isSystemEvent: 0
          isGlobal: 1
        toState: OpenBox
        linkStyle: 0
        linkConstraint: 0
        colorIndex: 0
      actionData:
        actionNames: []
        customNames: []
        actionEnabled: 
        actionIsOpen: 
        actionStartIndex: 
        actionHashCodes: 
        unityObjectParams: []
        fsmGameObjectParams: []
        fsmOwnerDefaultParams: []
        animationCurveParams: []
        functionCallParams: []
        fsmTemplateControlParams: []
        fsmEventTargetParams: []
        fsmPropertyParams: []
        layoutOptionParams: []
        fsmStringParams: []
        fsmObjectParams: []
        fsmVarParams: []
        fsmArrayParams: []
        fsmEnumParams: []
        fsmFloatParams: []
        fsmIntParams: []
        fsmBoolParams: []
        fsmVector2Params: []
        fsmVector3Params: []
        fsmColorParams: []
        fsmRectParams: []
        fsmQuaternionParams: []
        stringParams: []
        byteData: 
        arrayParamSizes: 
        arrayParamTypes: []
        customTypeSizes: 
        customTypeNames: []
        paramDataType: 
        paramName: []
        paramDataPos: 
        paramByteDataSize: 
    - name: HARAKIRY!!!
      description: 
      colorIndex: 0
      position:
        serializedVersion: 2
        x: 279.0547
        y: 419
        width: 106
        height: 16
      isBreakpoint: 0
      isSequence: 0
      hideUnused: 0
      transitions: []
      actionData:
        actionNames:
        - HutongGames.PlayMaker.Actions.GetChildNumNum
        - HutongGames.PlayMaker.Actions.SendEvent
        - HutongGames.PlayMaker.Actions.SetTag
        - HutongGames.PlayMaker.Actions.GetChildNumNum
        - HutongGames.PlayMaker.Actions.GetComponent
        - HutongGames.PlayMaker.Actions.SetProperty
        - HutongGames.PlayMaker.Actions.RZ_DestroyComponents
        customNames:
        - 
        - Send Event
        - 
        - 
        - 
        - 
        - 
        actionEnabled: 01010101010101
        actionIsOpen: 00000000000000
        actionStartIndex: 0000000005000000090000000b000000110000001400000016000000
        actionHashCodes: 369e54055e69bb049bd6f801369e540504d814025ac85204f4ad4101
        unityObjectParams: []
        fsmGameObjectParams:
        - useVariable: 1
          name: FoodPers
          tooltip: 
          showInInspector: 0
          networkSync: 0
          value: {fileID: 0}
        - useVariable: 1
          name: Golova
          tooltip: 
          showInInspector: 0
          networkSync: 0
          value: {fileID: 0}
        fsmOwnerDefaultParams:
        - ownerOption: 0
          gameObject:
            useVariable: 0
            name: 
            tooltip: 
            showInInspector: 0
            networkSync: 0
            value: {fileID: 0}
        - ownerOption: 1
          gameObject:
            useVariable: 1
            name: AllBox
            tooltip: 
            showInInspector: 0
            networkSync: 0
            value: {fileID: 0}
        - ownerOption: 0
          gameObject:
            useVariable: 0
            name: 
            tooltip: 
            showInInspector: 0
            networkSync: 0
            value: {fileID: 0}
        - ownerOption: 1
          gameObject:
            useVariable: 1
            name: Golova
            tooltip: 
            showInInspector: 0
            networkSync: 0
            value: {fileID: 0}
        - ownerOption: 0
          gameObject:
            useVariable: 0
            name: 
            tooltip: 
            showInInspector: 0
            networkSync: 0
            value: {fileID: 0}
        animationCurveParams: []
        functionCallParams: []
        fsmTemplateControlParams: []
        fsmEventTargetParams:
        - target: 1
          excludeSelf:
            useVariable: 0
            name: 
            tooltip: 
            showInInspector: 0
            networkSync: 0
            value: 0
          gameObject:
            ownerOption: 1
            gameObject:
              useVariable: 1
              name: FoodPers
              tooltip: 
              showInInspector: 0
              networkSync: 0
              value: {fileID: 0}
          fsmName:
            useVariable: 0
            name: 
            tooltip: 
            showInInspector: 0
            networkSync: 0
            value: 
          sendToChildren:
            useVariable: 0
            name: 
            tooltip: 
            showInInspector: 0
            networkSync: 0
            value: 0
          fsmComponent: {fileID: 0}
        fsmPropertyParams:
        - TargetObject:
            useVariable: 1
            name: Collider
            tooltip: 
            showInInspector: 0
            networkSync: 0
            typeName: UnityEngine.BoxCollider
            value: {fileID: 0}
          TargetTypeName: UnityEngine.BoxCollider
          PropertyName: enabled
          BoolParameter:
            useVariable: 0
            name: 
            tooltip: 
            showInInspector: 0
            networkSync: 0
            value: 1
          FloatParameter:
            useVariable: 0
            name: 
            tooltip: 
            showInInspector: 0
            networkSync: 0
            value: 0
          IntParameter:
            useVariable: 0
            name: 
            tooltip: 
            showInInspector: 0
            networkSync: 0
            value: 0
          GameObjectParameter:
            useVariable: 0
            name: 
            tooltip: 
            showInInspector: 0
            networkSync: 0
            value: {fileID: 0}
          StringParameter:
            useVariable: 0
            name: 
            tooltip: 
            showInInspector: 0
            networkSync: 0
            value: 
          Vector2Parameter:
            useVariable: 0
            name: 
            tooltip: 
            showInInspector: 0
            networkSync: 0
            value: {x: 0, y: 0}
          Vector3Parameter:
            useVariable: 0
            name: 
            tooltip: 
            showInInspector: 0
            networkSync: 0
            value: {x: 0, y: 0, z: 0}
          RectParamater:
            useVariable: 0
            name: 
            tooltip: 
            showInInspector: 0
            networkSync: 0
            value:
              serializedVersion: 2
              x: 0
              y: 0
              width: 0
              height: 0
          QuaternionParameter:
            useVariable: 0
            name: 
            tooltip: 
            showInInspector: 0
            networkSync: 0
            value: {x: 0, y: 0, z: 0, w: 0}
          ObjectParameter:
            useVariable: 0
            name: 
            tooltip: 
            showInInspector: 0
            networkSync: 0
            typeName: System.Boolean
            value: {fileID: 0}
          MaterialParameter:
            useVariable: 0
            name: 
            tooltip: 
            showInInspector: 0
            networkSync: 0
            typeName: 
            value: {fileID: 0}
          TextureParameter:
            useVariable: 0
            name: 
            tooltip: 
            showInInspector: 0
            networkSync: 0
            typeName: 
            value: {fileID: 0}
          ColorParameter:
            useVariable: 0
            name: 
            tooltip: 
            showInInspector: 0
            networkSync: 0
            value: {r: 0, g: 0, b: 0, a: 1}
          EnumParameter:
            useVariable: 0
            name: 
            tooltip: 
            showInInspector: 0
            networkSync: 0
            enumName: HutongGames.PlayMaker.None
            intValue: 0
          ArrayParameter:
            useVariable: 0
            name: 
            tooltip: 
            showInInspector: 0
            networkSync: 0
            type: -1
            objectTypeName: UnityEngine.Object
            floatValues: []
            intValues: 
            boolValues: 
            stringValues: []
            vector4Values: []
            objectReferences: []
          setProperty: 1
        layoutOptionParams: []
        fsmStringParams:
        - useVariable: 0
          name: 
          tooltip: 
          showInInspector: 0
          networkSync: 0
          value: Player
        - useVariable: 0
          name: 
          tooltip: 
          showInInspector: 0
          networkSync: 0
          value: PlayMakerFSM
        - useVariable: 0
          name: 
          tooltip: 
          showInInspector: 0
          networkSync: 0
          value: BoxCollider
        fsmObjectParams:
        - useVariable: 1
          name: Collider
          tooltip: 
          showInInspector: 0
          networkSync: 0
          typeName: UnityEngine.BoxCollider
          value: {fileID: 0}
        fsmVarParams: []
        fsmArrayParams: []
        fsmEnumParams: []
        fsmFloatParams:
        - useVariable: 0
          name: 
          tooltip: 
          showInInspector: 0
          networkSync: 0
          value: 0
        fsmIntParams:
        - useVariable: 0
          name: 
          tooltip: 
          showInInspector: 0
          networkSync: 0
          value: 0
        - useVariable: 0
          name: 
          tooltip: 
          showInInspector: 0
          networkSync: 0
          value: 0
        - useVariable: 0
          name: 
          tooltip: 
          showInInspector: 0
          networkSync: 0
          value: 0
        - useVariable: 0
          name: 
          tooltip: 
          showInInspector: 0
          networkSync: 0
          value: 0
        - useVariable: 0
          name: 
          tooltip: 
          showInInspector: 0
          networkSync: 0
          value: 0
        fsmBoolParams:
        - useVariable: 0
          name: 
          tooltip: 
          showInInspector: 0
          networkSync: 0
          value: 0
        - useVariable: 0
          name: 
          tooltip: 
          showInInspector: 0
          networkSync: 0
          value: 0
        fsmVector2Params: []
        fsmVector3Params: []
        fsmColorParams: []
        fsmRectParams: []
        fsmQuaternionParams: []
        stringParams:
        - RN/PAR/FoodAnim
        byteData: 000000
        arrayParamSizes: 02000000030000000100000002000000
        arrayParamTypes:
        - HutongGames.PlayMaker.FsmInt
        - HutongGames.PlayMaker.FsmInt
        - HutongGames.PlayMaker.FsmOwnerDefault
        - HutongGames.PlayMaker.FsmString
        customTypeSizes: 
        customTypeNames: []
        paramDataType: 140000000c0000001000000010000000130000001f000000170000000f000000010000001400000012000000140000000c000000100000001000000010000000130000001400000018000000010000002400000001000000110000000c000000140000000c000000120000001200000011000000
        paramName:
        - gameObject
        - childIndexes
        - 
        - 
        - store
        - eventTarget
        - sendEvent
        - delay
        - everyFrame
        - gameObject
        - tag
        - gameObject
        - childIndexes
        - 
        - 
        - 
        - store
        - gameObject
        - storeComponent
        - everyFrame
        - targetProperty
        - everyFrame
        - LightVersion
        - gameObject
        - 
        - component
        - 
        - 
        - Recursive
        paramDataPos: 0000000000000000000000000100000000000000000000000000000000000000000000000100000000000000020000000100000002000000030000000400000001000000030000000000000001000000000000000200000000000000020000000400000003000000010000000200000001000000
        paramByteDataSize: 0000000000000000000000000000000000000000000000000000000000000000010000000000000000000000000000000000000000000000000000000000000000000000000000000000000001000000000000000100000000000000000000000000000000000000000000000000000000000000
    - name: EvPlayRandAnim
      description: 
      colorIndex: 0
      position:
        serializedVersion: 2
        x: 67.66406
        y: 554.4453
        width: 131
        height: 32
      isBreakpoint: 0
      isSequence: 0
      hideUnused: 0
      transitions:
      - fsmEvent:
          name: FINISHED
          isSystemEvent: 1
          isGlobal: 1
        toState: WaitMouse
        linkStyle: 0
        linkConstraint: 2
        colorIndex: 0
      actionData:
        actionNames:
        - HutongGames.PlayMaker.Actions.RZ_SetParent
        - HutongGames.PlayMaker.Actions.SendEvent
        - HutongGames.PlayMaker.Actions.RZ_LOCK_SCREEN
        - HutongGames.PlayMaker.Actions.SetBoolValue
        customNames:
        - 
        - Send Event
        - 
        - Set Bool Value
        actionEnabled: 01010101
        actionIsOpen: 00000000
        actionStartIndex: 00000000040000000800000009000000
        actionHashCodes: 5c8554055e69bb04e02f010327fbe103
        unityObjectParams: []
        fsmGameObjectParams: []
        fsmOwnerDefaultParams:
        - ownerOption: 0
          gameObject:
            useVariable: 1
            name: Food
            tooltip: 
            showInInspector: 0
            networkSync: 0
            value: {fileID: 0}
        - ownerOption: 1
          gameObject:
            useVariable: 1
            name: Korobok
            tooltip: 
            showInInspector: 0
            networkSync: 0
            value: {fileID: 0}
        animationCurveParams: []
        functionCallParams: []
        fsmTemplateControlParams: []
        fsmEventTargetParams:
        - target: 1
          excludeSelf:
            useVariable: 0
            name: 
            tooltip: 
            showInInspector: 0
            networkSync: 0
            value: 0
          gameObject:
            ownerOption: 1
            gameObject:
              useVariable: 1
              name: BoxAnim
              tooltip: 
              showInInspector: 0
              networkSync: 0
              value: {fileID: 0}
          fsmName:
            useVariable: 0
            name: 
            tooltip: 
            showInInspector: 0
            networkSync: 0
            value: 
          sendToChildren:
            useVariable: 0
            name: 
            tooltip: 
            showInInspector: 0
            networkSync: 0
            value: 0
          fsmComponent: {fileID: 0}
        fsmPropertyParams: []
        layoutOptionParams: []
        fsmStringParams: []
        fsmObjectParams: []
        fsmVarParams: []
        fsmArrayParams: []
        fsmEnumParams: []
        fsmFloatParams:
        - useVariable: 0
          name: 
          tooltip: 
          showInInspector: 0
          networkSync: 0
          value: 0
        fsmIntParams: []
        fsmBoolParams:
        - useVariable: 0
          name: 
          tooltip: 
          showInInspector: 0
          networkSync: 0
          value: 0
        - useVariable: 0
          name: 
          tooltip: 
          showInInspector: 0
          networkSync: 0
          value: 0
        - useVariable: 1
          name: RN/PAR/SecondBox
          tooltip: 
          showInInspector: 0
          networkSync: 0
          value: 0
        - useVariable: 0
          name: 
          tooltip: 
          showInInspector: 0
          networkSync: 0
          value: 0
        fsmVector2Params: []
        fsmVector3Params: []
        fsmColorParams: []
        fsmRectParams: []
        fsmQuaternionParams: []
        stringParams:
        - RN/MOUSE_UP
        byteData: 000100000000
        arrayParamSizes: 
        arrayParamTypes: []
        customTypeSizes: 
        customTypeNames: []
        paramDataType: 140000001400000011000000110000001f000000170000000f0000000100000007000000110000001100000001000000
        paramName:
        - gameObject
        - parent
        - resetLocalPosition
        - resetLocalRotation
        - eventTarget
        - sendEvent
        - delay
        - everyFrame
        - Status
        - boolVariable
        - boolValue
        - everyFrame
        paramDataPos: 000000000100000000000000010000000000000000000000000000000000000001000000020000000300000005000000
        paramByteDataSize: 000000000000000000000000000000000000000000000000000000000100000004000000000000000000000001000000
    - name: ResetParent
      description: 
      colorIndex: 0
      position:
        serializedVersion: 2
        x: 91.74219
        y: 247.4375
        width: 101
        height: 32
      isBreakpoint: 0
      isSequence: 0
      hideUnused: 0
      transitions:
      - fsmEvent:
          name: FINISHED
          isSystemEvent: 1
          isGlobal: 1
        toState: WaitMouse
        linkStyle: 0
        linkConstraint: 0
        colorIndex: 0
      actionData:
        actionNames:
        - HutongGames.PlayMaker.Actions.RZ_SetParent
        customNames:
        - 
        actionEnabled: 01
        actionIsOpen: 01
        actionStartIndex: 00000000
        actionHashCodes: 5c855405
        unityObjectParams: []
        fsmGameObjectParams: []
        fsmOwnerDefaultParams:
        - ownerOption: 0
          gameObject:
            useVariable: 1
            name: Food
            tooltip: 
            showInInspector: 0
            networkSync: 0
            value: {fileID: 0}
        - ownerOption: 1
          gameObject:
            useVariable: 1
            name: Korobok
            tooltip: 
            showInInspector: 0
            networkSync: 0
            value: {fileID: 0}
        animationCurveParams: []
        functionCallParams: []
        fsmTemplateControlParams: []
        fsmEventTargetParams: []
        fsmPropertyParams: []
        layoutOptionParams: []
        fsmStringParams: []
        fsmObjectParams: []
        fsmVarParams: []
        fsmArrayParams: []
        fsmEnumParams: []
        fsmFloatParams: []
        fsmIntParams: []
        fsmBoolParams:
        - useVariable: 0
          name: 
          tooltip: 
          showInInspector: 0
          networkSync: 0
          value: 0
        - useVariable: 0
          name: 
          tooltip: 
          showInInspector: 0
          networkSync: 0
          value: 0
        fsmVector2Params: []
        fsmVector3Params: []
        fsmColorParams: []
        fsmRectParams: []
        fsmQuaternionParams: []
        stringParams: []
        byteData: 
        arrayParamSizes: 
        arrayParamTypes: []
        customTypeSizes: 
        customTypeNames: []
        paramDataType: 14000000140000001100000011000000
        paramName:
        - gameObject
        - parent
        - resetLocalPosition
        - resetLocalRotation
        paramDataPos: 00000000010000000000000001000000
        paramByteDataSize: 00000000000000000000000000000000
    events:
    - name: FINISHED
      isSystemEvent: 1
      isGlobal: 1
    - name: MouseMT/Down
      isSystemEvent: 0
      isGlobal: 1
    - name: OK
      isSystemEvent: 0
      isGlobal: 1
    - name: RN/MOUSE_DOWN
      isSystemEvent: 0
      isGlobal: 1
    - name: RN/MOUSE_UP
      isSystemEvent: 0
      isGlobal: 1
    - name: RN/PAR/CorrectChoice
      isSystemEvent: 0
      isGlobal: 1
    - name: RN/PAR/FoodAnim
      isSystemEvent: 0
      isGlobal: 1
    - name: RN/PAR/StartBoxWork
      isSystemEvent: 0
      isGlobal: 1
    - name: RN/PAR/WrongChoice
      isSystemEvent: 0
      isGlobal: 1
    globalTransitions: []
    variables:
      floatVariables: []
      intVariables: []
      boolVariables: []
      stringVariables:
      - useVariable: 1
        name: AnimName
        tooltip: 
        showInInspector: 0
        networkSync: 0
        value: 
      - useVariable: 1
        name: Name
        tooltip: 
        showInInspector: 0
        networkSync: 0
        value: 
      vector2Variables: []
      vector3Variables: []
      colorVariables: []
      rectVariables: []
      quaternionVariables: []
      gameObjectVariables:
      - useVariable: 1
        name: AllBox
        tooltip: 
        showInInspector: 0
        networkSync: 0
        value: {fileID: 0}
      - useVariable: 1
        name: BoxAnim
        tooltip: 
        showInInspector: 0
        networkSync: 0
        value: {fileID: 0}
      - useVariable: 1
        name: Food
        tooltip: 
        showInInspector: 0
        networkSync: 0
        value: {fileID: 0}
      - useVariable: 1
        name: FoodPers
        tooltip: 
        showInInspector: 0
        networkSync: 0
        value: {fileID: 0}
      - useVariable: 1
        name: Golova
        tooltip: 
        showInInspector: 0
        networkSync: 0
        value: {fileID: 0}
      - useVariable: 1
        name: Korobok
        tooltip: 
        showInInspector: 0
        networkSync: 0
        value: {fileID: 0}
      objectVariables:
      - useVariable: 1
        name: Collider
        tooltip: 
        showInInspector: 0
        networkSync: 0
        typeName: UnityEngine.BoxCollider
        value: {fileID: 0}
      materialVariables: []
      textureVariables: []
      arrayVariables: []
      enumVariables: []
      categories:
      - 
      variableCategoryIDs: 000000000000000000000000000000000000000000000000000000000000000000000000
    description: 
    docUrl: 
    showStateLabel: 1
    maxLoopCount: 0
    watermark: 
    password: 
    locked: 0
    manualUpdate: 0
    keepDelayedEventsOnStateExit: 0
    preprocessed: 0
    ExposedEvents: []
    RestartOnEnable: 1
    EnableDebugFlow: 0
    EnableBreakpoints: 1
    editorFlags: 3
    activeStateName: 
    mouseEvents: 0
    handleTriggerEnter2D: 0
    handleTriggerExit2D: 0
    handleTriggerStay2D: 0
    handleCollisionEnter2D: 0
    handleCollisionExit2D: 0
    handleCollisionStay2D: 0
    handleTriggerEnter: 0
    handleTriggerExit: 0
    handleTriggerStay: 0
    handleCollisionEnter: 0
    handleCollisionExit: 0
    handleCollisionStay: 0
    handleControllerColliderHit: 0
    handleOnGUI: 0
    handleFixedUpdate: 0
    handleApplicationEvents: 0
    handleAnimatorMove: 0
    handleAnimatorIK: 0
