%YAML 1.1
%TAG !u! tag:unity3d.com,2011:
--- !u!114 &11400000
MonoBehaviour:
  m_ObjectHideFlags: 0
  m_PrefabParentObject: {fileID: 0}
  m_PrefabInternal: {fileID: 0}
  m_GameObject: {fileID: 0}
  m_Enabled: 1
  m_EditorHideFlags: 0
  m_Script: {fileID: 1219815696, guid: de72a6d2da64d114d95e3c5a01cfaec5, type: 3}
  m_Name: RN_PAR_FoodAnim
  m_EditorClassIdentifier: 
  category: General
  fsm:
    dataVersion: 2
    usedInTemplate: {fileID: 11400000}
    name: FSM
    startState: '-'
    states:
    - name: '-'
      description: 
      colorIndex: 0
      position:
        serializedVersion: 2
        x: 225.03906
        y: 260.0078
        width: 100
        height: 16
      isBreakpoint: 0
      isSequence: 0
      hideUnused: 0
      transitions: []
      actionData:
        actionNames:
        - HutongGames.PlayMaker.Actions.RZ_ResetPlayingAnimation
        - HutongGames.PlayMaker.Actions.RZ_GetTag
        customNames:
        - 
        - 
        actionEnabled: 0101
        actionIsOpen: 0000
        actionStartIndex: 0000000002000000
        actionHashCodes: f6128c00599a9305
        unityObjectParams: []
        fsmGameObjectParams: []
        fsmOwnerDefaultParams:
        - ownerOption: 0
          gameObject:
            useVariable: 0
            name: 
            tooltip: 
            showInInspector: 0
            networkSync: 0
            value: {fileID: 0}
        - ownerOption: 0
          gameObject:
            useVariable: 0
            name: 
            tooltip: 
            showInInspector: 0
            networkSync: 0
            value: {fileID: 0}
        animationCurveParams: []
        functionCallParams: []
        fsmTemplateControlParams: []
        fsmEventTargetParams: []
        fsmPropertyParams: []
        layoutOptionParams: []
        fsmStringParams:
        - useVariable: 1
          name: Tag
          tooltip: 
          showInInspector: 0
          networkSync: 0
          value: 
        fsmObjectParams: []
        fsmVarParams: []
        fsmArrayParams: []
        fsmEnumParams: []
        fsmFloatParams: []
        fsmIntParams: []
        fsmBoolParams: []
        fsmVector2Params: []
        fsmVector3Params: []
        fsmColorParams: []
        fsmRectParams: []
        fsmQuaternionParams: []
        stringParams: []
        byteData: 00
        arrayParamSizes: 01000000
        arrayParamTypes:
        - HutongGames.PlayMaker.FsmOwnerDefault
        customTypeSizes: 
        customTypeNames: []
        paramDataType: 0c00000014000000140000001200000001000000
        paramName:
        - gameObject
        - 
        - gameObject
        - storeResult
        - everyFrame
        paramDataPos: 0000000000000000010000000000000000000000
        paramByteDataSize: 0000000000000000000000000000000001000000
    - name: RandWait
      description: 
      colorIndex: 0
      position:
        serializedVersion: 2
        x: 55.070312
        y: 167.0625
        width: 100
        height: 32
      isBreakpoint: 0
      isSequence: 0
      hideUnused: 0
      transitions:
      - fsmEvent:
          name: FINISHED
          isSystemEvent: 1
          isGlobal: 1
        toState: RandAnim
        linkStyle: 0
        linkConstraint: 0
        colorIndex: 0
      actionData:
        actionNames:
        - HutongGames.PlayMaker.Actions.RZ_ResetPlayingAnimation
        - HutongGames.PlayMaker.Actions.RZ_RandomWait
        customNames:
        - 
        - 
        actionEnabled: 0101
        actionIsOpen: 0000
        actionStartIndex: 0000000002000000
        actionHashCodes: f6128c000d5f5c01
        unityObjectParams: []
        fsmGameObjectParams: []
        fsmOwnerDefaultParams:
        - ownerOption: 0
          gameObject:
            useVariable: 0
            name: 
            tooltip: 
            showInInspector: 0
            networkSync: 0
            value: {fileID: 0}
        animationCurveParams: []
        functionCallParams: []
        fsmTemplateControlParams: []
        fsmEventTargetParams: []
        fsmPropertyParams: []
        layoutOptionParams: []
        fsmStringParams: []
        fsmObjectParams: []
        fsmVarParams: []
        fsmArrayParams: []
        fsmEnumParams: []
        fsmFloatParams:
        - useVariable: 0
          name: 
          tooltip: 
          showInInspector: 0
          networkSync: 0
          value: 1
        - useVariable: 0
          name: 
          tooltip: 
          showInInspector: 0
          networkSync: 0
          value: 5
        fsmIntParams: []
        fsmBoolParams: []
        fsmVector2Params: []
        fsmVector3Params: []
        fsmColorParams: []
        fsmRectParams: []
        fsmQuaternionParams: []
        stringParams:
        - FINISHED
        byteData: 00
        arrayParamSizes: 01000000
        arrayParamTypes:
        - HutongGames.PlayMaker.FsmOwnerDefault
        customTypeSizes: 
        customTypeNames: []
        paramDataType: 0c000000140000000f0000000f0000001700000001000000
        paramName:
        - gameObject
        - 
        - fromTime
        - toTime
        - finishEvent
        - realTime
        paramDataPos: 000000000000000000000000010000000000000000000000
        paramByteDataSize: 000000000000000000000000000000000000000001000000
    - name: RandAnim
      description: 
      colorIndex: 0
      position:
        serializedVersion: 2
        x: 56.5
        y: 216.21875
        width: 100
        height: 32
      isBreakpoint: 0
      isSequence: 0
      hideUnused: 0
      transitions:
      - fsmEvent:
          name: FINISHED
          isSystemEvent: 1
          isGlobal: 1
        toState: RandWait
        linkStyle: 0
        linkConstraint: 0
        colorIndex: 0
      actionData:
        actionNames:
        - HutongGames.PlayMaker.Actions.SelectRandomString
        - HutongGames.PlayMaker.Actions.RZ_PlayWithSound
        customNames:
        - 
        - 
        actionEnabled: 0101
        actionIsOpen: 0101
        actionStartIndex: 000000000f000000
        actionHashCodes: 016028043a217105
        unityObjectParams: []
        fsmGameObjectParams: []
        fsmOwnerDefaultParams:
        - ownerOption: 0
          gameObject:
            useVariable: 0
            name: 
            tooltip: 
            showInInspector: 0
            networkSync: 0
            value: {fileID: 0}
        animationCurveParams: []
        functionCallParams: []
        fsmTemplateControlParams: []
        fsmEventTargetParams: []
        fsmPropertyParams: []
        layoutOptionParams: []
        fsmStringParams:
        - useVariable: 0
          name: 
          tooltip: 
          showInInspector: 0
          networkSync: 0
          value: PERS_RADOST
        - useVariable: 0
          name: 
          tooltip: 
          showInInspector: 0
          networkSync: 0
          value: PERS_UDIVLENIE
        - useVariable: 0
          name: 
          tooltip: 
          showInInspector: 0
          networkSync: 0
          value: PERS_UDIVLENIE_1
        - useVariable: 0
          name: 
          tooltip: 
          showInInspector: 0
          networkSync: 0
          value: PERS_PodPalcem
        - useVariable: 0
          name: 
          tooltip: 
          showInInspector: 0
          networkSync: 0
          value: PERS_MORGANIE
        - useVariable: 0
          name: 
          tooltip: 
          showInInspector: 0
          networkSync: 0
          value: PERS_OGLYADIVANIE
        - useVariable: 1
          name: RandAnim
          tooltip: 
          showInInspector: 0
          networkSync: 0
          value: 
        - useVariable: 1
          name: RandAnim
          tooltip: 
          showInInspector: 0
          networkSync: 0
          value: 
        - useVariable: 1
          name: Tag
          tooltip: 
          showInInspector: 0
          networkSync: 0
          value: 
        fsmObjectParams: []
        fsmVarParams: []
        fsmArrayParams: []
        fsmEnumParams: []
        fsmFloatParams:
        - useVariable: 0
          name: 
          tooltip: 
          showInInspector: 0
          networkSync: 0
          value: 1
        - useVariable: 0
          name: 
          tooltip: 
          showInInspector: 0
          networkSync: 0
          value: 1
        - useVariable: 0
          name: 
          tooltip: 
          showInInspector: 0
          networkSync: 0
          value: 1
        - useVariable: 0
          name: 
          tooltip: 
          showInInspector: 0
          networkSync: 0
          value: 1
        - useVariable: 0
          name: 
          tooltip: 
          showInInspector: 0
          networkSync: 0
          value: 1
        - useVariable: 0
          name: 
          tooltip: 
          showInInspector: 0
          networkSync: 0
          value: 1
        - useVariable: 0
          name: 
          tooltip: 
          showInInspector: 0
          networkSync: 0
          value: 1
        - useVariable: 1
          name: FF2/Volume/FoodRandom
          tooltip: 
          showInInspector: 0
          networkSync: 0
          value: 0.15
        fsmIntParams: []
        fsmBoolParams:
        - useVariable: 0
          name: 
          tooltip: 
          showInInspector: 0
          networkSync: 0
          value: 0
        - useVariable: 0
          name: 
          tooltip: 
          showInInspector: 0
          networkSync: 0
          value: 0
        - useVariable: 0
          name: 
          tooltip: 
          showInInspector: 0
          networkSync: 0
          value: 0
        fsmVector2Params: []
        fsmVector3Params: []
        fsmColorParams: []
        fsmRectParams: []
        fsmQuaternionParams: []
        stringParams:
        - FINISHED
        - 
        byteData: 00
        arrayParamSizes: 0600000006000000
        arrayParamTypes:
        - HutongGames.PlayMaker.FsmString
        - HutongGames.PlayMaker.FsmFloat
        customTypeSizes: 
        customTypeNames: []
        paramDataType: 0c0000001200000012000000120000001200000012000000120000000c0000000f0000000f0000000f0000000f0000000f0000000f0000001200000014000000120000000f0000000f00000017000000170000001100000011000000110000001200000001000000
        paramName:
        - strings
        - 
        - 
        - 
        - 
        - 
        - 
        - weights
        - 
        - 
        - 
        - 
        - 
        - 
        - storeString
        - gameObject
        - animName
        - Speed
        - audioVolume
        - finishEvent
        - StartedEvent
        - LoopMode
        - Identifier
        - NeedToWaitForEndPrevAnim
        - highLowMedium
        - stopOnExit
        paramDataPos: 0000000000000000010000000200000003000000040000000500000001000000000000000100000002000000030000000400000005000000060000000000000007000000060000000700000000000000010000000000000001000000020000000800000000000000
        paramByteDataSize: 0000000000000000000000000000000000000000000000000000000000000000000000000000000000000000000000000000000000000000000000000000000000000000000000000000000000000000000000000000000000000000000000000000000001000000
    - name: ExamGameFinish
      description: 
      colorIndex: 0
      position:
        serializedVersion: 2
        x: 204.08594
        y: 103.453125
        width: 147
        height: 48
      isBreakpoint: 0
      isSequence: 0
      hideUnused: 0
      transitions:
      - fsmEvent:
          name: FINISHED
          isSystemEvent: 1
          isGlobal: 1
        toState: AnimRad
        linkStyle: 0
        linkConstraint: 0
        colorIndex: 0
      - fsmEvent:
          name: OK
          isSystemEvent: 0
          isGlobal: 1
        toState: SendEvent
        linkStyle: 0
        linkConstraint: 0
        colorIndex: 0
      actionData:
        actionNames:
        - HutongGames.PlayMaker.Actions.IntAdd
        - HutongGames.PlayMaker.Actions.IntCompare
        - HutongGames.PlayMaker.Actions.RZ_RandomWait
        customNames:
        - 
        - 
        - 
        actionEnabled: 010101
        actionIsOpen: 000000
        actionStartIndex: 000000000300000009000000
        actionHashCodes: 603dd90509faa1020d5f5c01
        unityObjectParams: []
        fsmGameObjectParams: []
        fsmOwnerDefaultParams: []
        animationCurveParams: []
        functionCallParams: []
        fsmTemplateControlParams: []
        fsmEventTargetParams: []
        fsmPropertyParams: []
        layoutOptionParams: []
        fsmStringParams: []
        fsmObjectParams: []
        fsmVarParams: []
        fsmArrayParams: []
        fsmEnumParams: []
        fsmFloatParams:
        - useVariable: 0
          name: 
          tooltip: 
          showInInspector: 0
          networkSync: 0
          value: 0.1
        - useVariable: 0
          name: 
          tooltip: 
          showInInspector: 0
          networkSync: 0
          value: 0.4
        fsmIntParams:
        - useVariable: 1
          name: RN/PAR/GameIndex
          tooltip: 
          showInInspector: 0
          networkSync: 0
          value: 0
        - useVariable: 0
          name: 
          tooltip: 
          showInInspector: 0
          networkSync: 0
          value: 1
        - useVariable: 1
          name: RN/PAR/GameIndex
          tooltip: 
          showInInspector: 0
          networkSync: 0
          value: 0
        - useVariable: 0
          name: 
          tooltip: 
          showInInspector: 0
          networkSync: 0
          value: 12
        fsmBoolParams: []
        fsmVector2Params: []
        fsmVector3Params: []
        fsmColorParams: []
        fsmRectParams: []
        fsmQuaternionParams: []
        stringParams:
        - OK
        - 
        - 
        - FINISHED
        byteData: 000000
        arrayParamSizes: 
        arrayParamTypes: []
        customTypeSizes: 
        customTypeNames: []
        paramDataType: 1000000010000000010000001000000010000000170000001700000017000000010000000f0000000f0000001700000001000000
        paramName:
        - intVariable
        - add
        - everyFrame
        - integer1
        - integer2
        - equal
        - lessThan
        - greaterThan
        - everyFrame
        - fromTime
        - toTime
        - finishEvent
        - realTime
        paramDataPos: 00000000010000000000000002000000030000000000000001000000020000000100000000000000010000000300000002000000
        paramByteDataSize: 00000000000000000100000000000000000000000000000000000000000000000100000000000000000000000000000001000000
    - name: Wait
      description: 
      colorIndex: 0
      position:
        serializedVersion: 2
        x: 385.59375
        y: 172.67188
        width: 166
        height: 32
      isBreakpoint: 0
      isSequence: 0
      hideUnused: 0
      transitions:
      - fsmEvent:
          name: FINISHED
          isSystemEvent: 1
          isGlobal: 1
        toState: AnimSuperRadost
        linkStyle: 0
        linkConstraint: 0
        colorIndex: 0
      actionData:
        actionNames:
        - HutongGames.PlayMaker.Actions.RZ_RandomWait
        customNames:
        - 
        actionEnabled: 01
        actionIsOpen: 01
        actionStartIndex: 00000000
        actionHashCodes: 0d5f5c01
        unityObjectParams: []
        fsmGameObjectParams: []
        fsmOwnerDefaultParams: []
        animationCurveParams: []
        functionCallParams: []
        fsmTemplateControlParams: []
        fsmEventTargetParams: []
        fsmPropertyParams: []
        layoutOptionParams: []
        fsmStringParams: []
        fsmObjectParams: []
        fsmVarParams: []
        fsmArrayParams: []
        fsmEnumParams: []
        fsmFloatParams:
        - useVariable: 0
          name: 
          tooltip: 
          showInInspector: 0
          networkSync: 0
          value: 0.1
        - useVariable: 0
          name: 
          tooltip: 
          showInInspector: 0
          networkSync: 0
          value: 0.5
        fsmIntParams: []
        fsmBoolParams: []
        fsmVector2Params: []
        fsmVector3Params: []
        fsmColorParams: []
        fsmRectParams: []
        fsmQuaternionParams: []
        stringParams:
        - FINISHED
        byteData: 00
        arrayParamSizes: 
        arrayParamTypes: []
        customTypeSizes: 
        customTypeNames: []
        paramDataType: 0f0000000f0000001700000001000000
        paramName:
        - fromTime
        - toTime
        - finishEvent
        - realTime
        paramDataPos: 00000000010000000000000000000000
        paramByteDataSize: 00000000000000000000000001000000
    - name: AnimSuperRadost
      description: 
      colorIndex: 0
      position:
        serializedVersion: 2
        x: 401.0547
        y: 218.6875
        width: 137
        height: 32
      isBreakpoint: 0
      isSequence: 0
      hideUnused: 0
      transitions:
      - fsmEvent:
          name: FINISHED
          isSystemEvent: 1
          isGlobal: 1
        toState: WaitBeforeRestart
        linkStyle: 0
        linkConstraint: 0
        colorIndex: 0
      actionData:
        actionNames:
        - HutongGames.PlayMaker.Actions.RZ_ResetPlayingAnimation
        - HutongGames.PlayMaker.Actions.RZ_PlayWithSound
        customNames:
        - 
        - 
        actionEnabled: 0101
        actionIsOpen: 0001
        actionStartIndex: 0000000002000000
        actionHashCodes: f6128c003a217105
        unityObjectParams: []
        fsmGameObjectParams: []
        fsmOwnerDefaultParams:
        - ownerOption: 0
          gameObject:
            useVariable: 0
            name: 
            tooltip: 
            showInInspector: 0
            networkSync: 0
            value: {fileID: 0}
        - ownerOption: 0
          gameObject:
            useVariable: 0
            name: 
            tooltip: 
            showInInspector: 0
            networkSync: 0
            value: {fileID: 0}
        animationCurveParams: []
        functionCallParams: []
        fsmTemplateControlParams: []
        fsmEventTargetParams: []
        fsmPropertyParams: []
        layoutOptionParams: []
        fsmStringParams:
        - useVariable: 0
          name: 
          tooltip: 
          showInInspector: 0
          networkSync: 0
          value: PERS_RADOSTx3
        - useVariable: 1
          name: Tag
          tooltip: 
          showInInspector: 0
          networkSync: 0
          value: 
        fsmObjectParams: []
        fsmVarParams: []
        fsmArrayParams: []
        fsmEnumParams: []
        fsmFloatParams:
        - useVariable: 0
          name: 
          tooltip: 
          showInInspector: 0
          networkSync: 0
          value: 1
        - useVariable: 1
          name: FF2/Volume/FoodReaction
          tooltip: 
          showInInspector: 0
          networkSync: 0
          value: 0.4
        fsmIntParams: []
        fsmBoolParams:
        - useVariable: 0
          name: 
          tooltip: 
          showInInspector: 0
          networkSync: 0
          value: 0
        - useVariable: 0
          name: 
          tooltip: 
          showInInspector: 0
          networkSync: 0
          value: 0
        - useVariable: 0
          name: 
          tooltip: 
          showInInspector: 0
          networkSync: 0
          value: 0
        fsmVector2Params: []
        fsmVector3Params: []
        fsmColorParams: []
        fsmRectParams: []
        fsmQuaternionParams: []
        stringParams:
        - FINISHED
        - 
        byteData: 00
        arrayParamSizes: 01000000
        arrayParamTypes:
        - HutongGames.PlayMaker.FsmOwnerDefault
        customTypeSizes: 
        customTypeNames: []
        paramDataType: 0c0000001400000014000000120000000f0000000f00000017000000170000001100000011000000110000001200000001000000
        paramName:
        - gameObject
        - 
        - gameObject
        - animName
        - Speed
        - audioVolume
        - finishEvent
        - StartedEvent
        - LoopMode
        - Identifier
        - NeedToWaitForEndPrevAnim
        - highLowMedium
        - stopOnExit
        paramDataPos: 00000000000000000100000000000000000000000100000000000000010000000000000001000000020000000100000000000000
        paramByteDataSize: 00000000000000000000000000000000000000000000000000000000000000000000000000000000000000000000000001000000
    - name: WaitBeforeRestart
      description: 
      colorIndex: 0
      position:
        serializedVersion: 2
        x: 396.78125
        y: 266.25
        width: 143
        height: 32
      isBreakpoint: 0
      isSequence: 0
      hideUnused: 0
      transitions:
      - fsmEvent:
          name: FINISHED
          isSystemEvent: 1
          isGlobal: 1
        toState: Restart
        linkStyle: 0
        linkConstraint: 0
        colorIndex: 0
      actionData:
        actionNames:
        - HutongGames.PlayMaker.Actions.SetAnimationTime
        - HutongGames.PlayMaker.Actions.Wait
        customNames:
        - 
        - 
        actionEnabled: 0001
        actionIsOpen: 0000
        actionStartIndex: 0000000005000000
        actionHashCodes: 0baad00548c01101
        unityObjectParams: []
        fsmGameObjectParams: []
        fsmOwnerDefaultParams:
        - ownerOption: 0
          gameObject:
            useVariable: 0
            name: 
            tooltip: 
            showInInspector: 0
            networkSync: 0
            value: {fileID: 0}
        animationCurveParams: []
        functionCallParams: []
        fsmTemplateControlParams: []
        fsmEventTargetParams: []
        fsmPropertyParams: []
        layoutOptionParams: []
        fsmStringParams:
        - useVariable: 0
          name: 
          tooltip: 
          showInInspector: 0
          networkSync: 0
          value: PERS_UDIVLENIE
        fsmObjectParams: []
        fsmVarParams: []
        fsmArrayParams: []
        fsmEnumParams: []
        fsmFloatParams:
        - useVariable: 0
          name: 
          tooltip: 
          showInInspector: 0
          networkSync: 0
          value: 0
        - useVariable: 0
          name: 
          tooltip: 
          showInInspector: 0
          networkSync: 0
          value: 3
        fsmIntParams: []
        fsmBoolParams: []
        fsmVector2Params: []
        fsmVector3Params: []
        fsmColorParams: []
        fsmRectParams: []
        fsmQuaternionParams: []
        stringParams:
        - FINISHED
        byteData: 010000
        arrayParamSizes: 
        arrayParamTypes: []
        customTypeSizes: 
        customTypeNames: []
        paramDataType: 14000000120000000f00000001000000010000000f0000001700000001000000
        paramName:
        - gameObject
        - animName
        - time
        - normalized
        - everyFrame
        - time
        - finishEvent
        - realTime
        paramDataPos: 0000000000000000000000000000000001000000010000000000000002000000
        paramByteDataSize: 0000000000000000000000000100000001000000000000000000000001000000
    - name: AnimRad
      description: 
      colorIndex: 0
      position:
        serializedVersion: 2
        x: 56.6875
        y: 120.796875
        width: 100
        height: 32
      isBreakpoint: 0
      isSequence: 0
      hideUnused: 0
      transitions:
      - fsmEvent:
          name: FINISHED
          isSystemEvent: 1
          isGlobal: 1
        toState: RandWait
        linkStyle: 0
        linkConstraint: 0
        colorIndex: 0
      actionData:
        actionNames:
        - HutongGames.PlayMaker.Actions.RZ_ResetPlayingAnimation
        - HutongGames.PlayMaker.Actions.RZ_PlayWithSound
        customNames:
        - 
        - 
        actionEnabled: 0101
        actionIsOpen: 0000
        actionStartIndex: 0000000002000000
        actionHashCodes: f6128c003a217105
        unityObjectParams: []
        fsmGameObjectParams: []
        fsmOwnerDefaultParams:
        - ownerOption: 0
          gameObject:
            useVariable: 0
            name: 
            tooltip: 
            showInInspector: 0
            networkSync: 0
            value: {fileID: 0}
        - ownerOption: 0
          gameObject:
            useVariable: 0
            name: 
            tooltip: 
            showInInspector: 0
            networkSync: 0
            value: {fileID: 0}
        animationCurveParams: []
        functionCallParams: []
        fsmTemplateControlParams: []
        fsmEventTargetParams: []
        fsmPropertyParams: []
        layoutOptionParams: []
        fsmStringParams:
        - useVariable: 0
          name: 
          tooltip: 
          showInInspector: 0
          networkSync: 0
          value: PERS_RADOST
        - useVariable: 1
          name: Tag
          tooltip: 
          showInInspector: 0
          networkSync: 0
          value: 
        fsmObjectParams: []
        fsmVarParams: []
        fsmArrayParams: []
        fsmEnumParams: []
        fsmFloatParams:
        - useVariable: 0
          name: 
          tooltip: 
          showInInspector: 0
          networkSync: 0
          value: 1
        - useVariable: 1
          name: FF2/Volume/FoodReaction
          tooltip: 
          showInInspector: 0
          networkSync: 0
          value: 0.4
        fsmIntParams: []
        fsmBoolParams:
        - useVariable: 0
          name: 
          tooltip: 
          showInInspector: 0
          networkSync: 0
          value: 0
        - useVariable: 0
          name: 
          tooltip: 
          showInInspector: 0
          networkSync: 0
          value: 0
        - useVariable: 0
          name: 
          tooltip: 
          showInInspector: 0
          networkSync: 0
          value: 0
        fsmVector2Params: []
        fsmVector3Params: []
        fsmColorParams: []
        fsmRectParams: []
        fsmQuaternionParams: []
        stringParams:
        - FINISHED
        - 
        byteData: 00
        arrayParamSizes: 01000000
        arrayParamTypes:
        - HutongGames.PlayMaker.FsmOwnerDefault
        customTypeSizes: 
        customTypeNames: []
        paramDataType: 0c0000001400000014000000120000000f0000000f00000017000000170000001100000011000000110000001200000001000000
        paramName:
        - gameObject
        - 
        - gameObject
        - animName
        - Speed
        - audioVolume
        - finishEvent
        - StartedEvent
        - LoopMode
        - Identifier
        - NeedToWaitForEndPrevAnim
        - highLowMedium
        - stopOnExit
        paramDataPos: 00000000000000000100000000000000000000000100000000000000010000000000000001000000020000000100000000000000
        paramByteDataSize: 00000000000000000000000000000000000000000000000000000000000000000000000000000000000000000000000001000000
    - name: SendEvent
      description: 
      colorIndex: 0
      position:
        serializedVersion: 2
        x: 227.53125
        y: 159.11719
        width: 100
        height: 32
      isBreakpoint: 0
      isSequence: 0
      hideUnused: 0
      transitions:
      - fsmEvent:
          name: FINISHED
          isSystemEvent: 1
          isGlobal: 1
        toState: Wait
        linkStyle: 0
        linkConstraint: 0
        colorIndex: 0
      actionData:
        actionNames:
        - HutongGames.PlayMaker.Actions.SendEvent
        customNames:
        - 
        actionEnabled: 01
        actionIsOpen: 01
        actionStartIndex: 00000000
        actionHashCodes: 5e69bb04
        unityObjectParams: []
        fsmGameObjectParams: []
        fsmOwnerDefaultParams: []
        animationCurveParams: []
        functionCallParams: []
        fsmTemplateControlParams: []
        fsmEventTargetParams:
        - target: 4
          excludeSelf:
            useVariable: 0
            name: 
            tooltip: 
            showInInspector: 0
            networkSync: 0
            value: 1
          gameObject:
            ownerOption: 0
            gameObject:
              useVariable: 0
              name: 
              tooltip: 
              showInInspector: 0
              networkSync: 0
              value: {fileID: 0}
          fsmName:
            useVariable: 0
            name: 
            tooltip: 
            showInInspector: 0
            networkSync: 0
            value: 
          sendToChildren:
            useVariable: 0
            name: 
            tooltip: 
            showInInspector: 0
            networkSync: 0
            value: 0
          fsmComponent: {fileID: 0}
        fsmPropertyParams: []
        layoutOptionParams: []
        fsmStringParams: []
        fsmObjectParams: []
        fsmVarParams: []
        fsmArrayParams: []
        fsmEnumParams: []
        fsmFloatParams:
        - useVariable: 0
          name: 
          tooltip: 
          showInInspector: 0
          networkSync: 0
          value: 0
        fsmIntParams: []
        fsmBoolParams: []
        fsmVector2Params: []
        fsmVector3Params: []
        fsmColorParams: []
        fsmRectParams: []
        fsmQuaternionParams: []
        stringParams:
        - RN/PAR/SuperRadost
        byteData: 00
        arrayParamSizes: 
        arrayParamTypes: []
        customTypeSizes: 
        customTypeNames: []
        paramDataType: 1f000000170000000f00000001000000
        paramName:
        - eventTarget
        - sendEvent
        - delay
        - everyFrame
        paramDataPos: 00000000000000000000000000000000
        paramByteDataSize: 00000000000000000000000001000000
    - name: Restart
      description: 
      colorIndex: 0
      position:
        serializedVersion: 2
        x: 415.64844
        y: 315.7578
        width: 100
        height: 16
      isBreakpoint: 0
      isSequence: 0
      hideUnused: 0
      transitions: []
      actionData:
        actionNames:
        - HutongGames.PlayMaker.Actions.RestartLevel
        customNames:
        - 
        actionEnabled: 01
        actionIsOpen: 01
        actionStartIndex: 00000000
        actionHashCodes: 00000000
        unityObjectParams: []
        fsmGameObjectParams: []
        fsmOwnerDefaultParams: []
        animationCurveParams: []
        functionCallParams: []
        fsmTemplateControlParams: []
        fsmEventTargetParams: []
        fsmPropertyParams: []
        layoutOptionParams: []
        fsmStringParams: []
        fsmObjectParams: []
        fsmVarParams: []
        fsmArrayParams: []
        fsmEnumParams: []
        fsmFloatParams: []
        fsmIntParams: []
        fsmBoolParams: []
        fsmVector2Params: []
        fsmVector3Params: []
        fsmColorParams: []
        fsmRectParams: []
        fsmQuaternionParams: []
        stringParams: []
        byteData: 
        arrayParamSizes: 
        arrayParamTypes: []
        customTypeSizes: 
        customTypeNames: []
        paramDataType: 
        paramName: []
        paramDataPos: 
        paramByteDataSize: 
    events:
    - name: FINISHED
      isSystemEvent: 1
      isGlobal: 1
    - name: OK
      isSystemEvent: 0
      isGlobal: 1
    - name: RN/HEL/AnimSuperRadost
      isSystemEvent: 0
      isGlobal: 1
    - name: RN/HEL/FoodRad
      isSystemEvent: 0
      isGlobal: 1
    - name: RN/HEL/MouseUp
      isSystemEvent: 0
      isGlobal: 1
    - name: RN/HEL/PodPalcem
      isSystemEvent: 0
      isGlobal: 1
    - name: RN/HEL/WakeUpFood
      isSystemEvent: 0
      isGlobal: 1
    - name: RN/PAR/FoodAnim
      isSystemEvent: 0
      isGlobal: 1
    - name: RN/PAR/SuperRadost
      isSystemEvent: 0
      isGlobal: 1
    globalTransitions:
    - fsmEvent:
        name: RN/PAR/FoodAnim
        isSystemEvent: 0
        isGlobal: 1
      toState: ExamGameFinish
      linkStyle: 0
      linkConstraint: 0
      colorIndex: 0
    - fsmEvent:
        name: RN/PAR/SuperRadost
        isSystemEvent: 0
        isGlobal: 1
      toState: Wait
      linkStyle: 0
      linkConstraint: 0
      colorIndex: 0
    variables:
      floatVariables: []
      intVariables: []
      boolVariables: []
      stringVariables:
      - useVariable: 1
        name: RandAnim
        tooltip: 
        showInInspector: 0
        networkSync: 0
        value: 
      - useVariable: 1
        name: Tag
        tooltip: 
        showInInspector: 0
        networkSync: 0
        value: 
      vector2Variables: []
      vector3Variables: []
      colorVariables: []
      rectVariables: []
      quaternionVariables: []
      gameObjectVariables: []
      objectVariables: []
      materialVariables: []
      textureVariables: []
      arrayVariables: []
      enumVariables: []
      categories:
      - 
      variableCategoryIDs: 0000000000000000
    description: 
    docUrl: 
    showStateLabel: 1
    maxLoopCount: 0
    watermark: 
    password: 
    locked: 0
    manualUpdate: 0
    keepDelayedEventsOnStateExit: 0
    preprocessed: 0
    ExposedEvents: []
    RestartOnEnable: 1
    EnableDebugFlow: 0
    EnableBreakpoints: 1
    editorFlags: 3
    activeStateName: 
    mouseEvents: 0
    handleTriggerEnter2D: 0
    handleTriggerExit2D: 0
    handleTriggerStay2D: 0
    handleCollisionEnter2D: 0
    handleCollisionExit2D: 0
    handleCollisionStay2D: 0
    handleTriggerEnter: 0
    handleTriggerExit: 0
    handleTriggerStay: 0
    handleCollisionEnter: 0
    handleCollisionExit: 0
    handleCollisionStay: 0
    handleControllerColliderHit: 0
    handleOnGUI: 0
    handleFixedUpdate: 0
    handleApplicationEvents: 0
    handleAnimatorMove: 0
    handleAnimatorIK: 0
