%YAML 1.1
%TAG !u! tag:unity3d.com,2011:
--- !u!21 &2100000
Material:
  serializedVersion: 6
  m_ObjectHideFlags: 0
  m_PrefabParentObject: {fileID: 0}
  m_PrefabInternal: {fileID: 0}
  m_Name: VERH_MAGISTRAL_3
  m_Shader: {fileID: 4800000, guid: 96b1180697cf9374d80d1974fd136cdb, type: 3}
  m_ShaderKeywords: 
  m_LightmapFlags: 5
  m_CustomRenderQueue: -1
  stringTagMap: {}
  m_SavedProperties:
    serializedVersion: 2
    m_TexEnvs:
      data:
        first:
          name: _MainTex
        second:
          m_Texture: {fileID: 2800000, guid: 1222e7b4e6073ed4d85c9aa328ebd907, type: 3}
          m_Scale: {x: 1, y: 1}
          m_Offset: {x: 0, y: 0}
      data:
        first:
          name: _WaterTex
        second:
          m_Texture: {fileID: 0}
          m_Scale: {x: 1, y: 1}
          m_Offset: {x: 0, y: 0}
    m_Floats:
      data:
        first:
          name: _FillFade
        second: .100000001
      data:
        first:
          name: _FillAmount
        second: 0
      data:
        first:
          name: _InflationScale
        second: 1
      data:
        first:
          name: _InflateEnd0
        second: 0
      data:
        first:
          name: _InflateEnd1
        second: 0
      data:
        first:
          name: _Colorization
        second: 0
    m_Colors:
      data:
        first:
          name: _Color
        second: {r: 1, g: 1, b: 1, a: 1}
