%YAML 1.1
%TAG !u! tag:unity3d.com,2011:
--- !u!43 &4300000
Mesh:
  m_ObjectHideFlags: 0
  m_PrefabParentObject: {fileID: 0}
  m_PrefabInternal: {fileID: 0}
  m_Name: LIST2_DOP_CTRL_mesh
  serializedVersion: 8
  m_SubMeshes:
  - serializedVersion: 2
    firstByte: 0
    indexCount: 6
    topology: 0
    firstVertex: 0
    vertexCount: 4
    localAABB:
      m_Center: {x: 7, y: 28, z: .00999999978}
      m_Extent: {x: 16.5, y: 34.5, z: 0}
  m_Shapes:
    vertices: []
    shapes: []
    channels: []
    fullWeights: []
  m_BindPose: []
  m_BoneNameHashes: 
  m_RootBoneNameHash: 0
  m_MeshCompression: 0
  m_StreamCompression: 0
  m_IsReadable: 1
  m_KeepVertices: 1
  m_KeepIndices: 1
  m_IndexBuffer: 000001000200000002000300
  m_Skin: []
  m_VertexData:
    m_CurrentChannels: 11
    m_VertexCount: 4
    m_Channels:
    - stream: 0
      offset: 0
      format: 0
      dimension: 3
    - stream: 0
      offset: 12
      format: 0
      dimension: 3
    - stream: 0
      offset: 0
      format: 0
      dimension: 0
    - stream: 0
      offset: 24
      format: 0
      dimension: 2
    - stream: 0
      offset: 0
      format: 0
      dimension: 0
    - stream: 0
      offset: 0
      format: 0
      dimension: 0
    m_Streams:
    - channelMask: 11
      offset: 0
      stride: 32
      dividerOp: 0
      frequency: 0
    - channelMask: 0
      offset: 0
      stride: 0
      dividerOp: 0
      frequency: 0
    - channelMask: 0
      offset: 0
      stride: 0
      dividerOp: 0
      frequency: 0
    - channelMask: 0
      offset: 0
      stride: 0
      dividerOp: 0
      frequency: 0
    m_DataSize: 128
    _typelessdata: 000018c100007a420ad7233c0000000000000000000080bf000000000000803f0000bc4100007a420ad7233c0000000000000000000080bf0000803f0000803f0000bc410000d0c00ad7233c0000000000000000000080bf0000803f00000000000018c10000d0c00ad7233c0000000000000000000080bf0000000000000000
  m_CompressedMesh:
    m_Vertices:
      m_NumItems: 0
      m_Range: 0
      m_Start: 0
      m_Data: 
      m_BitSize: 0
    m_UV:
      m_NumItems: 0
      m_Range: 0
      m_Start: 0
      m_Data: 
      m_BitSize: 0
    m_BindPoses:
      m_NumItems: 0
      m_Range: 0
      m_Start: 0
      m_Data: 
      m_BitSize: 0
    m_Normals:
      m_NumItems: 0
      m_Range: 0
      m_Start: 0
      m_Data: 
      m_BitSize: 0
    m_Tangents:
      m_NumItems: 0
      m_Range: 0
      m_Start: 0
      m_Data: 
      m_BitSize: 0
    m_Weights:
      m_NumItems: 0
      m_Data: 
      m_BitSize: 0
    m_NormalSigns:
      m_NumItems: 0
      m_Data: 
      m_BitSize: 0
    m_TangentSigns:
      m_NumItems: 0
      m_Data: 
      m_BitSize: 0
    m_BoneIndices:
      m_NumItems: 0
      m_Data: 
      m_BitSize: 0
    m_Triangles:
      m_NumItems: 0
      m_Data: 
      m_BitSize: 0
    m_Colors:
      m_NumItems: 0
      m_Data: 
      m_BitSize: 0
  m_LocalAABB:
    m_Center: {x: 7, y: 28, z: .00999999978}
    m_Extent: {x: 16.5, y: 34.5, z: 0}
  m_MeshUsageFlags: 0
  m_MeshOptimized: 0
