%YAML 1.1
%TAG !u! tag:unity3d.com,2011:
--- !u!21 &2100000
Material:
  serializedVersion: 6
  m_ObjectHideFlags: 0
  m_PrefabParentObject: {fileID: 0}
  m_PrefabInternal: {fileID: 0}
  m_Name: repeat_mat
  m_Shader: {fileID: 4800000, guid: 17ec5dc64c70e6a4c852a161742c1953, type: 3}
  m_ShaderKeywords: 
  m_LightmapFlags: 5
  m_CustomRenderQueue: -1
  stringTagMap:
    'Platform:': '?Shader:"Blend: Alpha", ?RGB+A:True, ?Color:False, ?Vertex:False,
      _Color:"1,1,1,1", _MainTex:173872534cf5e407e93a1d673dbff114, _MainTex_ST:"1,1,0,0",
      _MainTex_Alpha:f8233e021ce746649918c9259a3b61b5'
  m_SavedProperties:
    serializedVersion: 2
    m_TexEnvs:
      data:
        first:
          name: _MainTex
        second:
          m_Texture: {fileID: 2800000, guid: 173872534cf5e407e93a1d673dbff114, type: 3}
          m_Scale: {x: 1, y: 1}
          m_Offset: {x: 0, y: 0}
      data:
        first:
          name: _MainTex_Alpha
        second:
          m_Texture: {fileID: 2800000, guid: f8233e021ce746649918c9259a3b61b5, type: 3}
          m_Scale: {x: 1, y: 1}
          m_Offset: {x: 0, y: 0}
    m_Floats:
      data:
        first:
          name: _BiniUber
        second: 0
    m_Colors:
      data:
        first:
          name: _Color
        second: {r: 1, g: 1, b: 1, a: 1}
