%YAML 1.1
%TAG !u! tag:unity3d.com,2011:
--- !u!74 &7400000
AnimationClip:
  m_ObjectHideFlags: 0
  m_PrefabParentObject: {fileID: 0}
  m_PrefabInternal: {fileID: 0}
  m_Name: TESTO_RASKATKA
  serializedVersion: 4
  m_AnimationType: 2
  m_Compressed: 0
  m_UseHighQualityCurve: 1
  m_RotationCurves: []
  m_CompressedRotationCurves: []
  m_PositionCurves:
  - curve:
      serializedVersion: 2
      m_Curve:
      - time: 0
        value: {x: -23, y: -76, z: -40}
        inSlope: {x: 0, y: 0, z: 0}
        outSlope: {x: 0, y: 0, z: 0}
        tangentMode: 0
      - time: .333333343
        value: {x: -23, y: -33, z: -40}
        inSlope: {x: 0, y: 0, z: 0}
        outSlope: {x: 0, y: 0, z: 0}
        tangentMode: 1093664768
      m_PreInfinity: 2
      m_PostInfinity: 2
    path: TESTO_1
  - curve:
      serializedVersion: 2
      m_Curve:
      - time: 0
        value: {x: 0, y: 0, z: -20}
        inSlope: {x: 0, y: 0, z: 0}
        outSlope: {x: 0, y: 0, z: 0}
        tangentMode: 0
      - time: .833333313
        value: {x: -25, y: 4, z: -20}
        inSlope: {x: 0, y: 0, z: 0}
        outSlope: {x: 0, y: 0, z: 0}
        tangentMode: 3
      - time: 1
        value: {x: -24, y: 0, z: -20}
        inSlope: {x: 0, y: 0, z: 0}
        outSlope: {x: 0, y: 0, z: 0}
        tangentMode: -678801765
      - time: 1.33333337
        value: {x: 0, y: 0, z: -20}
        inSlope: {x: 0, y: 0, z: 0}
        outSlope: {x: 0, y: 0, z: 0}
        tangentMode: 118575008
      m_PreInfinity: 2
      m_PostInfinity: 2
    path: TESTO_2
  - curve:
      serializedVersion: 2
      m_Curve:
      - time: 0
        value: {x: 0, y: 0, z: -30}
        inSlope: {x: -22.8000011, y: -49.2000008, z: 0}
        outSlope: {x: -22.8000011, y: -49.2000008, z: 0}
        tangentMode: 0
      - time: .833333313
        value: {x: -19, y: -41, z: -30}
        inSlope: {x: 10.5999975, y: -24.6000004, z: 0}
        outSlope: {x: 10.5999975, y: -24.6000004, z: 0}
        tangentMode: 3
      - time: 1.33333337
        value: {x: 3, y: -41, z: -30}
        inSlope: {x: 43.9999962, y: 0, z: 0}
        outSlope: {x: 43.9999962, y: 0, z: 0}
        tangentMode: 117900632
      m_PreInfinity: 2
      m_PostInfinity: 2
    path: TESTO_3
  m_ScaleCurves:
  - curve:
      serializedVersion: 2
      m_Curve:
      - time: 0
        value: {x: 1, y: 1, z: 1}
        inSlope: {x: 0, y: 0, z: 0}
        outSlope: {x: 0, y: 0, z: 0}
        tangentMode: 0
      - time: .333333343
        value: {x: 1.5, y: 1.79999995, z: 1}
        inSlope: {x: 0, y: 0, z: 0}
        outSlope: {x: 0, y: 0, z: 0}
        tangentMode: 0
      - time: .5
        value: {x: 1.29999995, y: 1.60000002, z: 1}
        inSlope: {x: 0, y: 0, z: 0}
        outSlope: {x: 0, y: 0, z: 0}
        tangentMode: 106561572
      - time: .833333313
        value: {x: 2, y: 2, z: 1}
        inSlope: {x: 0, y: 0, z: 0}
        outSlope: {x: 0, y: 0, z: 0}
        tangentMode: 106561572
      - time: 1
        value: {x: 1.79999995, y: 1.79999995, z: 1}
        inSlope: {x: 0, y: 0, z: 0}
        outSlope: {x: 0, y: 0, z: 0}
        tangentMode: 117910820
      m_PreInfinity: 2
      m_PostInfinity: 2
    path: TESTO_1
  - curve:
      serializedVersion: 2
      m_Curve:
      - time: 0
        value: {x: 1, y: 1, z: 1}
        inSlope: {x: 0, y: 0, z: 0}
        outSlope: {x: 0, y: 0, z: 0}
        tangentMode: 0
      - time: .833333313
        value: {x: .653250694, y: .920000017, z: 1}
        inSlope: {x: 0, y: 0, z: 0}
        outSlope: {x: 0, y: 0, z: 0}
        tangentMode: 0
      - time: 1
        value: {x: .600000024, y: .839999974, z: 1}
        inSlope: {x: 0, y: 0, z: 0}
        outSlope: {x: 0, y: 0, z: 0}
        tangentMode: 0
      - time: 1.33333337
        value: {x: .800000012, y: 1, z: 1}
        inSlope: {x: 0, y: 0, z: 0}
        outSlope: {x: 0, y: 0, z: 0}
        tangentMode: 0
      - time: 1.5
        value: {x: .75, y: .949999988, z: 1}
        inSlope: {x: 0, y: 0, z: 0}
        outSlope: {x: 0, y: 0, z: 0}
        tangentMode: 0
      - time: 1.83333337
        value: {x: 1.04999995, y: 1.04999995, z: 1}
        inSlope: {x: 0, y: 0, z: 0}
        outSlope: {x: 0, y: 0, z: 0}
        tangentMode: 0
      - time: 2
        value: {x: 1, y: 1, z: 1}
        inSlope: {x: 0, y: 0, z: 0}
        outSlope: {x: 0, y: 0, z: 0}
        tangentMode: 4
      m_PreInfinity: 2
      m_PostInfinity: 2
    path: TESTO_2
  - curve:
      serializedVersion: 2
      m_Curve:
      - time: 0
        value: {x: 1, y: 1, z: 1}
        inSlope: {x: .576000035, y: .996000051, z: 0}
        outSlope: {x: .576000035, y: .996000051, z: 0}
        tangentMode: 1065353216
      - time: .833333313
        value: {x: 1.48000002, y: 1.83000004, z: 1}
        inSlope: {x: .0479999185, y: .257999927, z: 0}
        outSlope: {x: .0479999185, y: .257999927, z: 0}
        tangentMode: 1065353216
      - time: 1
        value: {x: 1.39999998, y: 1.75, z: 1}
        inSlope: {x: .359999806, y: .134999871, z: 0}
        outSlope: {x: .359999806, y: .134999871, z: 0}
        tangentMode: 0
      - time: 1.33333337
        value: {x: 1.79999995, y: 2, z: 1}
        inSlope: {x: 1.19999981, y: .74999994, z: 0}
        outSlope: {x: 1.19999981, y: .74999994, z: 0}
        tangentMode: 115271828
      m_PreInfinity: 2
      m_PostInfinity: 2
    path: TESTO_3
  m_FloatCurves:
  - curve:
      serializedVersion: 2
      m_Curve:
      - time: 0
        value: 1
        inSlope: Infinity
        outSlope: Infinity
        tangentMode: 31
      - time: .833333313
        value: 0
        inSlope: Infinity
        outSlope: Infinity
        tangentMode: 31
      m_PreInfinity: 2
      m_PostInfinity: 2
    attribute: m_IsActive
    path: TESTO_1
    classID: 1
    script: {fileID: 0}
  - curve:
      serializedVersion: 2
      m_Curve:
      - time: 0
        value: 0
        inSlope: Infinity
        outSlope: Infinity
        tangentMode: 31
      - time: 1.33333337
        value: 1
        inSlope: Infinity
        outSlope: Infinity
        tangentMode: 31
      m_PreInfinity: 2
      m_PostInfinity: 2
    attribute: m_IsActive
    path: TESTO_2
    classID: 1
    script: {fileID: 0}
  - curve:
      serializedVersion: 2
      m_Curve:
      - time: 0
        value: 0
        inSlope: Infinity
        outSlope: Infinity
        tangentMode: 31
      - time: .833333313
        value: 1
        inSlope: Infinity
        outSlope: Infinity
        tangentMode: 31
      - time: 1.33333337
        value: 0
        inSlope: Infinity
        outSlope: Infinity
        tangentMode: 31
      m_PreInfinity: 2
      m_PostInfinity: 2
    attribute: m_IsActive
    path: TESTO_3
    classID: 1
    script: {fileID: 0}
  m_PPtrCurves: []
  m_SampleRate: 60
  m_WrapMode: 0
  m_Bounds:
    m_Center: {x: 0, y: 0, z: 0}
    m_Extent: {x: 0, y: 0, z: 0}
  m_ClipBindingConstant:
    genericBindings:
    - path: 964964279
      attribute: 1
      script: {fileID: 0}
      classID: 4
      customType: 0
      isPPtrCurve: 0
    - path: 2693627405
      attribute: 1
      script: {fileID: 0}
      classID: 4
      customType: 0
      isPPtrCurve: 0
    - path: 3616165531
      attribute: 1
      script: {fileID: 0}
      classID: 4
      customType: 0
      isPPtrCurve: 0
    - path: 964964279
      attribute: 3
      script: {fileID: 0}
      classID: 4
      customType: 0
      isPPtrCurve: 0
    - path: 2693627405
      attribute: 3
      script: {fileID: 0}
      classID: 4
      customType: 0
      isPPtrCurve: 0
    - path: 3616165531
      attribute: 3
      script: {fileID: 0}
      classID: 4
      customType: 0
      isPPtrCurve: 0
    - path: 964964279
      attribute: 2086281974
      script: {fileID: 0}
      classID: 1
      customType: 0
      isPPtrCurve: 0
    - path: 2693627405
      attribute: 2086281974
      script: {fileID: 0}
      classID: 1
      customType: 0
      isPPtrCurve: 0
    - path: 3616165531
      attribute: 2086281974
      script: {fileID: 0}
      classID: 1
      customType: 0
      isPPtrCurve: 0
    pptrCurveMapping: []
  m_AnimationClipSettings:
    serializedVersion: 2
    m_StartTime: 0
    m_StopTime: 2
    m_OrientationOffsetY: 0
    m_Level: 0
    m_CycleOffset: 0
    m_LoopTime: 1
    m_LoopBlend: 0
    m_LoopBlendOrientation: 0
    m_LoopBlendPositionY: 0
    m_LoopBlendPositionXZ: 0
    m_KeepOriginalOrientation: 0
    m_KeepOriginalPositionY: 1
    m_KeepOriginalPositionXZ: 0
    m_HeightFromFeet: 0
    m_Mirror: 0
  m_EditorCurves:
  - curve:
      serializedVersion: 2
      m_Curve:
      - time: 0
        value: -23
        inSlope: 0
        outSlope: 0
        tangentMode: 0
      - time: .333333343
        value: -23
        inSlope: 0
        outSlope: 0
        tangentMode: 0
      m_PreInfinity: 2
      m_PostInfinity: 2
    attribute: m_LocalPosition.x
    path: TESTO_1
    classID: 4
    script: {fileID: 0}
  - curve:
      serializedVersion: 2
      m_Curve:
      - time: 0
        value: -76
        inSlope: 0
        outSlope: 0
        tangentMode: 0
      - time: .333333343
        value: -33
        inSlope: 0
        outSlope: 0
        tangentMode: 0
      m_PreInfinity: 2
      m_PostInfinity: 2
    attribute: m_LocalPosition.y
    path: TESTO_1
    classID: 4
    script: {fileID: 0}
  - curve:
      serializedVersion: 2
      m_Curve:
      - time: 0
        value: -40
        inSlope: 0
        outSlope: 0
        tangentMode: 0
      - time: .333333343
        value: -40
        inSlope: 0
        outSlope: 0
        tangentMode: 0
      m_PreInfinity: 2
      m_PostInfinity: 2
    attribute: m_LocalPosition.z
    path: TESTO_1
    classID: 4
    script: {fileID: 0}
  - curve:
      serializedVersion: 2
      m_Curve:
      - time: 0
        value: 1
        inSlope: 0
        outSlope: 0
        tangentMode: 0
      - time: .333333343
        value: 1.5
        inSlope: 0
        outSlope: 0
        tangentMode: 0
      - time: .5
        value: 1.29999995
        inSlope: 0
        outSlope: 0
        tangentMode: 0
      - time: .833333313
        value: 2
        inSlope: 0
        outSlope: 0
        tangentMode: 0
      - time: 1
        value: 1.79999995
        inSlope: 0
        outSlope: 0
        tangentMode: 0
      m_PreInfinity: 2
      m_PostInfinity: 2
    attribute: m_LocalScale.x
    path: TESTO_1
    classID: 4
    script: {fileID: 0}
  - curve:
      serializedVersion: 2
      m_Curve:
      - time: 0
        value: 1
        inSlope: 0
        outSlope: 0
        tangentMode: 0
      - time: .333333343
        value: 1.79999995
        inSlope: 0
        outSlope: 0
        tangentMode: 0
      - time: .5
        value: 1.60000002
        inSlope: 0
        outSlope: 0
        tangentMode: 0
      - time: .833333313
        value: 2
        inSlope: 0
        outSlope: 0
        tangentMode: 0
      - time: 1
        value: 1.79999995
        inSlope: 0
        outSlope: 0
        tangentMode: 0
      m_PreInfinity: 2
      m_PostInfinity: 2
    attribute: m_LocalScale.y
    path: TESTO_1
    classID: 4
    script: {fileID: 0}
  - curve:
      serializedVersion: 2
      m_Curve:
      - time: 0
        value: 1
        inSlope: 0
        outSlope: 0
        tangentMode: 0
      - time: .333333343
        value: 1
        inSlope: 0
        outSlope: 0
        tangentMode: 0
      - time: .5
        value: 1
        inSlope: 0
        outSlope: 0
        tangentMode: 0
      - time: .833333313
        value: 1
        inSlope: 0
        outSlope: 0
        tangentMode: 0
      - time: 1
        value: 1
        inSlope: 0
        outSlope: 0
        tangentMode: 0
      m_PreInfinity: 2
      m_PostInfinity: 2
    attribute: m_LocalScale.z
    path: TESTO_1
    classID: 4
    script: {fileID: 0}
  - curve:
      serializedVersion: 2
      m_Curve:
      - time: 0
        value: 1
        inSlope: Infinity
        outSlope: Infinity
        tangentMode: 31
      - time: .833333313
        value: 0
        inSlope: Infinity
        outSlope: Infinity
        tangentMode: 31
      m_PreInfinity: 2
      m_PostInfinity: 2
    attribute: m_IsActive
    path: TESTO_1
    classID: 1
    script: {fileID: 0}
  - curve:
      serializedVersion: 2
      m_Curve:
      - time: 0
        value: 0
        inSlope: 0
        outSlope: 0
        tangentMode: 0
      - time: .833333313
        value: -25
        inSlope: 0
        outSlope: 0
        tangentMode: 0
      - time: 1
        value: -24
        inSlope: 0
        outSlope: 0
        tangentMode: 0
      - time: 1.33333337
        value: 0
        inSlope: 0
        outSlope: 0
        tangentMode: 0
      m_PreInfinity: 2
      m_PostInfinity: 2
    attribute: m_LocalPosition.x
    path: TESTO_2
    classID: 4
    script: {fileID: 0}
  - curve:
      serializedVersion: 2
      m_Curve:
      - time: 0
        value: 0
        inSlope: 0
        outSlope: 0
        tangentMode: 0
      - time: .833333313
        value: 4
        inSlope: 0
        outSlope: 0
        tangentMode: 0
      - time: 1
        value: 0
        inSlope: 0
        outSlope: 0
        tangentMode: 0
      - time: 1.33333337
        value: 0
        inSlope: 0
        outSlope: 0
        tangentMode: 0
      m_PreInfinity: 2
      m_PostInfinity: 2
    attribute: m_LocalPosition.y
    path: TESTO_2
    classID: 4
    script: {fileID: 0}
  - curve:
      serializedVersion: 2
      m_Curve:
      - time: 0
        value: -20
        inSlope: 0
        outSlope: 0
        tangentMode: 0
      - time: .833333313
        value: -20
        inSlope: 0
        outSlope: 0
        tangentMode: 0
      - time: 1
        value: -20
        inSlope: 0
        outSlope: 0
        tangentMode: 0
      - time: 1.33333337
        value: -20
        inSlope: 0
        outSlope: 0
        tangentMode: 0
      m_PreInfinity: 2
      m_PostInfinity: 2
    attribute: m_LocalPosition.z
    path: TESTO_2
    classID: 4
    script: {fileID: 0}
  - curve:
      serializedVersion: 2
      m_Curve:
      - time: 0
        value: 1
        inSlope: 0
        outSlope: 0
        tangentMode: 0
      - time: .833333313
        value: .653250694
        inSlope: 0
        outSlope: 0
        tangentMode: 0
      - time: 1
        value: .600000024
        inSlope: 0
        outSlope: 0
        tangentMode: 0
      - time: 1.33333337
        value: .800000012
        inSlope: 0
        outSlope: 0
        tangentMode: 0
      - time: 1.5
        value: .75
        inSlope: 0
        outSlope: 0
        tangentMode: 0
      - time: 1.83333337
        value: 1.04999995
        inSlope: 0
        outSlope: 0
        tangentMode: 0
      - time: 2
        value: 1
        inSlope: 0
        outSlope: 0
        tangentMode: 0
      m_PreInfinity: 2
      m_PostInfinity: 2
    attribute: m_LocalScale.x
    path: TESTO_2
    classID: 4
    script: {fileID: 0}
  - curve:
      serializedVersion: 2
      m_Curve:
      - time: 0
        value: 1
        inSlope: 0
        outSlope: 0
        tangentMode: 0
      - time: .833333313
        value: .920000017
        inSlope: 0
        outSlope: 0
        tangentMode: 0
      - time: 1
        value: .839999974
        inSlope: 0
        outSlope: 0
        tangentMode: 0
      - time: 1.33333337
        value: 1
        inSlope: 0
        outSlope: 0
        tangentMode: 0
      - time: 1.5
        value: .949999988
        inSlope: 0
        outSlope: 0
        tangentMode: 0
      - time: 1.83333337
        value: 1.04999995
        inSlope: 0
        outSlope: 0
        tangentMode: 0
      - time: 2
        value: 1
        inSlope: 0
        outSlope: 0
        tangentMode: 0
      m_PreInfinity: 2
      m_PostInfinity: 2
    attribute: m_LocalScale.y
    path: TESTO_2
    classID: 4
    script: {fileID: 0}
  - curve:
      serializedVersion: 2
      m_Curve:
      - time: 0
        value: 1
        inSlope: 0
        outSlope: 0
        tangentMode: 0
      - time: .833333313
        value: 1
        inSlope: 0
        outSlope: 0
        tangentMode: 0
      - time: 1
        value: 1
        inSlope: 0
        outSlope: 0
        tangentMode: 0
      - time: 1.33333337
        value: 1
        inSlope: 0
        outSlope: 0
        tangentMode: 0
      - time: 1.5
        value: 1
        inSlope: 0
        outSlope: 0
        tangentMode: 0
      - time: 1.83333337
        value: 1
        inSlope: 0
        outSlope: 0
        tangentMode: 0
      - time: 2
        value: 1
        inSlope: 0
        outSlope: 0
        tangentMode: 0
      m_PreInfinity: 2
      m_PostInfinity: 2
    attribute: m_LocalScale.z
    path: TESTO_2
    classID: 4
    script: {fileID: 0}
  - curve:
      serializedVersion: 2
      m_Curve:
      - time: 0
        value: 0
        inSlope: Infinity
        outSlope: Infinity
        tangentMode: 31
      - time: 1.33333337
        value: 1
        inSlope: Infinity
        outSlope: Infinity
        tangentMode: 31
      m_PreInfinity: 2
      m_PostInfinity: 2
    attribute: m_IsActive
    path: TESTO_2
    classID: 1
    script: {fileID: 0}
  - curve:
      serializedVersion: 2
      m_Curve:
      - time: 0
        value: 0
        inSlope: -22.8000011
        outSlope: -22.8000011
        tangentMode: 10
      - time: .833333313
        value: -19
        inSlope: 10.5999975
        outSlope: 10.5999975
        tangentMode: 10
      - time: 1.33333337
        value: 3
        inSlope: 43.9999962
        outSlope: 43.9999962
        tangentMode: 10
      m_PreInfinity: 2
      m_PostInfinity: 2
    attribute: m_LocalPosition.x
    path: TESTO_3
    classID: 4
    script: {fileID: 0}
  - curve:
      serializedVersion: 2
      m_Curve:
      - time: 0
        value: 0
        inSlope: -49.2000008
        outSlope: -49.2000008
        tangentMode: 10
      - time: .833333313
        value: -41
        inSlope: -24.6000004
        outSlope: -24.6000004
        tangentMode: 10
      - time: 1.33333337
        value: -41
        inSlope: 0
        outSlope: 0
        tangentMode: 10
      m_PreInfinity: 2
      m_PostInfinity: 2
    attribute: m_LocalPosition.y
    path: TESTO_3
    classID: 4
    script: {fileID: 0}
  - curve:
      serializedVersion: 2
      m_Curve:
      - time: 0
        value: -30
        inSlope: 0
        outSlope: 0
        tangentMode: 10
      - time: .833333313
        value: -30
        inSlope: 0
        outSlope: 0
        tangentMode: 10
      - time: 1.33333337
        value: -30
        inSlope: 0
        outSlope: 0
        tangentMode: 10
      m_PreInfinity: 2
      m_PostInfinity: 2
    attribute: m_LocalPosition.z
    path: TESTO_3
    classID: 4
    script: {fileID: 0}
  - curve:
      serializedVersion: 2
      m_Curve:
      - time: 0
        value: 1
        inSlope: .576000035
        outSlope: .576000035
        tangentMode: 10
      - time: .833333313
        value: 1.48000002
        inSlope: .0479999185
        outSlope: .0479999185
        tangentMode: 10
      - time: 1
        value: 1.39999998
        inSlope: .359999806
        outSlope: .359999806
        tangentMode: 10
      - time: 1.33333337
        value: 1.79999995
        inSlope: 1.19999981
        outSlope: 1.19999981
        tangentMode: 10
      m_PreInfinity: 2
      m_PostInfinity: 2
    attribute: m_LocalScale.x
    path: TESTO_3
    classID: 4
    script: {fileID: 0}
  - curve:
      serializedVersion: 2
      m_Curve:
      - time: 0
        value: 1
        inSlope: .996000051
        outSlope: .996000051
        tangentMode: 10
      - time: .833333313
        value: 1.83000004
        inSlope: .257999927
        outSlope: .257999927
        tangentMode: 10
      - time: 1
        value: 1.75
        inSlope: .134999871
        outSlope: .134999871
        tangentMode: 10
      - time: 1.33333337
        value: 2
        inSlope: .74999994
        outSlope: .74999994
        tangentMode: 10
      m_PreInfinity: 2
      m_PostInfinity: 2
    attribute: m_LocalScale.y
    path: TESTO_3
    classID: 4
    script: {fileID: 0}
  - curve:
      serializedVersion: 2
      m_Curve:
      - time: 0
        value: 1
        inSlope: 0
        outSlope: 0
        tangentMode: 10
      - time: .833333313
        value: 1
        inSlope: 0
        outSlope: 0
        tangentMode: 10
      - time: 1
        value: 1
        inSlope: 0
        outSlope: 0
        tangentMode: 10
      - time: 1.33333337
        value: 1
        inSlope: 0
        outSlope: 0
        tangentMode: 10
      m_PreInfinity: 2
      m_PostInfinity: 2
    attribute: m_LocalScale.z
    path: TESTO_3
    classID: 4
    script: {fileID: 0}
  - curve:
      serializedVersion: 2
      m_Curve:
      - time: 0
        value: 0
        inSlope: Infinity
        outSlope: Infinity
        tangentMode: 31
      - time: .833333313
        value: 1
        inSlope: Infinity
        outSlope: Infinity
        tangentMode: 31
      - time: 1.33333337
        value: 0
        inSlope: Infinity
        outSlope: Infinity
        tangentMode: 31
      m_PreInfinity: 2
      m_PostInfinity: 2
    attribute: m_IsActive
    path: TESTO_3
    classID: 1
    script: {fileID: 0}
  m_EulerEditorCurves: []
  m_Events: []
